Username,Password
iitrpr_extra1,NXITHFWL
iitrpr_extra2,JMSBBRNW
iitrpr_extra3,ZQIRDHSM
iitrpr_extra4,KMSONSIR
iitrpr_extra5,LSGTORZE
iitrpr_extra6,QDHTGUKD
iitrpr_extra7,GCTFXFQA
iitrpr_extra8,XVPQCBKX
iitrpr_extra9,OSEYQPTW
iitrpr_extra10,PISLTKSO
iitrpr_extra11,SZXSWHRD
iitrpr_extra12,KRYVHJLV
iitrpr_extra13,BFZNSBQI
iitrpr_extra14,EVZOHCSP
iitrpr_extra15,PXXZUICJ
iitrpr_extra16,EHERMNSN
iitrpr_extra17,CRGFKFRB
iitrpr_extra18,BNBOFQRG
iitrpr_extra19,OACKMUXF
iitrpr_extra20,XALRZHOD
iitrpr_extra21,JOELGAEX
iitrpr_extra22,QSIFQBTB
iitrpr_extra23,PDGRYXPN
iitrpr_extra24,MCIQKPOZ
iitrpr_extra25,PDWLPKDS
iitrpr_extra26,YLRSGYBU
iitrpr_extra27,IKIXANRV
iitrpr_extra28,GHSWNXKS
iitrpr_extra29,HMAZMCXN
iitrpr_extra30,JLNJKDXB
iitrpr_extra31,RRXSGRIC
iitrpr_extra32,VNCSMGFY
iitrpr_extra33,RMXFFNYD
iitrpr_extra34,TRXRYVNP
iitrpr_extra35,RCITFMON
iitrpr_extra36,LITBTBLF
iitrpr_extra37,YIYINSOI
iitrpr_extra38,IMUYJNNS
iitrpr_extra39,TNVKIFBH
iitrpr_extra40,AICHTAAI
iitrpr_extra41,ZICRIBSJ
iitrpr_extra42,GQSBELQF
iitrpr_extra43,MJFFBGWA
iitrpr_extra44,DHGPXCJH
iitrpr_extra45,DCIVSTPA
iitrpr_extra46,ITJAHGZX
iitrpr_extra47,UDQUEATG
iitrpr_extra48,BBWKKZKD
iitrpr_extra49,EDMFJCSJ
iitrpr_extra50,CXQSLJQZ
iitrpr_extra51,PNTENJVF
