Username,Password
nitt_extra1,VYUMXYNV
nitt_extra2,RANGVUGM
nitt_extra3,DXRDHJUB
nitt_extra4,SZCWGTXD
nitt_extra5,NGQXLFLC
nitt_extra6,ZMQPGZTA
nitt_extra7,NRZGFKAT
nitt_extra8,BADRFPLQ
nitt_extra9,EELVDAZE
nitt_extra10,SHDMFNYX
nitt_extra11,BHPCYSQU
nitt_extra12,TLYKPFAA
nitt_extra13,DJCXZTYW
nitt_extra14,CRYMBDLL
nitt_extra15,JCTZFSRF
nitt_extra16,VOCKRLKX
nitt_extra17,VDMBSBDM
nitt_extra18,WNKBWOXF
nitt_extra19,QCGMZDLM
nitt_extra20,TRTTPMFF
nitt_extra21,YMCWSHJF
nitt_extra22,MEWNTAPB
nitt_extra23,IJXQPAYQ
nitt_extra24,WHBPVNKA
nitt_extra25,DTHKXOAL
nitt_extra26,UQHAMLKF
nitt_extra27,RAYEAQKG
nitt_extra28,YUFJIWKO
nitt_extra29,QPABHRXQ
nitt_extra30,XEVRCSPJ
nitt_extra31,OJVWIRVQ
nitt_extra32,MVLGEECL
nitt_extra33,CBOUKEDK
nitt_extra34,CCXOYTDN
nitt_extra35,ZIZEDYGP
nitt_extra36,ZOYEJLSU
nitt_extra37,AQVDAJCL
nitt_extra38,UZPMFTFU
nitt_extra39,WIUBUUAS
nitt_extra40,CFPHNBAZ
nitt_extra41,ODUWFBSD
nitt_extra42,BKKWPPKW
nitt_extra43,JZRQBJDE
nitt_extra44,MCNZJYLS
nitt_extra45,SOCTKPXL
nitt_extra46,THPNYWNE
nitt_extra47,DESXMYHT
nitt_extra48,JYQJDQQK
nitt_extra49,VLNPMBFR
nitt_extra50,ZFLHAWYM
