Username,Password
axxela_user1@email.com,D7H4AY35
axxela_user2@email.com,GL8CZV2L
axxela_user3@email.com,BZF533FJ
axxela_user4@email.com,S0J8OVKM
axxela_user5@email.com,UZDZ8P1U
axxela_user6@email.com,VHRK3YPT
axxela_user7@email.com,8QWC4CQA
axxela_user8@email.com,04PD810Q
axxela_user9@email.com,Y0MOHN24
axxela_user10@email.com,WUJZK75V
axxela_user11@email.com,FSAQOKVJ
axxela_user12@email.com,EURVTVWK
axxela_user13@email.com,RJA0LNJ5
axxela_user14@email.com,LZC84SAX
axxela_user15@email.com,UBG9QI25
axxela_user16@email.com,WGPLCJ6B
axxela_user17@email.com,RSWAZ9Z9
axxela_user18@email.com,ICT1Z39N
axxela_user19@email.com,BA79CP0P
axxela_user20@email.com,12W7HJM7
axxela_user21@email.com,IUNK6JTW
axxela_user22@email.com,HYHDU676
axxela_user23@email.com,B1GD8G4X
axxela_user24@email.com,5E4CQ0X6
axxela_user25@email.com,ZW5FRMBG
axxela_user26@email.com,BBH6NML8
axxela_user27@email.com,IVCC2X0U
axxela_user28@email.com,VVYOQ7K0
axxela_user29@email.com,ZUYR3MV1
axxela_user30@email.com,XOKPR7SF
axxela_user31@email.com,XYKMGGVH
axxela_user32@email.com,IPJLTQDS
axxela_user33@email.com,WGCNUM7S
axxela_user34@email.com,9CZL7SUL
axxela_user35@email.com,R59W012A
axxela_user36@email.com,IRWZJJGO
axxela_user37@email.com,4851E0LE
axxela_user38@email.com,QWBW8XZX
axxela_user39@email.com,ABJD4IQM
axxela_user40@email.com,LRGURG7F
axxela_user41@email.com,47R37R7F
axxela_user42@email.com,CZAK9H0L
axxela_user43@email.com,4395QK1I
axxela_user44@email.com,CXQ1YQUQ
axxela_user45@email.com,B7YO8E43
axxela_user46@email.com,QH84EMSY
axxela_user47@email.com,THWI106L
axxela_user48@email.com,YGHSKK8C
axxela_user49@email.com,T2DQW6FJ
axxela_user50@email.com,XO3E97BT
axxela_user51@email.com,ORCR7VM8
axxela_user52@email.com,T4IUGHEO
axxela_user53@email.com,87D8006G
axxela_user54@email.com,EQPGEHFP
axxela_user55@email.com,QN2DIUVV
axxela_user56@email.com,GWWMS4NF
axxela_user57@email.com,XWNVMII0
axxela_user58@email.com,AV3CD625
axxela_user59@email.com,EMFZFRLP
axxela_user60@email.com,0P8IDICB
axxela_user61@email.com,TONRP9UN
axxela_user62@email.com,IR2WXZO8
axxela_user63@email.com,10KNKF1P
axxela_user64@email.com,QS7SHFNV
axxela_user65@email.com,WO11L8KB
axxela_user66@email.com,X86T1H4S
axxela_user67@email.com,5N09G9SL
axxela_user68@email.com,MJ08MPOY
axxela_user69@email.com,LJNL069A
axxela_user70@email.com,R011D2A3
axxela_user71@email.com,1WNEBLQC
axxela_user72@email.com,3V8RSKW8
axxela_user73@email.com,4N79FJUM
axxela_user74@email.com,8NIS8LPT
axxela_user75@email.com,RUZ82XMO
axxela_user76@email.com,J22O6B77
axxela_user77@email.com,5N8G163Q
axxela_user78@email.com,6SQEYPPN
axxela_user79@email.com,5XCGC59A
axxela_user80@email.com,ZMGTGEAP
axxela_user81@email.com,C2LSBNMA
axxela_user82@email.com,06H7YH04
axxela_user83@email.com,BBX2AM5L
axxela_user84@email.com,PXOYEO1E
axxela_user85@email.com,6NAXWH9V
axxela_user86@email.com,XMZZEMI0
axxela_user87@email.com,GVPXYP9H
axxela_user88@email.com,2LZKM25M
axxela_user89@email.com,QCX251KX
axxela_user90@email.com,D174J116
axxela_user91@email.com,CY1D8UG8
axxela_user92@email.com,I7VR5PH0
axxela_user93@email.com,27R7TJOQ
axxela_user94@email.com,AZ1J0SNT
axxela_user95@email.com,G02KLL8U
axxela_user96@email.com,JT47AEP4
axxela_user97@email.com,2SZGI6WL
axxela_user98@email.com,KO7KQHSL
axxela_user99@email.com,WMMYB64V
axxela_user100@email.com,RPB2THAD
axxela_user101@email.com,ZNZV7UQE
axxela_user102@email.com,EOYW2H0Z
axxela_user103@email.com,LHA1W3WA
axxela_user104@email.com,AANSCW0I
axxela_user105@email.com,G6FK5PJK
axxela_user106@email.com,QL6CMF0H
axxela_user107@email.com,Q494G1W6
axxela_user108@email.com,MVNKXFT8
axxela_user109@email.com,TVENKM30
axxela_user110@email.com,D3IR498C
axxela_user111@email.com,5B51EGRK
axxela_user112@email.com,GMTK4WUU
axxela_user113@email.com,C4VS8QGL
axxela_user114@email.com,T0Z79M4Z
axxela_user115@email.com,39LEAD6P
axxela_user116@email.com,I9SEPOUP
axxela_user117@email.com,3QFA1GEI
axxela_user118@email.com,ICGCWK34
axxela_user119@email.com,Y1BEM1AL
axxela_user120@email.com,CI5NL4V0
axxela_user121@email.com,LPAV2PFF
axxela_user122@email.com,LG2NEAOY
axxela_user123@email.com,XM24HHJK
axxela_user124@email.com,POZO5QZV
axxela_user125@email.com,EFQA7NGG
axxela_user126@email.com,YY6HWFEP
axxela_user127@email.com,08TCEM1I
axxela_user128@email.com,3PJX2ZXM
axxela_user129@email.com,L4J42LO8
axxela_user130@email.com,7MBLDLAY
axxela_user131@email.com,C8OQDHPT
axxela_user132@email.com,ZBBIHZI5
axxela_user133@email.com,Z7F1EU28
axxela_user134@email.com,PWIA0FO8
axxela_user135@email.com,4QYABFWX
axxela_user136@email.com,SDYEH2JY
axxela_user137@email.com,YJOPFE83
axxela_user138@email.com,07WY9DD5
axxela_user139@email.com,HN02X58N
axxela_user140@email.com,1E7PUAPA
axxela_user141@email.com,VYG95PNL
axxela_user142@email.com,Y8ISXE3I
axxela_user143@email.com,3YL2A51O
axxela_user144@email.com,ZE6U5P9T
axxela_user145@email.com,BJKUR1CH
axxela_user146@email.com,MQFST78M
axxela_user147@email.com,1M78TLBC
axxela_user148@email.com,HL7K71BP
axxela_user149@email.com,MGJA3YIN
axxela_user150@email.com,VI8HPAOL
axxela_user151@email.com,LC9EXDEM
axxela_user152@email.com,SPJQZP6O
axxela_user153@email.com,76D2DCVD
axxela_user154@email.com,JIWJBZW8
axxela_user155@email.com,4UO3DFB5
axxela_user156@email.com,C1RHQ32H
axxela_user157@email.com,7MOEZQOS
axxela_user158@email.com,ZIORR111
axxela_user159@email.com,4ZTV7W9C
axxela_user160@email.com,F9EYLYGG
axxela_user161@email.com,HJ1HHA2I
axxela_user162@email.com,L1N68PL1
axxela_user163@email.com,1RIW8PST
axxela_user164@email.com,8D7FZ2ND
axxela_user165@email.com,4LRPOYGV
axxela_user166@email.com,XL55D951
axxela_user167@email.com,IQUVE7D6
axxela_user168@email.com,L2GL5URR
axxela_user169@email.com,P4GI2434
axxela_user170@email.com,BQ42T8VP
axxela_user171@email.com,TOTAGMPX
axxela_user172@email.com,I08M4S44
axxela_user173@email.com,6GDEARHF
axxela_user174@email.com,4M88AWHC
axxela_user175@email.com,6WAZPQ5Z
axxela_user176@email.com,DC7U6AYB
axxela_user177@email.com,8LQO5S92
axxela_user178@email.com,AP7WBA1X
axxela_user179@email.com,OCWMKE2K
axxela_user180@email.com,TV8I9VVH
axxela_user181@email.com,NKLQ997S
axxela_user182@email.com,8LDX9V57
axxela_user183@email.com,IMF1OISH
axxela_user184@email.com,8EPLW8V3
axxela_user185@email.com,19ORRFC5
axxela_user186@email.com,MO20W79C
axxela_user187@email.com,ET81B31I
axxela_user188@email.com,8GYKZ8KB
axxela_user189@email.com,BHGZ35J1
axxela_user190@email.com,NDT2T44J
axxela_user191@email.com,3JH62WB0
axxela_user192@email.com,DCZIG0M4
axxela_user193@email.com,Y37XWDDC
axxela_user194@email.com,2BR59YLR
axxela_user195@email.com,DR90Y5DN
axxela_user196@email.com,UIFO910L
axxela_user197@email.com,11RYM42N
axxela_user198@email.com,0AL68VSL
axxela_user199@email.com,I10YLXTX
axxela_user200@email.com,4RXXYT1D
axxela_user201@email.com,8DDDS3KR
axxela_user202@email.com,HNT77BV6
axxela_user203@email.com,DIV639G6
axxela_user204@email.com,3VJM3YR8
axxela_user205@email.com,K1LHXPOU
axxela_user206@email.com,GXIM2J55
axxela_user207@email.com,999VOO5V
axxela_user208@email.com,AJ5HX9EX
axxela_user209@email.com,RM7MPQOV
axxela_user210@email.com,HP7Q3C40
axxela_user211@email.com,CVN8C1CP
axxela_user212@email.com,2N2XUP1W
axxela_user213@email.com,9MDWPGND
axxela_user214@email.com,7F071EK2
axxela_user215@email.com,9DUODWM0
axxela_user216@email.com,6EM7KXP4
axxela_user217@email.com,3UEDMSN6
axxela_user218@email.com,EDSZ8JQ9
axxela_user219@email.com,K855JJMW
axxela_user220@email.com,0NVQY06I
axxela_user221@email.com,OJ7BNC6R
axxela_user222@email.com,G1M8W0WH
axxela_user223@email.com,9J4LGLKD
axxela_user224@email.com,WYPV5W6W
axxela_user225@email.com,AWR47UE3
axxela_user226@email.com,C4XXZ2KJ
axxela_user227@email.com,KCGGF1U7
axxela_user228@email.com,HLTU242O
axxela_user229@email.com,NZUVO38K
axxela_user230@email.com,VZ5YPLJ7
axxela_user231@email.com,S3H0Y4VC
axxela_user232@email.com,PQTGLO6I
axxela_user233@email.com,VZF7E0T9
axxela_user234@email.com,31AENDPN
axxela_user235@email.com,IYZKKQHP
axxela_user236@email.com,N5KBO44K
axxela_user237@email.com,KCAQ0QFZ
axxela_user238@email.com,ATXBF4QP
axxela_user239@email.com,UYRKOAFC
axxela_user240@email.com,ZF9NXSC7
axxela_user241@email.com,62TEHSBM
axxela_user242@email.com,6LNU4RAW
axxela_user243@email.com,5RDVHX81
axxela_user244@email.com,H2TEIOCJ
axxela_user245@email.com,3TDNG38N
axxela_user246@email.com,YLN28DWS
axxela_user247@email.com,1DXVHV2D
axxela_user248@email.com,J629KVRD
axxela_user249@email.com,IU3E0B1Z
axxela_user250@email.com,RDVZA6SE
axxela_user251@email.com,XBX0FEQS
axxela_user252@email.com,LR2CGM7G
axxela_user253@email.com,XQ8C21BN
axxela_user254@email.com,N91K70BL
axxela_user255@email.com,5IWBS0JA
axxela_user256@email.com,738N2KMF
axxela_user257@email.com,J6LE9EAL
axxela_user258@email.com,5NG7CSAX
axxela_user259@email.com,5SBENSRI
axxela_user260@email.com,OMV7FTMK
axxela_user261@email.com,W114C29C
axxela_user262@email.com,CU4DXI6T
axxela_user263@email.com,IGALNI6D
axxela_user264@email.com,EKQC878L
axxela_user265@email.com,KMMZG1BM
axxela_user266@email.com,SL0KUJYL
axxela_user267@email.com,97F4FEFL
axxela_user268@email.com,Z2F3XEEB
axxela_user269@email.com,GILAE7TA
axxela_user270@email.com,KGOJQ7RP
axxela_user271@email.com,0EUHPGVR
axxela_user272@email.com,PDIGDJSV
axxela_user273@email.com,RJGNPYFG
axxela_user274@email.com,QZSFH3IC
axxela_user275@email.com,0HZ5EQ7G
axxela_user276@email.com,H9S453T9
axxela_user277@email.com,XIGIKZEX
axxela_user278@email.com,J9D4YW0V
axxela_user279@email.com,QRUBDP67
axxela_user280@email.com,7KWTGMM2
axxela_user281@email.com,AE7TYYGS
axxela_user282@email.com,WZKX0E2L
axxela_user283@email.com,60GB1ZUI
axxela_user284@email.com,74DESI32
axxela_user285@email.com,8KU0ZWEM
axxela_user286@email.com,VW0K3J9O
axxela_user287@email.com,VFWPO8O2
axxela_user288@email.com,O2KYCMSU
axxela_user289@email.com,B4ZVJ25T
axxela_user290@email.com,ZIFXQFDX
axxela_user291@email.com,84QXMRU9
axxela_user292@email.com,5J8QI5NB
axxela_user293@email.com,UIG9PVI4
axxela_user294@email.com,VQLF3564
axxela_user295@email.com,Q45W25A7
axxela_user296@email.com,44D5J6E8
axxela_user297@email.com,6POP0AA9
axxela_user298@email.com,AVTU1VU5
axxela_user299@email.com,AECUYNOQ
axxela_user300@email.com,MD5521MJ
axxela_user301@email.com,12LP2UQE
axxela_user302@email.com,PR6YIM9A
axxela_user303@email.com,02JFD1YP
axxela_user304@email.com,KOMBET22
axxela_user305@email.com,SW3Z88SW
axxela_user306@email.com,W2QDND7T
axxela_user307@email.com,QLLM9G8V
axxela_user308@email.com,ACQ2BK04
axxela_user309@email.com,NP4HG9JN
axxela_user310@email.com,WHXVQ5ZB
axxela_user311@email.com,H2WFOKEJ
axxela_user312@email.com,QRPLGKIV
axxela_user313@email.com,LJ8RWW1X
axxela_user314@email.com,1Z6ZAV1K
axxela_user315@email.com,7C6DM453
axxela_user316@email.com,H1SIDNCT
axxela_user317@email.com,QFJ7MEOC
axxela_user318@email.com,B96H9NMH
axxela_user319@email.com,R2VAQ8MF
axxela_user320@email.com,I22WL53U
axxela_user321@email.com,1N0X5HWO
axxela_user322@email.com,6VK82EEN
axxela_user323@email.com,JHVTO115
axxela_user324@email.com,JBKD1A6H
axxela_user325@email.com,UJ1250JJ
axxela_user326@email.com,VVD1LEYI
axxela_user327@email.com,42A49H3O
axxela_user328@email.com,J29D48SH
axxela_user329@email.com,DQA32K6F
axxela_user330@email.com,RTG9E9L2
axxela_user331@email.com,QMSNCHGD
axxela_user332@email.com,Z7NVRCDS
axxela_user333@email.com,TTFC60EE
axxela_user334@email.com,HOY305U2
axxela_user335@email.com,VEC1F443
axxela_user336@email.com,SPLY65SI
axxela_user337@email.com,J1FCAB8Z
axxela_user338@email.com,KB0USCVS
axxela_user339@email.com,GXSBXGFT
axxela_user340@email.com,MLZVBKXG
axxela_user341@email.com,7QQSV0BA
axxela_user342@email.com,3IMYZXWP
axxela_user343@email.com,4GUTZ9Q3
axxela_user344@email.com,C40FUN1V
axxela_user345@email.com,EOS2C05T
axxela_user346@email.com,0FJVD5EV
axxela_user347@email.com,B1KF82TV
axxela_user348@email.com,BUJW70QI
axxela_user349@email.com,2VV8UE4J
axxela_user350@email.com,X50KPO9C
axxela_user351@email.com,ZHYDICBB
axxela_user352@email.com,XCE9TC69
axxela_user353@email.com,LM5PWL37
axxela_user354@email.com,7MK8PKLW
axxela_user355@email.com,8ALWVLV5
axxela_user356@email.com,ULCSJX0X
axxela_user357@email.com,ROVBC926
axxela_user358@email.com,F9ZKAX3F
axxela_user359@email.com,Q743NMXA
axxela_user360@email.com,59QV4129
axxela_user361@email.com,WZLVET6D
axxela_user362@email.com,HI1PBN2I
axxela_user363@email.com,M2HAEXQH
axxela_user364@email.com,HYWVKM06
axxela_user365@email.com,5TFSSMPD
axxela_user366@email.com,DK2JWWZ5
axxela_user367@email.com,I5EXPR0W
axxela_user368@email.com,10WYJUJL
axxela_user369@email.com,T5W9O1PW
axxela_user370@email.com,MMKSANMB
axxela_user371@email.com,V4VLEC44
axxela_user372@email.com,AU364EEJ
axxela_user373@email.com,IHRLHU3C
axxela_user374@email.com,PNETV4CQ
axxela_user375@email.com,A8DWLSM3
axxela_user376@email.com,1TTCNKF4
axxela_user377@email.com,Z3J4E72U
axxela_user378@email.com,KY01YG0F
axxela_user379@email.com,IZBEIEY7
axxela_user380@email.com,L3IQ720X
axxela_user381@email.com,VX0WUHLA
axxela_user382@email.com,35VA55AR
axxela_user383@email.com,8JE8L3VD
axxela_user384@email.com,SAJV16TF
axxela_user385@email.com,6GMLHGJE
axxela_user386@email.com,NUOPF7BS
axxela_user387@email.com,414D50ZI
axxela_user388@email.com,42R0GGCI
axxela_user389@email.com,5R0ZIUKI
axxela_user390@email.com,NQFJ3UQ2
axxela_user391@email.com,Y2I6DGS6
axxela_user392@email.com,3G2ZST94
axxela_user393@email.com,FXSN1LR8
axxela_user394@email.com,H43JFFUH
axxela_user395@email.com,S70CWN1G
axxela_user396@email.com,5YC3TGM1
axxela_user397@email.com,024FTZAZ
axxela_user398@email.com,6QAI0M4V
axxela_user399@email.com,W8TMGJF8
axxela_user400@email.com,XEY8STGP
axxela_user401@email.com,BQGHUUSF
axxela_user402@email.com,H8FS8F5U
axxela_user403@email.com,F108JQ10
axxela_user404@email.com,8RTX3208
axxela_user405@email.com,MJLOG1S6
axxela_user406@email.com,5IMLEYTG
axxela_user407@email.com,DDZ5SVO4
axxela_user408@email.com,8NQ0ALAB
axxela_user409@email.com,WF7D0HOH
axxela_user410@email.com,H8TTO77U
axxela_user411@email.com,EYKBKOKL
axxela_user412@email.com,KD1Q6I9O
axxela_user413@email.com,9Q7M8KUL
axxela_user414@email.com,54UKA91S
axxela_user415@email.com,7C4CUXZT
axxela_user416@email.com,GHFGF0XR
axxela_user417@email.com,LCYMBFEM
axxela_user418@email.com,7DD5Q007
axxela_user419@email.com,UI9ZAGQW
axxela_user420@email.com,VHXTL27V
axxela_user421@email.com,C0G2YVKZ
axxela_user422@email.com,AYL31ADR
axxela_user423@email.com,81MRCCTJ
axxela_user424@email.com,UAMCT5NN
axxela_user425@email.com,BY2F5A1Z
axxela_user426@email.com,0VRBH2U9
axxela_user427@email.com,TBQOPWYA
axxela_user428@email.com,EYMBYN3H
axxela_user429@email.com,QV96GD2Q
axxela_user430@email.com,047VTABW
axxela_user431@email.com,2P8NHUYB
axxela_user432@email.com,T3RN8A9I
axxela_user433@email.com,F3NW4GS2
axxela_user434@email.com,SLSVS8S8
axxela_user435@email.com,M4U27TNQ
axxela_user436@email.com,FDEMZM2I
axxela_user437@email.com,15AVD659
axxela_user438@email.com,KWZG6O01
axxela_user439@email.com,NGJDR2W1
axxela_user440@email.com,GAG2PBUT
axxela_user441@email.com,I1AFIYJD
axxela_user442@email.com,T69WH7YZ
axxela_user443@email.com,TW2YV65Q
axxela_user444@email.com,N03GSNQC
axxela_user445@email.com,0EX1TL64
axxela_user446@email.com,FKNVJI5N
axxela_user447@email.com,WOOZ5IBN
axxela_user448@email.com,Y192TS0W
axxela_user449@email.com,XIXZXSU2
axxela_user450@email.com,KR33LLDH
