Username,Password
bitspilani_170119_1,RMHUIELZ
bitspilani_170119_2,JYWPJLIO
bitspilani_170119_3,JHEBXSDN
bitspilani_170119_4,TBUAUACL
bitspilani_170119_5,MWHLHREV
bitspilani_170119_6,DLEJWNEL
bitspilani_170119_7,ETZCNMKR
bitspilani_170119_8,VTHEDOQE
bitspilani_170119_9,IYWBKFUK
bitspilani_170119_10,CHMIKMTE
bitspilani_170119_11,TJMXWWVM
bitspilani_170119_12,KWDLVWAP
bitspilani_170119_13,CPTGTODC
bitspilani_170119_14,EKGASRIH
bitspilani_170119_15,SZMCXPRB
bitspilani_170119_16,OBROYENI
bitspilani_170119_17,GYDEEVTM
bitspilani_170119_18,SOAVPVDQ
bitspilani_170119_19,AHLOYJON
bitspilani_170119_20,MBDZQQQQ
bitspilani_170119_21,FAXEOGNX
bitspilani_170119_22,LBFOBBNV
bitspilani_170119_23,AZDGFQPP
bitspilani_170119_24,JPRZJYYG
bitspilani_170119_25,NYIYSPLX
bitspilani_170119_26,GCPCUNFU
bitspilani_170119_27,DIBGEEXF
bitspilani_170119_28,IYOBTKEY
bitspilani_170119_29,OSROMLHD
bitspilani_170119_30,IJZFSLZR
bitspilani_170119_31,PJEWZTMP
bitspilani_170119_32,BBKQSCWW
bitspilani_170119_33,DFVSWCZD
bitspilani_170119_34,NVGUQDLU
bitspilani_170119_35,NAPJDUNX
bitspilani_170119_36,OFPNHYXU
bitspilani_170119_37,CRMBAKMS
bitspilani_170119_38,JEAGQYVQ
bitspilani_170119_39,EDIYIHHK
bitspilani_170119_40,WSWIYSPB
bitspilani_170119_41,FVDOEFDE
bitspilani_170119_42,YCHKFNUH
bitspilani_170119_43,IPFKTNEJ
bitspilani_170119_44,QLCWIPGG
bitspilani_170119_45,ZFDTFUPQ
bitspilani_170119_46,XLVFMBHZ
bitspilani_170119_47,PISBTFOA
bitspilani_170119_48,IEWPAYNR
bitspilani_170119_49,MKGOOOYR
bitspilani_170119_50,GHKODBTW
