S.No.,Name,Roll No,Email ID,Username,Password
1,SHRYANSH JAIN,2015A8PS0496G,f20150496@goa.bits-pilani.ac.in,bitsgoa_120119_2015A8PS0496G,CTOAOKOS
2,PATEL HARSH VENUSKUMAR,2015A3PS0258G,f20150258@goa.bits-pilani.ac.in,bitsgoa_120119_2015A3PS0258G,FLDUBDOI
3,SOURABH SUNIL HALLEPPANAVAR,2014B1A80721G,f20140721@goa.bits-pilani.ac.in,bitsgoa_120119_2014B1A80721G,OMQWXVLE
4,PADALA VAMSEE KRISHNA,2015A4PS0349G,f20150349@goa.bits-pilani.ac.in,bitsgoa_120119_2015A4PS0349G,KBIFQIXO
5,Manu Priyadarshi,2015A8PS0454G,f20150454@goa.bits-pilani.ac.in,bitsgoa_120119_2015A8PS0454G,CULICKYV
6,SANKET YADAV PATIL,2014B3A40551G,f20140551@goa.bits-pilani.ac.in,bitsgoa_120119_2014B3A40551G,BTAHBQIP
7,GANISHA BHAWSAR,2014B3A80800G,f20140800@goa.bits-pilani.ac.in,bitsgoa_120119_2014B3A80800G,IFUJQRPJ
8,Anish Sanka,2012A7PS0040G,f20120040@goa.bits-pilani.ac.in,bitsgoa_120119_2012A7PS0040G,LQOGSFJN
9,GHANSHYAM TRIPATHI,2014A4TS0359G,f20140359@goa.bits-pilani.ac.in,bitsgoa_120119_2014A4TS0359G,OFSEBPZQ
10,Gurdain Singh Madan,2015A8PS0447G,f20150447@goa.bits-pilani.ac.in,bitsgoa_120119_2015A8PS0447G,NOKNOQEY
11,VIVEK ARYA,2015A4PS0298G,f20150298@goa.bits-pilani.ac.in,bitsgoa_120119_2015A4PS0298G,ZVUUJZGA
12,SOUMYA SHARMA,2015A4PS0261G,f20150261@goa.bits-pilani.ac.in,bitsgoa_120119_2015A4PS0261G,OXXCLKQL
13,VANKAYALA NAGENDRA BABU,2014A1PS0830G,f20140830@goa.bits-pilani.ac.in,bitsgoa_120119_2014A1PS0830G,UDVKGBKB
14,SHAHEEM P,2015A4PS0355G,f20150355@goa.bits-pilani.ac.in,bitsgoa_120119_2015A4PS0355G,NFHEXUZC
15,Tanmay Choteylal Jain,2015A3PS0183G,f20150183@goa.bits-pilani.ac.in,bitsgoa_120119_2015A3PS0183G,POXXFWSW
16,NISHITA GIRI,2015A4PS0304G,f20150304@goa.bits-pilani.ac.in,bitsgoa_120119_2015A4PS0304G,RXIOYQLX
17,AKSHAT JOSHI,2015A4PS0353G,f20150353@goa.bits-pilani.ac.in,bitsgoa_120119_2015A4PS0353G,JHOSHFRJ
18,SHARMA ABHISHEK SUNIL,2015A4PS0376G,f20150376@goa.bits-pilani.ac.in,bitsgoa_120119_2015A4PS0376G,TRVJCPFE
19,AMAN KUMAR GOSWAMI,2015A8PS0473G,f20150473@goa.bits-pilani.ac.in,bitsgoa_120119_2015A8PS0473G,MXCZTGOV
20,SANKET MISHRA,2015A1PS0587G,f20150587@goa.bits-pilani.ac.in,bitsgoa_120119_2015A1PS0587G,LCCVWTDI
21,Ajinkya Bhushan Deshmukh,2013B2A10851G,f20130851@goa.bits-pilani.ac.in,bitsgoa_120119_2013B2A10851G,DWHRMSHP
22,SALONI MANINDER SINGH,2015B4A10444G,f20150444@goa.bits-pilani.ac.in,bitsgoa_120119_2015B4A10444G,PWOFNIVC
23,SAYAN BISWAS,2015A1PS0428G,f20150428@goa.bits-pilani.ac.in,bitsgoa_120119_2015A1PS0428G,EDLHOQQP
24,S SAI GIREESH,2015A4PS0151G,f20150151@goa.bits-pilani.ac.in,bitsgoa_120119_2015A4PS0151G,VEKFMIWV
25,BHARATH P S,2015A4PS0136G,f20150136@goa.bits-pilani.ac.in,bitsgoa_120119_2015A4PS0136G,BOMVAPVH
26,MANAN VAYA,2015A8PS0436G,f20150436@goa.bits-pilani.ac.in,bitsgoa_120119_2015A8PS0436G,BDRHMXPJ
27,ANISH MUKHERJEE,2014B5A40592G,f20140592@goa.bits-pilani.ac.in,bitsgoa_120119_2014B5A40592G,GQPCRPVR
28,SOURABH MAJUMDAR,2015A7PS0078G,f20150078@goa.bits-pilani.ac.in,bitsgoa_120119_2015A7PS0078G,BNFLJBHL
29,VARUN GUPTA,2015A3PS0222G,f20150222@goa.bits-pilani.ac.in,bitsgoa_120119_2015A3PS0222G,DJMEMNMZ
30,ROMPIKUNTLA MURALI SHASHANK,2015A4PS0335G,f20150335@goa.bits-pilani.ac.in,bitsgoa_120119_2015A4PS0335G,WLRQBPUW
31,HARSHIT AJMANI,2014B4A10567G,f20140567@goa.bits-pilani.ac.in,bitsgoa_120119_2014B4A10567G,LNSRAFTA
32,KOKATE NUPUR SITARAM,2015B4TS0438G,f20150438@goa.bits-pilani.ac.in,bitsgoa_120119_2015B4TS0438G,ZSDMBJHZ
33,AYUSH MITTAL,2015A1PS0643G,f20150643@goa.bits-pilani.ac.in,bitsgoa_120119_2015A1PS0643G,DWDPKMSS
34,SHIVAM MONGA,2015A1PS0659G,f20150659@goa.bits-pilani.ac.in,bitsgoa_120119_2015A1PS0659G,VDCCYPCN
35,ARPIT MATHUR,2014B3A10553G,f20140553@goa.bits-pilani.ac.in,bitsgoa_120119_2014B3A10553G,TGWILZMA
36,ANTO FREDERIC H,2015A1PS0652G,f20150652@goa.bits-pilani.ac.in,bitsgoa_120119_2015A1PS0652G,UPCJVOHM
37,RANIT BANERJEE,2014B2A10879G,f20140879@goa.bits-pilani.ac.in,bitsgoa_120119_2014B2A10879G,TMFKTXKB
38,ANAND VISHNU K,2015A1PS0580G,f20150580@goa.bits-pilani.ac.in,bitsgoa_120119_2015A1PS0580G,JWTPQRBX
39,VATSAL BHANDERI,2015A7PS0008G,f20150008@goa.bits-pilani.ac.in,bitsgoa_120119_2015A7PS0008G,VBXKPVLS
40,ABHISHEK VERMA,2015A1PS0697G,f20150697@goa.bits-pilani.ac.in,bitsgoa_120119_2015A1PS0697G,AIKCPWTK
41,RITHWIK S,2015A4PS0157G,f20150157@goa.bits-pilani.ac.in,bitsgoa_120119_2015A4PS0157G,RBUANRSO
42,SINDHU PRIYA DAVULURI,2015A8PS0509G,f20150509@goa.bits-pilani.ac.in,bitsgoa_120119_2015A8PS0509G,FGLAMDKX
43,Aman Krishna,2013B3A10611G,f20130611@goa.bits-pilani.ac.in,bitsgoa_120119_2013B3A10611G,RKJFXIEV
44,DODEJA AKANSHA JETHANAND,2014B3A40453G,f20140453@goa.bits-pilani.ac.in,bitsgoa_120119_2014B3A40453G,CKCLNYJZ
45,DEVESH RAWAT,2014B3A10656G,f20140656@goa.bits-pilani.ac.in,bitsgoa_120119_2014B3A10656G,ZBNVLCPT
46,ABHINASH KASHYAP BORAH,2014B3A80546G,f20140546@goa.bits-pilani.ac.in,bitsgoa_120119_2014B3A80546G,BEFAVHGW
47,Vishal Lavania,2013B1A80774G,f20130774@goa.bits-pilani.ac.in,bitsgoa_120119_2013B1A80774G,WGLWUYHS
48,NIRANJAN GYANCHANDANI,2014B1A40711G,f20140711@goa.bits-pilani.ac.in,bitsgoa_120119_2014B1A40711G,YWFUGUKW
49,Harsh Rajeshkumar Patel,2014B4A40643G,f20140643@goa.bits-pilani.ac.in,bitsgoa_120119_2014B4A40643G,LGFNRFGC
50,ARCHIT MUNDRA,2015A4PS0340G,f20150340@goa.bits-pilani.ac.in,bitsgoa_120119_2015A4PS0340G,AMLZAMNK
51,GUNE SHRIYA SHRISH,2014B4A30895G,f20140895@goa.bits-pilani.ac.in,bitsgoa_120119_2014B4A30895G,VQNTMUCE
52,DESAI ASHUTOSH MILIND,2015A4PS0230G,f20150230@goa.bits-pilani.ac.in,bitsgoa_120119_2015A4PS0230G,GHKPEIZW
53,Nubra Jarial,2015A3PS0296G,f20150296@goa.bits-pilani.ac.in,bitsgoa_120119_2015A3PS0296G,WWPZATNR
54,ABHIN MR,2015A3PS0276G,f20150276@goa.bits-pilani.ac.in,bitsgoa_120119_2015A3PS0276G,ZPFOSCPI
55,KAUSTUBH DUSAD,2015A1PS0619G,f20150619@goa.bits-pilani.ac.in,bitsgoa_120119_2015A1PS0619G,HHOTSUNS
56,Chandrashekhar Dilip Koushik,2015A4PS0227G,f20150227@goa.bits-pilani.ac.in,bitsgoa_120119_2015A4PS0227G,GOPIBOSV
57,SHUBHAM KAPOOR,2014B3A80568G,f20140568@goa.bits-pilani.ac.in,bitsgoa_120119_2014B3A80568G,MEQZIPAF
58,VIBHUTE AKSHAY SANJAY,2015A4PS0268G,f20150268@goa.bits-pilani.ac.in,bitsgoa_120119_2015A4PS0268G,PTOUSCPJ
59,SAURABH KUMAR,2015A4PS0337G,f20150337@goa.bits-pilani.ac.in,bitsgoa_120119_2015A4PS0337G,RRCQPEGM
60,BOMMINENI KARUNAKAR REDDY,2015A7PS0016G,f20150016@goa.bits-pilani.ac.in,bitsgoa_120119_2015A7PS0016G,EYFKWCTM
61,SIDDHARTH SOMANI,2014B4A80911G,f20140911@goa.bits-pilani.ac.in,bitsgoa_120119_2014B4A80911G,QKENMXLT
62,GAURAV SETH,2015A4PS0398G,f20150398@goa.bits-pilani.ac.in,bitsgoa_120119_2015A4PS0398G,CWCZXHZK
63,AVIRAL JAIN,2014B4PS0683G,f20140683@goa.bits-pilani.ac.in,bitsgoa_120119_2014B4PS0683G,SCQIGJKR
64,CHETAN SWAROOP TIWARI,2014B3A80579G,f20140579@goa.bits-pilani.ac.in,bitsgoa_120119_2014B3A80579G,UZOZVCSF
65,MAYANK GUPTA,2015A8PS0429G,f20150429@goa.bits-pilani.ac.in,bitsgoa_120119_2015A8PS0429G,ELEEDUIP
66,AKSHAT SRIVASTAVA,2014B3A40548G,f20140548@goa.bits-pilani.ac.in,bitsgoa_120119_2014B3A40548G,OXKRTGEB
67,ANIRUDH NANWAL,2014B4A40307G,f20140307@goa.bits-pilani.ac.in,bitsgoa_120119_2014B4A40307G,FLJFLDAP
68,SONI DHRUVIN RUPESH,2015A7PS0047G,f20150047@goa.bits-pilani.ac.in,bitsgoa_120119_2015A7PS0047G,ROFDRXUL
69,VIVEK KHANNA,2015A1PS0670G,f20150670@goa.bits-pilani.ac.in,bitsgoa_120119_2015A1PS0670G,BOCQSXAU
70,ALEN BABU,2015A4PS0397G,f20150397@goa.bits-pilani.ac.in,bitsgoa_120119_2015A4PS0397G,IQSFNNFT
71,Saurabh Sharma,2014B4A40801G,f20140801@goa.bits-pilani.ac.in,bitsgoa_120119_2014B4A40801G,FJMWMLMH
72,ARPIT PRADHAN,2015A4PS0264G,f20150264@goa.bits-pilani.ac.in,bitsgoa_120119_2015A4PS0264G,QOSCYKBA
73,WALWADKAR SHARDUL SHARADRAO,2014B3A80798G,f20140798@goa.bits-pilani.ac.in,bitsgoa_120119_2014B3A80798G,DJFWOCTI
74,ABHINAV NARANG,2015A3PS0291G,f20150291@goa.bits-pilani.ac.in,bitsgoa_120119_2015A3PS0291G,YYPZFENE
75,HARSHIT KHANDELWAL,2015A4PS0164G,f20150164@goa.bits-pilani.ac.in,bitsgoa_120119_2015A4PS0164G,ECZYKHLD
76,ARCHA R I,2014B5A80900G,f20140900@goa.bits-pilani.ac.in,bitsgoa_120119_2014B5A80900G,EWQGXKCB
77,CHITALURI KRISHNA ROHIT,2014B2A10788G,f20140788@goa.bits-pilani.ac.in,bitsgoa_120119_2014B2A10788G,XDLPESOH
78,BINOY A SEN,2015A1PS0604G,f20150604@goa.bits-pilani.ac.in,bitsgoa_120119_2015A1PS0604G,ZVCGBMBF
79,NISHANT YADAV,2015A8PS0527G,f20150527@goa.bits-pilani.ac.in,bitsgoa_120119_2015A8PS0527G,KXXKQEXQ
80,VISHAL ASNANI,2015A8PS0392G,f20150392@goa.bits-pilani.ac.in,bitsgoa_120119_2015A8PS0392G,BOZQFIMB
81,WAGH NIMISH ATUL,2014B4PS0586G,f20140586@goa.bits-pilani.ac.in,bitsgoa_120119_2014B4PS0586G,QACTKGQQ
82,SABHYATA SHUKLA,2014B3A80591G,f20140591@goa.bits-pilani.ac.in,bitsgoa_120119_2014B3A80591G,HQZSHSEZ
83,SHANTANU SETH,2014A3PS0066G,f20140066@goa.bits-pilani.ac.in,bitsgoa_120119_2014A3PS0066G,VRPVJOXH
84,NIHARIKA AGNIHOTRI,2015A8PS0338G,f20150338@goa.bits-pilani.ac.in,bitsgoa_120119_2015A8PS0338G,BHORRUPP
85,Sandeep Venkata Kollipara,2013B1A10916G,f20130916@goa.bits-pilani.ac.in,bitsgoa_120119_2013B1A10916G,CPFIAWFO
86,V SAI THEJA,2014B3A40540G,f20140540@goa.bits-pilani.ac.in,bitsgoa_120119_2014B3A40540G,VCFJHUYC
87,ASHUTHOSH BALABADHRAPATHRUNI,2015A1PS0775G,f20150775@goa.bits-pilani.ac.in,bitsgoa_120119_2015A1PS0775G,SCMBWUFR
88,SWARNIM BASOYA,2015A1PS0616G,f20150616@goa.bits-pilani.ac.in,bitsgoa_120119_2015A1PS0616G,KRYIYDWV
89,SHASHANK MANOJ SAXENA,2014B4A30619G,f20140619@goa.bits-pilani.ac.in,bitsgoa_120119_2014B4A30619G,FUIJACBU
90,PATIL SIDDHANT VITTHAL,2015A8PS0475G,f20150475@goa.bits-pilani.ac.in,bitsgoa_120119_2015A8PS0475G,BQXHHHPN
91,VARANYA PRAKASH,2014B2A30960G,f20140960@goa.bits-pilani.ac.in,bitsgoa_120119_2014B2A30960G,BHTFZTOY
92,AJAY GOGINENI,2015A1PS0700G,f20150700@goa.bits-pilani.ac.in,bitsgoa_120119_2015A1PS0700G,MWJLXCZW
93,NIKAM TANAYA SHAILENDRA,2015A8PS0312G,f20150312@goa.bits-pilani.ac.in,bitsgoa_120119_2015A8PS0312G,QAQKKBFE
94,SANSKRITI SINHA,2014B2A80865G,f20140865@goa.bits-pilani.ac.in,bitsgoa_120119_2014B2A80865G,VPTQDQVB
95,ANKIT DHANRAJ MUTHIYAN,2014B5A30903G,f20140903@goa.bits-pilani.ac.in,bitsgoa_120119_2014B5A30903G,RABBRMVR
96,VISHNU SURESH NAIR,2014A4PS0336G,f20140336@goa.bits-pilani.ac.in,bitsgoa_120119_2014A4PS0336G,NCEABCJY
97,KARAN VEER SINGH JADON,2015A8PS0458G,f20150458@goa.bits-pilani.ac.in,bitsgoa_120119_2015A8PS0458G,JFDCSBYX
98,Nikhil Kumar,2015A8PS0324G,f20150324@goa.bits-pilani.ac.in,bitsgoa_120119_2015A8PS0324G,WNZMEONC
99,Abhijeet Onkar Thakre,2014B5A80631G,f20140631@goa.bits-pilani.ac.in,bitsgoa_120119_2014B5A80631G,OSIYOQSD
