Username,Password
ff_161118_1,NEYRCNED
ff_161118_2,PHVLUJQR
ff_161118_3,RXZFNTOW
ff_161118_4,TNCEJVPA
ff_161118_5,LYKJIIRW
ff_161118_6,AAZFLNBD
ff_161118_7,LPRBGNAO
ff_161118_8,XOXGXSXQ
ff_161118_9,BKUTYPPP
ff_161118_10,WFMLUNZT
