Username,Password
ff_211218_1,CFWNVTQE
ff_211218_2,PHKANAIY
ff_211218_3,DOCUWEVD
ff_211218_4,ETADDGRE
ff_211218_5,AXTLWBXK
ff_211218_6,WDAFJEBC
ff_211218_7,RHHHHIFD
ff_211218_8,HTWSLJPB
ff_211218_9,HUCTDTQB
ff_211218_10,GNOBRDRQ
ff_211218_11,LFGSDMOI
ff_211218_12,EBBKWLME
ff_211218_13,ZOBSQKHV
ff_211218_14,NQINQGSF
ff_211218_15,RVRUPKUF
ff_211218_16,CFFIWPXR
ff_211218_17,BDXPUBYK
ff_211218_18,TNETIZBY
ff_211218_19,XDOIVCCG
ff_211218_20,LSTJIZMP
