Username,Password
ff_271118_1,IXZBURQH
ff_271118_2,QNPROLXR
ff_271118_3,MLPQURWM
ff_271118_4,RJOSRYRL
ff_271118_5,GPLGXTZS
ff_271118_6,ZCZXJIKM
ff_271118_7,AWWEEHPP
ff_271118_8,IWMKVLVM
ff_271118_9,UXCALVZW
ff_271118_10,EKXLPMSI
ff_271118_11,XHPHEDVY
ff_271118_12,PPXTFYTE
ff_271118_13,LGWGIMHU
ff_271118_14,UEXUOOQY
ff_271118_15,MZEQJBUP
ff_271118_16,PLBKHSAL
ff_271118_17,SMCRHILG
ff_271118_18,DLHASIAN
ff_271118_19,WPDDEDSM
ff_271118_20,IBIUEKPK
ff_271118_21,KPOVDYVE
ff_271118_22,FIXIOUEC
ff_271118_23,SDJSIUTF
ff_271118_24,DVNLUUNM
ff_271118_25,YEDMKCEG
ff_271118_26,YFQMIGCH
ff_271118_27,DLYJLFJT
ff_271118_28,OHEHAQXE
ff_271118_29,RFWYYDQH
ff_271118_30,CBKYAEMQ
ff_271118_31,GXVIUHWK
ff_271118_32,WZFXOQDZ
ff_271118_33,NSQOFDHJ
ff_271118_34,SCCVDXTV
ff_271118_35,ACOICVXQ
ff_271118_36,WEPDZHLN
ff_271118_37,EKGSJHPO
ff_271118_38,PYBBQLPI
ff_271118_39,ZKNLMYDM
ff_271118_40,DPLUDBSS
ff_271118_41,QFOVYPIY
ff_271118_42,UKJJBZXK
ff_271118_43,HGEQVYAP
ff_271118_44,OKQMQUTN
ff_271118_45,GUADEKND
ff_271118_46,VPYFHGKL
ff_271118_47,HJKRMYOU
ff_271118_48,UKTEMMOK
ff_271118_49,JJUKRMQI
ff_271118_50,JYNDJMZT
ff_271118_51,NCNPSTXD
ff_271118_52,KZPCQPAY
ff_271118_53,SNDZLFWJ
ff_271118_54,ADNQYJKL
ff_271118_55,GSIWOYNC
ff_271118_56,NRWTJQTH
ff_271118_57,OWZGTRPC
ff_271118_58,BWEOJOKA
ff_271118_59,RPUBXNRB
ff_271118_60,GVETXEIP
ff_271118_61,QFEGOFAL
ff_271118_62,SOCOWINM
ff_271118_63,CSADVBNK
ff_271118_64,UEYYRTOZ
ff_271118_65,ZYDHMHAK
ff_271118_66,MTFENTGL
ff_271118_67,JJPIEJBU
ff_271118_68,LUFPWKHW
ff_271118_69,CHNJITLQ
ff_271118_70,DELMUCSF
