Username,Password
ff_231118_1,QNJWYMDF
ff_231118_2,TFWTOSJP
ff_231118_3,UWNYKBST
ff_231118_4,TMSOVTXD
ff_231118_5,BZNRJWVD
ff_231118_6,BWSWUDTP
ff_231118_7,GUKCUVQY
ff_231118_8,PBTGNJPI
ff_231118_9,TCOLKDWP
ff_231118_10,FPGOBEUM
ff_231118_11,AHJEUZSR
ff_231118_12,WKEDANEH
ff_231118_13,NCNIHTSP
ff_231118_14,WIATWHAD
ff_231118_15,PMUBJFNJ
ff_231118_16,QOGQWOZM
ff_231118_17,HVRHXYBA
ff_231118_18,ZHSHTCBV
ff_231118_19,OUHZUIJS
ff_231118_20,CWHGDXQX
ff_231118_21,UTWFTDVD
ff_231118_22,WNHZKSMZ
ff_231118_23,HNWWNFWG
ff_231118_24,NXLNOMCS
ff_231118_25,CVCSTMKJ
ff_231118_26,XJZQOLNV
ff_231118_27,WQBFPBMR
ff_231118_28,QRKLIHZI
ff_231118_29,SYGQWXHP
ff_231118_30,HISNOIRJ
ff_231118_31,DTOTOLNI
ff_231118_32,BSYUZDPO
ff_231118_33,QAZYFGAI
ff_231118_34,QVGFVPNT
ff_231118_35,KBABYCGQ
ff_231118_36,NVFROYBC
ff_231118_37,ULCDJVTD
ff_231118_38,QLOBCLHR
ff_231118_39,ATGNCZAZ
ff_231118_40,VQQQAEHL
ff_231118_41,HSPWKQDS
ff_231118_42,WGZNMQZJ
ff_231118_43,UJROMLZW
ff_231118_44,FJQXLRNR
ff_231118_45,WGWSVMTP
ff_231118_46,DCADIKFU
ff_231118_47,MEUTRROL
ff_231118_48,GUSLUIEV
ff_231118_49,XXTAFLLM
ff_231118_50,ALBJRZAG
ff_231118_51,LSYYALAC
ff_231118_52,HWJZTYWB
ff_231118_53,FXWCMFTE
ff_231118_54,LNUAPMYX
ff_231118_55,EBSDFDHT
ff_231118_56,DOBFBNJR
ff_231118_57,VMLEBHLP
ff_231118_58,EPIPMJXK
ff_231118_59,HOIAZFLJ
ff_231118_60,LNOPBAXL
ff_231118_61,FNTJOIXK
ff_231118_62,HTSDFJYQ
ff_231118_63,UIZDGUHX
ff_231118_64,OIKAPDMZ
ff_231118_65,IXRIMNUD
ff_231118_66,NLYAXYZC
ff_231118_67,SXZDORMX
ff_231118_68,VFIVTOAP
ff_231118_69,GINFSNRE
ff_231118_70,YKWTQSPK
