Username,Password
ff_261118_1,TUDRJRZP
ff_261118_2,NYNDEIMB
ff_261118_3,OLHUEXDS
ff_261118_4,FKHCFLPB
ff_261118_5,ROAPJIEB
ff_261118_6,SGKWWBCJ
ff_261118_7,RPHXHLHS
ff_261118_8,SKMLNWGR
ff_261118_9,BVRUSPVM
ff_261118_10,XTHWLUFV
ff_261118_11,JVQTQNQD
ff_261118_12,RCECKAPU
ff_261118_13,QNQSIAEE
ff_261118_14,HROPADJY
ff_261118_15,MFNEFNAI
ff_261118_16,FLEWXILZ
ff_261118_17,JQPNQSJD
ff_261118_18,OLGYMWNK
ff_261118_19,TITZPOAO
ff_261118_20,CNWTYJLZ
ff_261118_21,SHGSPDKD
ff_261118_22,QGBVIFPB
ff_261118_23,QNKQVPAL
ff_261118_24,BVJACGMH
ff_261118_25,AKQTNGXI
ff_261118_26,DGSMATWN
ff_261118_27,AJDNIYSC
ff_261118_28,LJEVZMLN
ff_261118_29,ZYJLFJBA
ff_261118_30,AOIRUUHI
ff_261118_31,IGHOXQOD
ff_261118_32,RLWJJICN
ff_261118_33,FEIIYBTR
ff_261118_34,QUJUZMKV
ff_261118_35,UVIZTXIG
ff_261118_36,UTRUBZCO
ff_261118_37,FDXMXXUJ
ff_261118_38,FPPZMNIR
ff_261118_39,TFTBTOXF
ff_261118_40,TBVWVXTU
