Username,Password
iitk_extra_1,KUSDYHCT
iitk_extra_2,VYFJTYKY
iitk_extra_3,BIDAOUNI
iitk_extra_4,KLWNAHCK
iitk_extra_5,EXGUYTKF
iitk_extra_6,DTMWZZPI
iitk_extra_7,FZLLHEUA
iitk_extra_8,ZFTGAYBY
iitk_extra_9,DJTGHJXN
iitk_extra_10,DMIEEWZL
iitk_extra_11,TSQOARXJ
iitk_extra_12,UCHZJUET
iitk_extra_13,GVNNNZAC
iitk_extra_14,WZFGQDWS
iitk_extra_15,SWZHYSJD
iitk_extra_16,YXOOBPUM
iitk_extra_17,OGJIOVCY
iitk_extra_18,HJMWKUNO
iitk_extra_19,ISXVXRTG
iitk_extra_20,DJORSOKH
iitk_extra_21,JCGIIOEH
iitk_extra_22,CJIFAXDA
iitk_extra_23,BPXHJYPI
iitk_extra_24,YJJTLVMH
iitk_extra_25,FYBCSLTB
iitk_extra_26,TSRMFZQX
iitk_extra_27,PNAONMJL
iitk_extra_28,UYEQWGJF
iitk_extra_29,EHGCQHMO
iitk_extra_30,VGYLUATJ
iitk_extra_31,YBVYEKGF
iitk_extra_32,YJKMETAF
iitk_extra_33,ELELMBAV
iitk_extra_34,ZJOYDYZF
iitk_extra_35,YZOVCGJV
iitk_extra_36,CGZWHBQU
iitk_extra_37,MMNUVCDI
iitk_extra_38,NIFFAPGF
iitk_extra_39,GQSBLLEM
iitk_extra_40,FIUXAMUK
iitk_extra_41,QNRMSHVT
iitk_extra_42,QIREPOCA
iitk_extra_43,QYHNMBWZ
iitk_extra_44,AYMYLQTD
iitk_extra_45,YPQKVRAI
iitk_extra_46,FLAKDOHD
iitk_extra_47,EMMLBBWN
iitk_extra_48,SKRWBQXO
iitk_extra_49,XHVERQVO
iitk_extra_50,AAWEJWQK
