Username,Password
iitb_extra_1,OUQOYFXG
iitb_extra_2,DMKORAQD
iitb_extra_3,QQUCANLU
iitb_extra_4,LERKFNLI
iitb_extra_5,CCCSTYDD
iitb_extra_6,PRPGNJVG
iitb_extra_7,BJGIWUER
iitb_extra_8,UKWMDXNG
iitb_extra_9,OSTGRUCN
iitb_extra_10,HLXZYYLH
iitb_extra_11,MFKDCLRH
iitb_extra_12,KUKWUCDE
iitb_extra_13,GRJUTJKY
iitb_extra_14,LSUHVKVT
iitb_extra_15,PLEOLNFO
iitb_extra_16,IAJQNDHQ
iitb_extra_17,EECAHAIF
iitb_extra_18,ZDXQPEMK
iitb_extra_19,CPNOWOQR
iitb_extra_20,HCVBGOIK
iitb_extra_21,OUAQNVVS
iitb_extra_22,MRKHBQNN
iitb_extra_23,BZGMAPOD
iitb_extra_24,IKQTMAFX
iitb_extra_25,WPCSSOPV
iitb_extra_26,OOCOZJPX
iitb_extra_27,ZOFNILYO
iitb_extra_28,UMLMSHUX
iitb_extra_29,DCBQBQNU
iitb_extra_30,NEQPXLVK
iitb_extra_31,YMSHNFJU
iitb_extra_32,BTLXTROD
iitb_extra_33,SEBUELTT
iitb_extra_34,GULLQEWY
iitb_extra_35,VXCNKNCO
iitb_extra_36,LBRTIJRO
iitb_extra_37,XHDISABI
iitb_extra_38,QTHMRKRV
iitb_extra_39,JAOTDSMC
iitb_extra_40,UKDNIVQK
iitb_extra_41,LICVFKLT
iitb_extra_42,MDMECWFE
iitb_extra_43,HRCBBFSU
iitb_extra_44,FOILOOCI
iitb_extra_45,WWVUDGGH
iitb_extra_46,EOLEHMBZ
iitb_extra_47,FGQQEJHQ
iitb_extra_48,OKRWQBBD
iitb_extra_49,TTUSGDJL
iitb_extra_50,AGTVPNEW
iitb_extra_51,SBLCBENX
iitb_extra_52,VOCKVMRG
iitb_extra_53,HWQZRKPI
iitb_extra_54,PSAHGWGC
iitb_extra_55,MCMKKREK
iitb_extra_56,NIMXBTMY
iitb_extra_57,RFVINSWQ
iitb_extra_58,QKMGSDXG
iitb_extra_59,WNKZJRSD
iitb_extra_60,ADNOGOLV
iitb_extra_61,HBVUWRMP
iitb_extra_62,OOZVNRMY
iitb_extra_63,BOYKSHSW
iitb_extra_64,PYAPUQOL
iitb_extra_65,XEOJMQEJ
iitb_extra_66,QAPBXQJH
iitb_extra_67,KHRPIVGH
iitb_extra_68,MXDUDJRT
iitb_extra_69,ILFOFCUE
iitb_extra_70,GOUIQNNC
iitb_extra_71,VCRGMMWW
iitb_extra_72,QEGPTCIR
iitb_extra_73,SGGYWCVX
iitb_extra_74,VPNRETMR
iitb_extra_75,BGBWZDNU
iitb_extra_76,GBNQFERL
iitb_extra_77,AXBNBRNI
iitb_extra_78,KBUGLNAE
iitb_extra_79,GDURLNRG
iitb_extra_80,HWREUYAG
iitb_extra_81,YXALWGDU
iitb_extra_82,CNBQPQFP
iitb_extra_83,LYSGOHZD
iitb_extra_84,YRCUWKXT
iitb_extra_85,IUWOKHVP
iitb_extra_86,KHSNZKIK
iitb_extra_87,KQZFVKCD
iitb_extra_88,ICYBBZAO
iitb_extra_89,FBGEXDMK
iitb_extra_90,WEDGQNPR
iitb_extra_91,EVJNVBYQ
iitb_extra_92,SOPADPII
iitb_extra_93,BUJHOIBZ
iitb_extra_94,OJBIKRUD
iitb_extra_95,PICGSXSB
iitb_extra_96,LZQQEGZT
iitb_extra_97,RVTFODZV
iitb_extra_98,ZGHGXTSE
iitb_extra_99,VBMTNSWW
iitb_extra_100,WHDBVRQU
