Username,Password
iitbbs_extra1,SBIVWBSB
iitbbs_extra2,JRGGBVWI
iitbbs_extra3,SFIZCFXI
iitbbs_extra4,VPNWBDGG
iitbbs_extra5,TLRRKEVY
iitbbs_extra6,NYZKBKJG
iitbbs_extra7,HFZAQIZR
iitbbs_extra8,WYZAWUOG
iitbbs_extra9,YDZDNWHH
iitbbs_extra10,PRLSWILS
iitbbs_extra11,MSPOQBXR
iitbbs_extra12,ZSYFMNSR
iitbbs_extra13,XPKQGVQM
iitbbs_extra14,TZFFQGPL
iitbbs_extra15,TGOZQSEZ
iitbbs_extra16,KHVUMIDV
iitbbs_extra17,SAABNFYM
iitbbs_extra18,BBAIVOWK
iitbbs_extra19,OZXUPMRF
iitbbs_extra20,CDYYWAPK
iitbbs_extra21,EWTPXUMJ
iitbbs_extra22,BLJMFAGP
iitbbs_extra23,HGMYWUYK
iitbbs_extra24,URQVLFGR
iitbbs_extra25,BYONPWQH
iitbbs_extra26,FGOSXKVM
iitbbs_extra27,LLKXLVLV
iitbbs_extra28,EPEXMMZA
iitbbs_extra29,RTHQFYXM
iitbbs_extra30,ZOKKZVSG
iitbbs_extra31,AVVHMDKB
iitbbs_extra32,TARLKXYM
iitbbs_extra33,DUOHYUGY
iitbbs_extra34,DLSUJJYI
iitbbs_extra35,AWGTQGSX
iitbbs_extra36,DPXQDWWM
iitbbs_extra37,ORDFUWPV
iitbbs_extra38,VYYZCPXZ
iitbbs_extra39,ODKZSPCS
iitbbs_extra40,RNXYZNAX
iitbbs_extra41,GFQQKHBW
iitbbs_extra42,PVWZEOOQ
iitbbs_extra43,ERUNYWCC
iitbbs_extra44,YPQUDSPH
iitbbs_extra45,XPPZYTAZ
iitbbs_extra46,YDEUKSRP
iitbbs_extra47,UWISBUNB
iitbbs_extra48,JVAKHCGI
iitbbs_extra49,PQIHUZTP
iitbbs_extra50,FZPZSMDO
