Sl.No,Student's Name,Roll No,Email,Institute Email ID,Username,Password
1,Shekhar Tripathi,15JE001589,"shekhartripathi23@gmail,com",shekhar.15je1689@ce.ism.ac.in,ism_15JE001589,FKXPVYOC
2,Karan Shah,15je001797,karan0806@outlook.com,karan.15je001797@ce.iitism.ac.in,ism_15je001797,TNPECJWL
3,Anshu Kumar,15JE001788,anshukumar.ce@gmail.com,anshu.15je1788@.ce.ism.ac.in,ism_15JE001788,EHXBYHGM
4,Ankit Tank,14JE000706,ankittak26jun.14je000706@ce.iitism.ac.in,ankittak26jun.14je000706@ce.iitism.ac.in,ism_14JE000706,MGQWOUYH
5,Mayur Mani,15JE001816,mayurmani.ce@gmail.com,mayurmani.ce.15je001816@ce.iitism.ac.in,ism_15JE001816,ECAQBTFC
6,AKSHAY KUMAR,15JE001817,akpal6796@gmail.com,akshay.15je1817@ce.ism.ac.in,ism_15JE001817,PHROAIUS
7,Vashisth Malik,15je001780,vashi5684@gmail.com,Vashi.15je001780@ce.ism.ac.in,ism_15je001780,UTATXREJ
8,Rahul Kumar,15JE001561,rahulmohit0@gmail.com,rahul.15JE001561@cve.iitism.ac.in,ism_15JE001561,OGHJLVQV
9,Abhishek Mishra,15JE001206,abhishek.mmt7027@gmail.com,abhishek.15je001206@cve.ism.ac.in,ism_15JE001206,ZDRQSOUT
10,Pritish Porwal,15JE001612,pritishporwal5@gmail.com,pritish.15je001612@cve.ism.ac.in,ism_15JE001612,EWQGCDXJ
11,Harsh Vardhan,15JE001098,harshvardhan289@gmail.com,harshv.15JE001098@cse.iitism.ac.in,ism_15JE001098,VXSPNKAK
12,Joybrata Panja,15JE001615,panjajoybrata@gmail.com,joybrata.15je001615@cse.ism.ac.in,ism_15JE001615,GTMZSENM
13,Krishna Chand Birla,15JE001352,krishnachandbirla@gmail.com,krishna.15JE001352@cse.iitism.ac.in,ism_15JE001352,XVIMFZEZ
14,PATIBANDLA SHIVA SAI KUMAR,15JE001325,kumar.shivasai8@gmail.com,shiva.15je1325@ism.ac.in,ism_15JE001325,XICESJJU
15,Sangam Mahawar,15je001427,isangam9@gmail.com,sangam.15je1427@cse.ism.ac,ism_15je001427,UTRKYWJC
16,Bathina Viswanath Srikanth,15je001073,viswanathsrikanthbathina@gmail.com,visu.15je001073@cse.iitism.ac.in,ism_15je001073,ACALHWUV
17,Ravindra Kumar Meena,15JE001254,rmeena840@gmail.com,ravindra.15je001254@cse.ism.ac.in,ism_15JE001254,ZHZNAOUS
18,Rahat Kumar,15JE001362,rahatkumar1997@gmail.com,rahat.15JE001362@cse.ism.ac.in,ism_15JE001362,WXAEABYC
19,Ch Riteesh,15je001030,riteesh5ch@gmail.com,riteesh.15je001030@cse.ism.ac.in,ism_15je001030,TIJZZZEU
20,Prem Sagar,15JE001384,prem.sk753@gmail.com,prem.15je001384@cse.ism.ac.in ,ism_15JE001384,STFVARAG
21,Ankit Tarway ,15JE001269,ankit.tarway1@gmail.com,ankit.15JE001269@cse.iitism.ac.in,ism_15JE001269,BRRAWPVO
22,Romit Kumar ,15je001172,romitism@gmail.com,romit.15je001172@cse.iitism.ac.in,ism_15je001172,GZPQLFRE
23,Mukesh Regar,15je001449,regarmukesh3g@gmail.com,m.15je001449@cse.ism.ac.in,ism_15je001449,XCUFLSDA
24,Ratnesh Kumar Singh,15JE000963,ratneshislucky@gmail.com,ratnesh.15JE000963@cse.iitism.ac.in,ism_15JE000963,WSSMZLYS
25,Pankaj Kumar,15JE001231,erpankr56070@gmail.com,pankaj.15JE001231@cse.ism.ac.in,ism_15JE001231,GPUZKUKB
26,Gaurav Kumar Dhariwal,15je001211,gauravdhariwal01@gmail.com,gaurav.15je1211@cse.ism.ac.in,ism_15je001211,HOACOHIO
27,Mani Shankar Bajpai,15JE001105,msbajpai28@gmail.com,mani.15je001105@cse.ism.ac.in,ism_15JE001105,TZIXHWDX
28,Abhishek Upadhyay,15JE001747,upadhyay28abhishek@gmail.com,abhishek.15JE001747@cse.ism.ac.in,ism_15JE001747,RNAHBWBV
29,Suraj Kumar Oraon,15je001413,surajcroaxx00097@gmail.com,suraj.15je001413@cse.iitism.ac.in,ism_15je001413,WLEDBIUX
30,Yeshwanth Rangoju,15JE001176,rangojuyeshwanth@gmail.com,yeshwanthr10.15JE001176@cse.iitism.ac.in,ism_15JE001176,IKMYUUYD
31,Ashish Sharma,15je001246,ashishsharmaashu6@gmail.com,ashish.15je001246@cse.iitism.ac.in,ism_15je001246,QBYXETEV
32,Amisha Kumari,15je000987,002meamisha@gmail.com,amisha.15je000987@cse.ism.ac.in,ism_15je000987,XIUEGGUL
33,Souvik Saha,15JE001516,biswajitsahaicst@gmail.com,souvik.15je001516@cse.ism.ac.in,ism_15JE001516,ZUTWVZJJ
34,Dewanshu Haswani,15JE001630,haswanidewanshu@gmail.com, dewanshu.15je001630@cse.ism.ac.in,ism_15JE001630,MFJRBNAG
35,Rishabh Bharti,15je001392,rexcreeds@gmail.com,rb.15je001392@cse.ism.ac.in,ism_15je001392,VEZBHCOJ
36,Ayush Jaiswal,15je001378,ayushjai30@gmail.com ,ayush.15je001378@cse.ism.ac.in,ism_15je001378,VRBKXAOJ
37,Abhishek Sawaika,15JE001794,asawaika@yahoo.com, abhishek.15je001794@cse.ism.ac.in,ism_15JE001794,NWCQBSRM
38,Vishnu Kant,15JE001616,vishnukant494@gmail.com,vishnu.15je001616@cse.ism.ac.in,ism_15JE001616,JRIZHPDV
39,Abhinav Chaudhary,15je001835 ,abhinavb2a@gmail.com,abhinav.15je001835@cse.ism.ac.in ,ism_15je001835 ,LAKIIKAY
40,Dola Sinha,15je001225,ladosinha@gmail.com,dola.15je001225@cse.ism.ac.in,ism_15je001225,AKOLPGTB
41,Harshal Mundhada,15JE001450,harshalmundhada@gmail.com,harshalmundhada.15je001450@cse.iitism.ac.in,ism_15JE001450,LIDBZLCG
42,Sachin Saxena,15JE001437,sachin221saxena@gmail.com,sachin.15je001437@cse.ism.ac.in,ism_15JE001437,XXATGUBY
43,Siddharth Shukla,15JE001462,siddharth96shukla@gmail.com,siddharth.15je001462@cse.ism.ac.in,ism_15JE001462,TNDRVMLF
44,Mayank,15JE000979,mayankspecial26@gmail.com,mayank.15JE000979@cse.iitism.ac.in,ism_15JE000979,ELTELJIF
45,Supratim Maitra,15JE001128,supratim583@gmail.com,supratim.15je001128@cse.iitism.ac.in,ism_15JE001128,RAVRAVVT
46,Jitendra Kumar,15je001551,jitendra1551k@gmail.com,jitendra.15je001551@cse.ism.ac.in,ism_15je001551,BMIPWZJK
47,Anubhav,15JE001756,anubhav27071997@gmail.com,anubhav.15je001756@cse.ism.ac.in,ism_15JE001756,EZRUNOCV
48,Abhijeet Kumar,15JE001180,abhijeetown540@outlook.com,abhijeet.15je001180@cse.ism.ac.in,ism_15JE001180,BZBZJSJU
49,Deepak Kumar,15JE001423,kdeep0713@gmail.com,deepak.15je001423@cse.iitism.ac.in,ism_15JE001423,ORMYRPMO
50,Ajeet Kumar,15JE001314,ajeetk973@gmail.com,ajeet.15JE001314@cse.iitism.ac.in,ism_15JE001314,KNFMZQZX
51,Aashish Ranjan,15JE001153,aashish843@yahoo.com,aashish.15JE001153@cse.ism.ac.in,ism_15JE001153,OXHHGZFT
52,SATYENDRA AGARWAL,15JE001643,agrawalsatyendra01@gmail.com ,satyendra.15je001643@cse.iitism.ac.in,ism_15JE001643,TKVMTCZT
53,Chetan Sharma,15je001000,chetan.sharma871996@gmail.com,chetan.15je1000@cse.ism.ac.in,ism_15je001000,QGDESWVZ
54,Puja Kumari,15je001218,puja05cdi@gmail.com,puja.15je001218@cse.iitism.ac.in,ism_15je001218,JHVFCXFM
55,Katta Abhishek,15je001334,katta.abhishek.77@gmail.com,abhishek.15je001334@cse.ism.ac,ism_15je001334,KUJPVELA
56,Arnab Ghosh,15je001015,ghosharnab2710@gmail.com,garnab.15je001015@cse.ism.ac.in,ism_15je001015,DDWPPTNW
57,Shivansh Prakash,15je001294,helloshivanshprakash@gmail.com,shivansh.15je001294@cse.ism.ac.in,ism_15je001294,ZRXBKQKH
58,Hemant Kumar,15JE001224,click4hemant@gmail.com,hemant.15je001224@cse.iitism.ac.in,ism_15JE001224,SXWCECSP
59,Avinash Kumar,15je001549,avinash761506@gmail.com,avinash.15je001549@cse.ism.ac.in,ism_15je001549,JDYLOMHJ
60,Rahul Kumar,15JE001261,rahul.kmr2106@gmail.com,rahul.15je001261@cse.iitism.ac.in,ism_15JE001261,SOQGTRBH
61,Jerwin Nigosh,15JE001440,jerwinn7@gmail.com,jerwin.15je1440@cse.ism.ac.in,ism_15JE001440,FZGTWEYQ
62,Kalyan Saha,15JE001375,klynsaha@gmail.com,kalyan.15je001375@cse.ism.ac.in,ism_15JE001375,AAZAUUBF
63,Rochak Gill,15JE001388,rochakgill1@gmail.com,rochakgill.15je001388@cse.ism.ac.in,ism_15JE001388,AYUKHJKJ
64,Sachin Kumar Singh,15JE001348,sachinsinghriit@gmail.com,sachinsingh.15je001348@cse.iitism.ac.in,ism_15JE001348,PRBRGPZZ
65,Richa Sinha,15JE001727,sinharicha360@gmail.com,richa.15je1727@ce.ism.ac.in,ism_15JE001727,FBELRAXG
66,Bikram Kumar,15JE001387,bk6928@gmail.com,bikram.15je001387@cse.ism.ac.in,ism_15JE001387,AQCIUDSW
67,Suraj Kumar Gupta,15JE001340,surajgupta380@gmail.com,suraj.15je001340@cse.iitism.ac.in,ism_15JE001340,NNPXCHAY
68,Sneh Shrivastava,15JE001328,subham4shrivastava@gmail.com,sneh.15JE001328@cse.ism.ac.in,ism_15JE001328,IXFADHTM
69,Katakam Krishna Likhitha,15JE000988,krishnalikhitha.k@gmail.com,likhita.15je0988@cse.ism.ac.in,ism_15JE000988,ZLNIXYQV
70,Alok Kumar,15JE001033,alokkr1996@gmail.com,alokkr1996.15JE001033@cse.ism.ac.in,ism_15JE001033,WYWWTNVY
71,Prajwal Pratik,15JE001139,ankishu.sinha@gmail.com,prajwal.15je001139@cse.ism.ac.in,ism_15JE001139,JRRVLXZZ
72,Gundabathina Vinay ,15je001074,vinaygundabathina@gmail.com,gundabathina.15je1074@cse.ism.ac.in,ism_15je001074,VQCJTWVA
73,Vishal Singh,15JE001249,vishalsingh5133@gmail.com,vishal.15je001249@cse.ism.ac.in,ism_15JE001249,SNDJCVWC
74,Pranay Kumar,15je001342,pranay181997@gmail.com,pranay.15je001342@cse.iitism.ac.in,ism_15je001342,UYUJAWTV
75,Vaibhav Kumar ,15je001003,kvaibhav3101@gmail.com ,vaibhav.15je001003@cse.iitism.ac.in,ism_15je001003,RHIFEWJK
76,Mrinal Gupta,15je000996,gupta.mrinal1414@gmail.com,mrinal.15je000996@cse.ism.ac.in,ism_15je000996,OEDGGDBN
77,Aditya Thakre,15JE001071,aditcrey@gmail.com,aditya.15je1071@cse.ism.ac.in,ism_15JE001071,IFPHGQZV
78,rahul kumar,15je001004,rahulkiitdhanbad@gmail.com,rahul.15je1004@cse.ism.ac.in,ism_15je001004,XVDBPJGU
79,BETHU SAI SAMPATH,15JE001728,sampath690@gmail.com,sai.15je1728@fme.ism.ac.in,ism_15JE001728,XLYTGLNI
80,Pratyush Kesarwani,15je001100,pratyushkesarwani23@gmail.com,pratyush.15je1100@cse.ism.ac.in,ism_15je001100,WYAORZCY
81,MOHD ZAHEENUDDIN,15je001734,zaheenjsss@gmail.com,md.15je001734@cse.iitism.ac.in,ism_15je001734,VIOQIPRM
82,Alok Kumar Patra,15JE001493,alokpatra1998@gmail.com,alok.15je001493@cse.ism.ac.in,ism_15JE001493,BWMRTBTR
83,Shikhar Gautam,15je001633,shikhar95gautam@gmail.com,shikhar.15je001633@cse.ism.ac.in,ism_15je001633,FPYHFUCM
84,Ashmit kumar pandey,15je001609,ashmit.tyson@gmail.com,ashmit.15je001609@cse.ism.ac.in,ism_15je001609,OBQZYEAE
85,Tushar agrawal,15je000984,tusharagrawal861@gmail.com,tushar.15je000984@cse.ism.ac.in,ism_15je000984,CSVIMNCC
86,Pranav,15je001477,ompranav.bindu1996@gmail.com,pranav.15je001477@cse.iitism.ac.in,ism_15je001477,JFTLMACH
87,ANUBHAV KUMAR SAH,15je001189,anubhavkrsah@gmail.com,anubhavkrsah.15je001189@cse.ism.ac.in,ism_15je001189,GYIZUBBF
88,Amarjeet Kumar,15JE000976,amar.iitism@gmail.com,amar.15je000976@ee.ism.ac.in,ism_15JE000976,QOUKSSZV
89,Rajat Goswami,15JE001132,rajat.dakshana15@gmail.com,rajat.15je001132@ee.iitism.ac.in,ism_15JE001132,VRKCYPSE
90,Alok Ranjan,15JE001248,Alokranjan.dakshana15@gmail.com,alok.15je001248@ee.ism.ac.in,ism_15JE001248,ZZUAUVTV
91,Sourav Verma,15JE001018,sourav.verma7896@gmail.com,sourav.15je001018@ee.iitism.ac.in,ism_15JE001018,UHRYPORH
92,Avinash Chandrakar,15JE001289,avinashchandrakar04@gmail.com,avinash.15je001289@ee.ism.ac.in,ism_15JE001289,LNQNVLNY
93,Shivkar Pandey,15JE001508,shivkarpandey.sp@gmail.com,shivkar.15je1508@ee.ism.ac.in,ism_15JE001508,LORAXITG
94,Laghudeep,15je001688,ldtanania@gmail.com,laghudeep.15je001688@ee.ism.ac.in,ism_15je001688,JSVPIALE
95,Akshay Jain ,15JE001498,akshayjain605@gmail.com,akshay.15je001498@ee.ism.ac.in,ism_15JE001498,MFEBFJOX
96,Ayush Jethlia,15JE001603,jethliaayush@gmail.com,ayush.15JE001603@ee.iitism.ac.in,ism_15JE001603,OBTAVZLF
97,TISHU,15JE001396,tishu.lohar@gmail.com,tishu.15JE001396@ee.iitism.ac.in,ism_15JE001396,AODODFRA
98,Yeshu Tomar,15je001491,yeshutomar@gmail.com,yeshu.15je001491@ee.iitism.ac.in,ism_15je001491,TKZWZOMW
99,Saurabh Patel,15JE001480,saurabh.sonu321@gmail.com,saurabh.15je001480@ee.ism.ac.in,ism_15JE001480,QQFDUXTA
100,Kshitij Jaiswal ,15JE001181 ,kshitij1095@gmail.com,kshitij.15je1181@ee.ism.ac.in,ism_15JE001181 ,JHFKUDWL
101,Deepshikha Sharma,15JE001542,laxmisharma5003.ls@gmail.com,deepshikha.15je001542@ee.ism.ac.in,ism_15JE001542,OWKZFRVJ
102,Aman Patel,15JE001298,patelaman30@gmail.com,aman.15je001298@ee.ism.ac.in,ism_15JE001298,DEISLFZG
103,Mukund Madhav,15JE001124,amadhav04@gmail.com,mukund.15JE001124@ee.iitism.ac.in,ism_15JE001124,OCNASWQH
104,RISHABH JAIN,15JE001735,rishabhiitdhanbad@gmail.com,rishabh.15JE001735@ee.iitism.ac.in,ism_15JE001735,YFQPKHIP
105,Niraj kumar,15je001227,sniraj306@gmail.com,niraj.15je1227@ee.ism.ac.in,ism_15je001227,TUCJZTRK
106,Rishav Kumar,15JE001442,rishav429@gmail.com,rishav.15je001442@ee.iitism.ac.in,ism_15JE001442,IUKKBRHJ
107,Sachin Olla,15JE001447,sachinola797@gmail.com,sachin.15je1447@gmail.com,ism_15JE001447,KXECTUMK
108,Ashish Agrawal,15je001056,www.ashishagrawal02@gmail.com,ashish.15je001056@ee.ism.ac.in,ism_15je001056,XUXLZANU
109,nayan gupta,15je001385,nayangupta38000@gmail.com,nayan.15je001385@ee.iitism.ac.in,ism_15je001385,KRWYFVKP
110,Madhu Rani,15JE001591,madhuism2015@gmail.com,madhu.15je001591@ee.iitism.ac.in,ism_15JE001591,LXNSRLIC
111,Anand kumar,15je001472,aiaanandshrocks007@gmail.com,anand.15je1472@ee.ism.ac.in,ism_15je001472,ZYBBLHRD
112,KIRTI PRASAD ARYA,15JE001130 ,kirtiprasadarya7891@gmail.com,kirtiprasadarya.15JE001130@ee.iitism.ac.in,ism_15JE001130 ,UYYOJVCB
113,SANDEEP KUMAR SHAH,15JE001454,shahsandeep1996@gmail.com, sandeep.15JE001454@ee.iitism.ac.in,ism_15JE001454,MRGBWEBO
114,Himanshu Prasad,15JE001324,himanshuprasad05041996@gmail.com,himanshuprasad0504.15JE001324@ee.iitism.ac.in,ism_15JE001324,QCQKAAQT
115,Piyush Choudhary,15JE001444,cpiyush17@gmail.com,piyush.15je1444@ee.ism.ac.in,ism_15JE001444,EYFXEFDX
116,Siddhartha Khanna,15JE001418,siddharthakhanna54@gmail.com,siddhartha.15je1418@ee.ism.ac.in,ism_15JE001418,IQYTLLWW
117,Vineet Satyam ,15JE001093,vineetsatyam242@gmail.com,vineet.15JE001093@ee.iitism.ac.in,ism_15JE001093,KNWDUGRP
118,prince kumar,15je001381,princekw97@gmail.com,princekw97.15JE001381@ee.iitism.ac.in,ism_15je001381,XCSQLOPD
119,Ayush Jain,15JE001469,ajain8922@gmail.com,ajain8922.15JE001469@ee.iitism.ac.in,ism_15JE001469,WCZGGSUB
120,Anmol Akshay Sinha ,15JE001502,akshayanmol.96@gmail.com,akshayanmol.15JE001502@ee.iitism.ac.in ,ism_15JE001502,LRGFBVGM
121,Nalin,15je001476,Nalindhiman6@gmail.com,nalin.15je001476@ee.iitism.ac.in,ism_15je001476,XKSJDCFH
122,Lokesh Kumar Bahwal,15JE001419,lokesh.141244@gmail.com,lokesh.15je1419@ee.ism.ac.in,ism_15JE001419,BKXBIZHP
123,Koyena Das,15JE001082,das.koyena@gmail.com,koyena.15je001082@ee.ism.ac.in,ism_15JE001082,AIOZVNPW
124,Anshul Jain,15JE001080,anshuljain03091996@gmail.com,anshul.15je1080@ee.ism.ac.in,ism_15JE001080,LNOHHIVE
125,Nitin Kumar,15JE001333,nitinrathore6799@gmail.com,nitin.15JEOO1333@ee.iitism.ac.in,ism_15JE001333,LSMLMWCN
126,ADITYA GANGWAR,15JE001278,adityagangwar41@gmail.com,aditya.15je001278@ee.ism.ac.in,ism_15JE001278,ISHOKKZD
127,Kunchakuri Hitesh,15JE001232,hitesh7976@gmail.com,hitesh.15je1232@ee.ism.ac.in,ism_15JE001232,GHMLSFZG
128,MANDA SUHAS,15JE001012,suhas.ma.nda132@gmail.com,suhas.15je001012@ee.ism.ac.in,ism_15JE001012,PYBIGXWH
129,APOORV VARSHNEY,15JE001359,apoorv.15je1359@me.ism.ac.in,apoorv.15je1359@me.ism.ac.in,ism_15JE001359,ZFWXBSJH
130,Pediredla Manoj Kumar,15JE001303,manojpediredla1997@gmail.com,manoj.15je1303@ee.ism.ac.in,ism_15JE001303,EIXPOHZJ
131,RONANKI SETHURAM,15JE001239,sethuramronanki1998@gmail.com,ronanki.15je001239@ee.ism.ac.in,ism_15JE001239,ZERIFAPP
132,RASHMI RANJAN SAHOO,15JE000991,rashmi15jee991@gmail.com,rashmiranjan.15JE000991@ee.iitism.ac.in,ism_15JE000991,XVQYHAMP
133,Aman Singh,15je001279,singh.aman0731@gmail.com,aman.15je001279@ee.ism.ac.in,ism_15je001279,RPLCRMSZ
134,PENMATSA VENKATA SATYA SAI VIJAY VARMA,15JE001306,pvijayvarma11@gmail.com,vijay.15je001306@ee.iitism.ac.in,ism_15JE001306,YEUFAMGX
135,Ahasas Jain,15je001412,ahasas07@gmail.com,ahasas.15JE001412@ee.iitism.ac,ism_15je001412,PDTUDRBH
136,VIPIN DWIVEDI,15JE001383,incredible.vipin@gmail.com,incredible.vipin.15je001383.ee.iitism.ac.in,ism_15JE001383,HLIXJVBY
137,RAHUL KUMAR AGRAWAL,15je001332,rahulagrgoyal2480@gmail.com,rahul.15JE001332@ee.iitism.ac.in,ism_15je001332,CMNHUVGF
138,Malloth Praveen Prakash,15JE001496,praveenprakash.coool@gmail.com,praveen.15je001496@ee.iitism.ac.in,ism_15JE001496,ZKHFVFFL
139,Priyanka Parasiya,15JE001267,priyankaparasiya23@gmail.com,priyanka.15je001267@ee.ism.ac.in,ism_15JE001267,SASBAZLA
140,Saurabh Agarwal,15JE001220,saurabh96iitd@gmail.com,saurabh.15je001220@ee.ism.ac.in,ism_15JE001220,SLIAFKNX
141,NIKHIL KUMAR SINGH,15JE001247,nikhilkumar.nk240@gmail.com,nikhil.15je001247@ee.iitism.ac.in,ism_15JE001247,TUJJEVOA
142,Shubham Kumar,15JE001487,itsshubhamim@gmail.com,itssk.15je001487@ee.iitism.ac.in,ism_15JE001487,JHGLONKX
143,Abhishek,15JE001510,abhishek.15JE001510@ee.ism.ac.in,abhishek.15je001510@ee.ism.ac.in,ism_15JE001510,YKHIACPS
144,Shashank Agrawal,15JE001712,shashank.agrawal1245@gmail.com,shashank.15je001712@ee.ism.ac.in,ism_15JE001712,HIPQVIQX
145,Dheeraj Kumar Soni,15JE001397,dheerajdjsoni@gmail.com,dheeraj.15je001397@ee.iitism.ac.in,ism_15JE001397,EKBAQFIW
146,RAJNEESH KUMAR,15JE001001,kkrajneesh57@gmail.com,rajneesh.15je1001@ee.ism.ac.in,ism_15JE001001,ZYBGLVVM
147,VISHAL JAISWAL,15JE001614,jaiswalvishal869@gmail.com,Vishal.15je1614@ese.ism.ac.in,ism_15JE001614,IHCHYMIQ
148,Vishnu Kumar,15JE001178,vishnum711@gmail.com,vishnu.15je001178@ee.iitism.ac.in,ism_15JE001178,MXATHTUY
149,Ayush,15JE001237,ayush.15je001237@ece.ism.ac.in,ayush.15je001237@ece.ism.ac.in,ism_15JE001237,LCKPRJFF
150,Pavan Kalyan,15je001295,pavkalyan100@gmail.com,m.15je001295@ece.iitism.ac.in,ism_15je001295,CCJXXPPF
151,Vaibhav Bhandari,15JE001043,vaibhavbhandari26@gmail.com,vaibhav.15je001043@ece.iitism.ac.in,ism_15JE001043,WQKFYKFH
152,Rahul Gupta,15JE001048,rahulfromdenobili@yahoo.com,rahul.15je001048@ece.ism.ac.in,ism_15JE001048,GGLBLCNO
153,Yojana Juadi,15JE001151,yojanajuadi@gmail.com,yojana.15je001151@ece.ism.ac.in,ism_15JE001151,LPFRLBWL
154,Basani Ashwith,15JE001358,basaniashwath@gmail.com,basani.15JE001358@ece.iitism.ac.in,ism_15JE001358,KRGYMLOG
155,Vatsal Srivastava,15JE001694,official.vatsal@gmail.com,vatsal.15je001694@ece.ism.ac.in,ism_15JE001694,MQMWZGOF
156,Avinesh Kumar,15JE001703,avineshkumarcpl@gmail.com,avineshkumar.15je001703@ece.ism.ac.in,ism_15JE001703,CGSBYDNX
157,Moluguri Vishnu Teja,15je001354,vishnu.teja.00018@gmail.com,vishnu.15je001354@ece.iitism.ac.in,ism_15je001354,VXJFCFJM
158,Vinit kumar,15JE001196,ultronvini@gmail.com,vinit.15JE001196@ece.iitism.ac.in,ism_15JE001196,TBBYAGLT
159,Ayush Varshney,15je001752,ayush_101v@rediffmail.com,ayush.15je001752@ece.iitism.ac.in,ism_15je001752,NWCABIDK
160,Piyush Barskar,15JE001284,piyushbarskar@gmail.com,piyush.15JE001284@ece.iitism.ac,ism_15JE001284,IXKJWREI
161,Babnish garg,15JE001368,babnishgarg@gmail.com,babnish.15JE001368@ece.iitism.ac.in,ism_15JE001368,SPEUCVFY
162,Amit Kumar,15JE001414,amitk00333@gmail.com,amit.15je001414@ece.iitism.ac.in,ism_15JE001414,HTQCDWHU
163,Chetan Yadav,15JE001236,chetanyadav752@gmail.com,chetan.15je001236@ece.ism.ac.in,ism_15JE001236,AAHVGQYH
164,Anish Mehta,15JE001170,ammehta0303@gmail.com,anish.15je001170@ece.iitism.ac.in,ism_15JE001170,LAVSWXIZ
165,ABHINAV ANAND,15JE001655,aanand353@gmail.com,abhinav.15je001655@ece.iitism.ac.in,ism_15JE001655,QHSSXUQY
166,Saket Saurav,15je001673,saketsaurav026@gmail.com,saket.15je001673@ece.iitism.ac.in,ism_15je001673,PTBNBOVD
167,Pranjal Arusia,15JE001021,pranjalarusia8@gmail.com,pranjal.15JE001021@ece.iitsim.ac.in,ism_15JE001021,MIFGLLPI
168,Amit Kumar Ray,2013JE0008,amit769@ece.ism.ac.in,amit769@ece.ism.ac.in,ism_2013JE0008,XWBIIXXM
169,Santanu Saikia,15JE001026,santanusaikia102@gmail.com, santanu.15je001026@ece.iitism.ac.in,ism_15JE001026,IXIGYSLX
170,Sushma Hembram,15JE001053,sushmahembram35@gmail.com,sushma.15JE001053@ece.iitism.ac.in,ism_15JE001053,ZCSPIZBE
171,Yomdar Kamsi,15je001118,yomdarkamsi7.13@gmail.com ,yomdar.15je001118@ece.iitism.ac.in,ism_15je001118,PYZRRKYH
172,Hrithik Parashar,15JE001075,hrithikparashar6@gmail.com,hrithik.15je1075@ece.ism.ac.in,ism_15JE001075,UQTJVRLB
173,Sourav Debbarma,15JE001721,souravdebbarma5@gmail.com,sourav.15je001721@ece.iitism.ac.in,ism_15JE001721,RSQNRDQJ
174,Manish,14JE000294,manishlamba87@yahoo.com,Manishlamba@ece.ism.ac.in,ism_14JE000294,QNCVVVIE
175,Abhishek Kumar,15JE001104,kumarabhi1104@gmail.com,abhishek.15je001104@ece.ism.ac.in,ism_15JE001104,AVNWIHVF
176,Yash Pangoria,15JE001120,yashppangoria1@gmail.com,yashppangoria.15JE001120@ece.iitism.ac.in,ism_15JE001120,MVRBDEWT
177,Mratyunjay Kag,15je001058,mratyunjaykag@gmail.com,mratynjay.15je1058@ece.ism.ac.in,ism_15je001058,OKHLLFFE
178,Ankur Singh,15je001199,sankur536@gmail.com,ankur.15je001199@ece.iitism.ac.in,ism_15je001199,ZPOJOUOE
179,Shubham Mishra,15JE001184,shubham.dakshana15@gmail.com,shubham.15je001184@ece.ism.ac.in,ism_15JE001184,KYZYMNKS
180,Mohit Singh,15je001222,mohit941485@gmail.com,mohit.15JE001222@ece.iitism.ac.in,ism_15je001222,HSVWUEGB
181,Vipul Aggarwal,15JE001088,vipul.8192@gmail.com,vipul.15je1088@ece.ism.ac.in,ism_15JE001088,ACBEMZMU
182,KORRAPATI HARI VARDANACHARI,15JE001355,harivardhan.dakshana2015@gmail.com,chari1239.15je001355@ece.iitism.ac.in,ism_15JE001355,WMXSPMLQ
183,Saurabh Sharma,15JE000967,sau.sharma02@gmail.com,saurabh.15je000967@ece.ism.ac.in,ism_15JE000967,ILASHQRQ
184,Dhanraj Sanjay Naikwade,15JE001374,dhanrajsn1996@gmail.com,dhanraj.15je001374@ece.iitism.ac.in,ism_15JE001374,GJXLGGLQ
185,Yash Patidar,15JE001114,yash1106patidarspi@gmail.com,yash.15JE001114@ece.iitism.ac.in,ism_15JE001114,DQSUHQXV
186,P NOVEL SINGH,15JE001148,novelblazin10@gmail.com,novelsingh10.15JE001148@ece.iitism.ac.in,ism_15JE001148,GBYPQBDY
187,PUNAM HANSDAH,14JE000139,hansdah227punam@gmail.com,punam.14je000139@ece.ism.ac.in,ism_14JE000139,HUCEUDXM
188,Prabhat Kumar,15je001067,pbtkumar94@gmail.com,prabhat.15je001067@ece.iitism.ac.in,ism_15je001067,PBXWQHJA
189,RAGHAV VERMA,15JE001311,raghav102030@gmail.com,raghav.15JE001311@ece.iitism.ac.in,ism_15JE001311,DMJEJLMS
190,Kunal Singhal,15je001111,kunal.singhal19@gmail.com,kunal.15JE001111@ece.iitism.ac.in,ism_15je001111,JWLIJOOV
191,Shubham Kumar,15JE001197,shubhamkr1712@gmail.com,shubham.15je001197@ece.ism.ac.in,ism_15JE001197,VZTEPOYS
192,Sagar Gupta ,15JE001282 ,seagupta12@gmail.com,Sagar.15je001282@ece.ism.ac.in,ism_15JE001282 ,EOUPBSCL
193,Soumya Raj Singh  Bisht,15JE001214,saumyaraj061@gmail.com,saumy.15JE001214@ece.iitism.ac.in,ism_15JE001214,MDSCQQUQ
194,Pankaj Poonia,15je001016,PANKAJPOONIA190@GMAIL.COM,Pankajpoonia190.15je001016.ece@iitism.in,ism_15je001016,AQHHQZJQ
195,sweety kumari,15je001057,kumarisweety197@gmail.com, sweety.15JE001057@ece.iitism.ac.in,ism_15je001057,ISGQSWPB
196,sujay ghatge,15JE001758,sujay.ghatge@gmail.com,sujay.15JE001758@ece.iitism.ac.in,ism_15JE001758,EUCLUAMJ
197,Devender Kumar,15JE000998,devk.1998@gmail.com,devender.15je0998@ece.ism.ac.in,ism_15JE000998,VSXVETCF
198,Mudit Rathore,15JE001217,rathoremudit786@gmail.com,mudit.15je001217@ece.iitism.ac.in,ism_15JE001217,VRIUULID
199,Yash Sinha,15JE001408,yash97sinha@gmail.com,yashsinha.15je001408@ece.iitism.ac.in,ism_15JE001408,RGYNYEHT
200,Neelesh Kumar Yadav,15JE001121,neelesh932@gmail.com,neelesh.15je1121@ece.ism.ac.in,ism_15JE001121,AHLCBRBK
201,Shravan Sharma,15je001173,shravansharma0897@gmail.com,shravan.15je001173@ece.ism.ac.in,ism_15je001173,FSDGXZYG
202,Aditya,15JE001787,adityasinghiitism@gmail.com,aditya.15je001787@ap.ism.ac.in,ism_15JE001787,UYHAQRVX
203,Mayank Dinanath Maurya,15JE001568,mayank.d.maurya@gmail.com,mayank.15je001568@ap.iitism.ac.in,ism_15JE001568,GMKYKBNS
204,Dinesh Lakhara,15JE001577,dineshlaxkar5696@gmail.com,dinesh.15je001577@ap.ism.ac.in,ism_15JE001577,PLVLRGCH
205,Jorge Boro ,15JE001716,jorgejrboro@gmail.com,jorgeboro.15je001716@ap.iitism.ac.in,ism_15JE001716,CMWSLVJI
206,Patel Vraj,15JE001617,vrajmp5398@gmail.com,vrajmp.15je001617@ap.iitism.ac.in,ism_15JE001617,GLLYHMER
207,Kasa Praneeth Yadav,15je001587,kasapraneeth999@gmail.com,kasa.15je001587@ese.iitism.ac.in,ism_15je001587,RZETMTHD
208,Utkarsh Kumar,15JE001625,shankstillfree@gmail.com,utkarsh.15JE001625@ese.iitism.ac,ism_15JE001625,VIRTCUKR
209,Siddhant Jain ,15JE001732,siddhant97jain@gmail.com,siddhant.15JE001732@ese.iitism.ac.in,ism_15JE001732,ZTPZIDNW
210,Sumeet Kshatriya,15JE001653,sumeetkshatriya@outlook.com,sumeetkshatriya.15JE001653@ese.iitism.ac.in,ism_15JE001653,YVWRGYCN
211,Devang Chowdhary ,15JE001563 ,dev1102chow@gmail.com,devang.15je001563@ese.iitism.ac.in ,ism_15JE001563 ,YOXRJNVD
212,Panthagani Naveen Raja,14JE000768,naveen4444raja@gmail.com,panthaganinaveenraja@ese.ism.ac.in,ism_14JE000768,PVLHPZIU
213,Utkarsh Mangal,15JE001321,utkarshmangal.1997@gmail.com,utkarsh.15je001321@mech.iitism.ac.in,ism_15JE001321,HKUYZXLN
214,Dileep kumar,15je001662,dileep.kumar2453@gmail.com,dileep.15je001662@mech.ism.ac.in,ism_15je001662,EENGNVWV
215,ASHUTOSH PRAJAPATI,15JE00125,saurabh1825@gmail.com,ashutosh.15je001125@mech.ism.ac.in,ism_15JE00125,XDBQLYJF
216,Ankit Chaudhary ,15JE001483 ,ankit.ankitchoudhary33@gmail.com,"Ankit1483ukk,unhhfft.15JE001483@mech.ism.ac.in ",ism_15JE001483 ,SGKKVDJQ
217,M Anirudh Sharma,15JE001233,manirudhsharma777@gmail.com,m.15je001233@mech.iitism.ac.in,ism_15JE001233,CDBYQNBQ
218,Himanshu,15JE001022,himanshumahawar8@gmail.com, himanshu.15JE001022@mech.ism.ac.in,ism_15JE001022,CIPRPMSX
219,Sanshil Saurabh,15JE001337,sanshilsaurabh@gmail.com,sanshil.15je001337@mech.iitism.ac.in,ism_15JE001337,MBRVWPBA
220,Nalin Subham,15je001281,naliniitism@gmail.com,nalin.15je001281@mech.iitism.ac.in,ism_15je001281,GNLQKZKZ
221,Reshu kumar bajaj,15je001017,bajaj.reshu@gmail.com,reshubajaj.15je001017@mech.ism.ac.in,ism_15je001017,GEUGMHXW
222,Akshay Paradeep Mandwale,15JE000968,akshay.mandwale@gmail.com,akshay.15je000968@mech.ism.ac.in,ism_15JE000968,GEBDSPLE
223,Pranav Mishra,15JE001629,mishra.pranav96wdsb@gmail.com,pranav_mishra.15je001629@mech.ism.ac.in,ism_15JE001629,TRMRHOMI
224,Tathagata Batabyal,15JE001514,tbatabyal21@gmail.com,Tathagata.15JE001514@mech.iitism.ac.in ,ism_15JE001514,BNTPKAIE
225,Sunny Raj,15je001335,sunnysuperboy76@gmail.com,sunny.15JE001335@mech.iitism.ac.in,ism_15je001335,EALHTQHZ
226,Putha nanda kishore reddy,15je001138,nandakishore2696@gmail.com,kishore.15je1138@mece.ism.ac.in,ism_15je001138,FUGTUGBM
227,Ashish Singh,15JE001436,as8733429@gmail.com,ashish.15JE001436@mech.iitism.ac.in,ism_15JE001436,RZXAVZZT
228,Harsh Vardhan,15JE001117,theharsh1311@gmail.com,harsh.15je001117@mech.iitism.ac.in,ism_15JE001117,IXLVMXYI
229,Gajendra Singh,15je001040,gajendrahalena@gmail.com,gajendra15je1040@mece.ism.ac.in,ism_15je001040,KRNPJAIL
230,Praveen Kumar Yadav,15JE001774,mr.praveenkumar2305@gmail.com,praveen.15JE001774@mech.iitism.ac,ism_15JE001774,IIXXQZAR
231,SACHIN SAURAV,15JE001739,dilkeshwar4234@gmail.com,sachin.15je001739@mech.iitism.ac.in,ism_15JE001739,UNWPSTNR
232,Mohit Kumar Porwal,15JE000990,mohitporwal77@gmail.com,mohit.15JE000990@mech.iitism.ac.in,ism_15JE000990,AFRNPHPL
233,Gautam Shreeyam Singh,15JE001304,gshreyams.1997@gmail.com,gautam.15JE001304@mech.iitism.ac.in,ism_15JE001304,TVXCLQNB
234,Abhishek kumar,15JE001459,royabhishek1459@gmail.com, kabhishek.15JE001459@mech.iitism.ac.in,ism_15JE001459,TWBKXVUI
235,Mayank Manohar,15JE001622,mayankmanohar34@gmail.com,mayank.15je001622@mech.iitism.ac.in,ism_15JE001622,OBSZZMUD
236,TARUN KUMAR SINGH,15JE001259,tarun100star60@gmail.com,tarun.15je001259@mech.iitism.ac.in,ism_15JE001259,SPPNXNJR
237,Prithviraj Oraon,15JE001347,prithvi.raj.oraon1897@gmail.com,prithviraj.15JE001347@mech.ism.ac.in,ism_15JE001347,XVJUDMUR
238,Saurabh Garg,15JE001252,saurabh1825@gmail.com,saurabh.15je001252@mech.iitism.ac.in,ism_15JE001252,REVJRVFU
239,MAHAVEER SINGH,15JE001433,smahaveer022@gmail.com,mahaveer.15JE001433@mech.iitism.ac.in,ism_15JE001433,TEEUYOQP
240,Abhishek Anand,15je001719,abhishekanand1official@gmail.com, abhishek.15JE001719@mech.ism.ac.in,ism_15je001719,WGUWHXPI
241,Shreyans Jain,15JE001580,shreyans98300@gmail.com,shreyansjain.15je001580@ap.ism.ac.in,ism_15JE001580,JDQSZBIJ
242,RAGHVENDRA PRATAP SINGH,15JE001431,raghvendrarps1@gmail.com,raghvendra.15je1431@mece.ism.ac.in,ism_15JE001431,OIZJXNVY
243,Robin Singh,15JE001363,robinsingh.rrr@gmail.com,robin.15je001363@mech.iitism.ac.in,ism_15JE001363,QYUIRUGV
244,vijay dev,15je001210,vijaydev2016@gmail.com,vijay.15je001210@mech.ism.ac.in,ism_15je001210,GMYAMDMB
245,Prakhar Rathore,15je001818,rathoreprakhar0@gmail.com,prakhar.15je001818@mech.ism.ac.in,ism_15je001818,HBWVDRRE
246,Rajat Kumar Singh ,15je001266,Singh.90rajat@gmail.com,rajat.15je1266@mece.ism.ac.in,ism_15je001266,ZJDBPRRS
247,Pranay Dnyandeo Gaikwad,15JE001305,pranaygaikwad67@gmail.com,pranay.15je001305@mech.ism.ac.in,ism_15JE001305,PIBHBWND
248,Avaneesh Kumar Rao,15JE001803,avanrao@gmail.com,avanrao.15JE001803@mech.ism.ac.in,ism_15JE001803,TRTBEMJO
249,Bhagirath Singh,15JE001429,ripple016c@gmail.com,bhagirath.15JE001429@mech.iitism.ac.in,ism_15JE001429,EMKCZIKW
250,ANKUR SUKUL,15JE001070,ankursukul@gmail.com,ankur.15JE001070@mech.iitism.ac.in,ism_15JE001070,WADAVZUF
251,SHIV SHUBHAM GUPTA,15JE001102,sanjushubham21@gmail.com,shiv.15je001102@mech.iitism.ac.in,ism_15JE001102,IXAZVCBS
252,Sameer Sanjay Gupta,15JE001155,sameergupta1508@gmail.com,sameergupta1508.15je001155@mech.iitism.ac.in,ism_15JE001155,DTUVXOEW
253,Shivam,15je001081,shivams798@gmail.com,shivam.15je001081@mech.iitism.ac.in,ism_15je001081,PCWZSCVC
254,shubham gora,15je001367,shubhamgora@gmail.com,shubham.15je001367@mech.iitsim.ac.in,ism_15je001367,BYPXLEZW
255,Raunak Halder,15JE001395,raunak.ind@gmail.com,raunak.15je001395@mech.iitism.ac.in,ism_15JE001395,XMAUWZKQ
256,Nikhil Bhaskar,15JE001537,nikhilbhaskar046@gmail.com,nikhil.15je1537@mech.ism.ac.in,ism_15JE001537,HBGZLVXD
257,Shaikh Nihal Rahimoddin,15je001443,shaikh08081999@gmail.com,shaikh.15je001443@mech.iitism.ac.in,ism_15je001443,PNNJDOOJ
258,Nikhil Jain,15JE001006 ,nikhil1998rmt@gmail.com,nikhil.15JE001006@mech.iitism.ac.in,ism_15JE001006 ,OREYLJII
259,Maddela Victor Rezinold,15JE001479,victorreznold123@gmail.com,victorreznold.15JE001479@mech.iitism.ac.in,ism_15JE001479,FJUNBHQU
260,Akshat Kutiyal,15JE001134,kutiyalakshat@gmail.com,akshat.15JE001134@mech.iitism.ac.in,ism_15JE001134,UXGLWUBN
261,Shubham Bansal,15je001773,shubhamb00@gmail.com,shubham.15je001773@mech.iitism.ac.in,ism_15je001773,NXCTEAEM
262,Shakilur Rahman,15je001550,shakilnomani97@gmail.com,shakil.15JE001550@mech.iitism.ac.in,ism_15je001550,EJMYHCML
263,ANIRUDH DUHOON,15JE001799,anirudhduhoon03@gmail.com,anirudh.15je001799@mech.ism.ac.in,ism_15JE001799,ZVIARRYK
264,Chandra Mohan Meena,15JE001445,chandramohan123meena@gmail.com,chandra.15JE001445@mech.iitism.ac.in,ism_15JE001445,IQJXKKWD
265,TANMAY GUPTA,15JE001717,Tnmy.green@gmail.com,tanmay.15je1717@mece.ism.ac.in,ism_15JE001717,JMMHGMHB
266,Manish parihar,15je001380,manishp9784@gmail.com,manish. 15je001380@mech.iitism.ac.in,ism_15je001380,RBSMDHHA
267,Thana Ram Choudhary,15JE001037,thanaramchoudhary348@gmail.com,thanaram.15JE001037@mech.ism.ac.in,ism_15JE001037,EYPJBPZD
268,ASHISH KUMAR SINGH,15JE001451,sashish0102@gmail.com,ashish.15JE001451@mech.iitism.ac.in,ism_15JE001451,IGHKEKYX
269,Kishan Kumar Singh,15je001141,singhkishankumar25@gmail.com,kishan.15je001141@mech.iitism.ac.in,ism_15je001141,ADGUAWAN
270,Vikash Kumar Gupta,15JE001084,hiitsvikashgupta@gmail.com,vikash.15JE001084@mech.iitism.ac.in,ism_15JE001084,XOJYODZS
271,Manish Kumar,15JE001365,manishraj0107@gmail.com,manish.15je001365@ism.ac.in,ism_15JE001365,ERNVUIZC
272,BHARGAV SENGUPTA,15JE001769,b.pta17@gmail.com,bhargav.15JE001769@fme.iitism.ac.in,ism_15JE001769,XZBFCGQW
273,Satyajeet Kumar,15JE001801,skr842@gmail.com,satyajeet.15JE001801@fme.iitism.ac.in,ism_15JE001801,NOAGLJSL
274,Shrija Paul ,15je001768,shrijapaul5@gmail.com,Shrija.15je001768@fme.iitism.ac.in,ism_15je001768,AJZEADNZ
275,SAGAR RANJAN BISWAL,15JE001707,sagar.biswal.2010@gmail.com,sagar.15JE001707@fme.iitism.ac.in,ism_15JE001707,AGEQNFDE
276,Mohit Singh Tanwar,15je001618,mstdabla@gmail.com ,mohit.15JE001618@fme.ism.ac.in,ism_15je001618,TXCMEYIB
277,Atishay Kumar,15JE001810,k.atishay@yahoo.co.in,k.atishay.15je001810@fme.ism.ac.in,ism_15JE001810,WZIIVSBZ
278,harish kumar,15je001602,harkdn@gmail.com,harish.15je1602@fme.ism.ac.in,ism_15je001602,ZCYDDYLN
279,Shivam Manik Annapurne,15JE001802,s.m.annapurne@gmail.com,anna.15je001802@fme.ism.ac.in,ism_15JE001802,ZHCLXENL
280,C.V.V Hemanarayana Reddy,15JE001764,hemanth.chamala328@gmail.com,hemanth.15JE001764@fme.iitism.ac.in,ism_15JE001764,TCGXOYJY
281,POTNURU KIRAN ,15JE001786,kiran12995p@gmail.com,potnuru.15JE001786@fme.iitism.ac.in,ism_15JE001786,JDNONIRG
282,Nikhil,15JE001327,nikhilkumar208632@gmail.com,nikhil.15je001327@me.ism.ac.in,ism_15JE001327,LWRJCXYG
283,Deekshant Sharma,15je001492,deekshantiit@gmail.com,deekshant.15je1492@me.ism.ac.in,ism_15je001492,SZYDZKMG
284,UMESH GODAWAL,15JE001301,yoyoumeshgodwal@gmail.com,umesh.15je1301@me.ism.ac.in,ism_15JE001301,QBBCDRDH
285,ANSHU KUMAR,15JE001341,meanshucool1997@gmail.com,anshu.15je1341@me.ism.ac.in,ism_15JE001341,JMSKRJDT
286,Sourav Anand,15JE001471,sourav.anand053@gmail.com,sourav.15je001471@me.iitism.ac.in,ism_15JE001471,TQHYUHCQ
287,PEDDI PREMCHAND,15JE001527,peddipremchand@gmail.com,premchand.15je1527@me.ism.ac.in,ism_15JE001527,CXWUSTZQ
288,Aashish Meena,15je001372,aashishmeena1896@gmail.com,aashish.15je001372@me.ism.ac.in,ism_15je001372,DWDQMAUE
289,Abhay Kumar,15JE001533,abhayjee1533@gmail.com,abhay.15je1533@me.ism.ac.in,ism_15JE001533,JPKXPGWR
290,Sadul Khod,15JE001507,sadul.iitism@gmail.com,sadul.15je1507@me.ism.ac.in,ism_15JE001507,TOBOMCIV
291,Prashant Kumar,15je001035,Prashantiaj@gmail.com,prashant.15je1035@me.ism.ac,ism_15je001035,GEVBMZCQ
292,BONDALAPATI VENKATA SIVA LINGA SAIKRISHNA,15JE001528,saikrrishhhhhh@gmail.com,bondalapatinaidu.15je001528@me.ism.ac.in,ism_15JE001528,VNGDCZSD
293,Prashant Dev Ratrey,15JE001485,prashantdevratrey1995@gmail.com,prashant.15je1485@me.ism.ac.in,ism_15JE001485,EHRTBTHX
294,Kethireddy Mohith,15je001438,kethireddimohit3643@gmail.com,kethireddimohit3643@gmail.com,ism_15je001438,JJOWDLWS
295,PAWAN KUMAR MANDAL,15JE001515,pkmandal021297@gmail.com,pawan.15JE001515@me.iitism.ac.in,ism_15JE001515,OOGCTNYS
296,Dwitun Basumatary,15je001316,dwitunbasu@gmail.com,dwitun.15JE001316@me.iitism.ac.in,ism_15je001316,IMHJEJYK
297,Yogesh Gupta,15JE001212,yogeshgupta19121997@gmail.com,yogeshgupta.15JE001212@me.iitism.ac.in,ism_15JE001212,BZAIOQYO
298,Simhadri Manikanta,15je001523,simhadrimanikanta321@gmail.com,15je001523.simhadri@me.iitism.ac.in,ism_15je001523,YMALGASY
299,SURENDRA KUMAR,15JE001200,sk550847@gmail.com,surendra.15je001200@me.ism.ac.in,ism_15JE001200,TEYLOMHT
300,MANOJ KUMAR SINGH,15JE001467,manoj.15je467@me.ism.ac.in,manoj.15je1467@me.ism.ac.in,ism_15JE001467,TPGWCPAC
301,Hirdaya Rao,15JE001695,hirdaya.rao14@gmail.com,hirdaya.15je001695@me.iitism.ac.in,ism_15JE001695,QFPYOMQG
302,Ankur Tiwari,15je000975,ankur1112tiwari@gmail.com,ankur.15JE000975.me.iitism.ac.in,ism_15je000975,MKNXOCJL
303,Shivam Singh,15JE001518,shivamsinghbhadauria6045@gmail.com,shivam.15jee001518@me.ism.ac.in,ism_15JE001518,UUKPSXKX
304,Krishna Kanhaiya,15JE001346,krishnakan98@gmail.com,krishna.15je1346@me.ism.ac.in,ism_15JE001346,FHGCIQNF
305,Sahil aryan,15je001349,sahilaryan23@gmail.com,sahil.15je1349@me.ism.ac,ism_15je001349,FJGWDKVR
306,Ishitwa Viranchi,15JE001512,ishitwa1911@gmail.com,ishitwa.15je1512@me.ism.ac.in,ism_15JE001512,NRRVTYQO
307,SAURAV KUMAR SHUKLA,15JE001499,sauravshukla19@gmail.com ,saurav.15e1499@ism.ne.ac.in,ism_15JE001499,YMKHGZOM
308,Manish Kumar,15JE001194,mkvargamme@gmail.com,manish.15je001194@me.ism.ac.in,ism_15JE001194,YFUOXYGX
309,Naman Goel,15JE001497,namangoel.nmn@gmail.com,15je1497@me.ism.ac,ism_15JE001497,JJWTENYM
310,Harsh Ranjan Kumar,15JE001008,harsh30814@gmail.com,harsh.15je1008@me.ism.ac.in,ism_15JE001008,XOQNQEPG
311,Krishna Kumar,15je001271,krishna.15je1271@pe.ism.ac.in,krishna.12je1271@pe.ism.ac.in,ism_15je001271,UQGDEBAY
312,Anuj Varshneya,15JE001250,varshneyanuj850@gmail.com,anuj.15JE001250@me.ism.ac.in,ism_15JE001250,JSBLGHTR
313,NITIN KUMAR,15JE001465,nitin86025@gmail.com,nitin.15je1465@me.ism.ac.in,ism_15JE001465,EBAMIQTA
314,Sidharth Rajpurohit,15JE001262,rpsidharth@gmail.com,sidharth.15je1262@me.ism.ac.in,ism_15JE001262,TZJFOVLL
315,Diwakar Kumar Gupta,14JE000380,sonucv800@gmail.com,diwakar.14JE000380@me.iitism.ac.in,ism_14JE000380,WXDHNBEH
316,Ranjan Kumar,15JE001277,ranjanmodi777@gmail.com,ranjan.15je1277@me.ism.ac.in,ism_15JE001277,KCLDCXHW
317,Navneet,15je001299,Navneet1197@gmail.com,navneet.15je001299@me.ism.ac.in ,ism_15je001299,NFMRRACG
318,Sonu kumar,15JE001163,sonu96685@gmail.com,sonu.15JE001163@me.iitism.ac.in,ism_15JE001163,YVBJAREV
319,Satya Prakash Yadav,15JE001535,spyadav439@gmail.com,satya.15je001535@me.iitism.ac.in,ism_15JE001535,KYPGBDNC
320,RAUSHAN KUMAR,15JE001531,raushankumar9529062399@gmail.com, rk.15JE001531@me.ism.ac.in,ism_15JE001531,ONDSWDDP
321,Manish Kumar,15je001529,Mani54727@gmail.com,manish.15je001529@me.iitism.ac.in,ism_15je001529,KRHNOJBD
322,Ankit Kashyap,15JE001313,contact.ankit.kashyap@gmail.com,ankit.15JE001313@me.iitism.ac.in,ism_15JE001313,RRYVTYJD
323,kartikey chauhan,15je001517,c.kartikey@live.com,kartikey.15je001517@me.ism.ac,ism_15je001517,JUGAOHFH
324,Kevin Thomas,15JE001270,kevinpt172@gmail.com,kevin.15je001270@me.iitism.ac.in,ism_15JE001270,DFUFAEFK
325,Deepanshu Anand,15je001513,anand.deepanshu12@gmail.com,deepanshu.15je1513@me.ism.ac.in,ism_15je001513,PQFDQZGL
326,Abhishek Kumar Pandey,15JE001191,abp1409@gmail.com,abhishek.15je1191@me.ism.ac.in,ism_15JE001191,NMCOVIWE
327,Satyam Kumar,15JE001315,satyam9835kumar@gmail.com ,satyam.15JE001315@me.iitism.ac,ism_15JE001315,VTLVUIRV
328,UMANG VISHWAKARMA,15JE001490,vish.umang2012@gmail.com,umang.15je1490@me.ism.ac.in,ism_15JE001490,NENFIFRN
329,Aman Kumar ,15je001434,aman64828@gmail.com ,aman64828.15JE001434@me.iitism.ac.in,ism_15je001434,UBIRJKSY
330,Shubham Gupta,15JE001019,shubhamg137@gmail.com,Shubham.15je001019@me.iitism.ac.in,ism_15JE001019,YFPCOIKF
331,Deepak kumar Oraon,15je001251,deepakkumar01276@gmail.com,deepak.15je001251@me.ism.ac.in,ism_15je001251,MYOAYSKZ
332,karan gupta,15JE001470,karangta76@gmail.com,karangta76@gmail.com,ism_15JE001470,QNLGBCGL
333,ankur poonia,15je001482,ankurpoonia2025@gmail.com,ankur.15je001482@me.iitism.ac.in,ism_15je001482,OYDATDPH
334,Nikhil Sunil Mundhra,15JE001755,mundhranikhil.ash@gmail.com,nikhil.15je001755@mme.ism.ac.in,ism_15JE001755,UJECICMH
335,M Sai Raghav,15je001632,raghavsai1@gmail.com,raghavsai1.15je001632@mme.ism.ac.in,ism_15je001632,OJMDCMTG
336,SIVAM JYOTISHI,15JE001684,sivamjyotishism@gmail.com,sivamjyotishi.15JE001684@mme.iitism.ac.in,ism_15JE001684,CHXSVAYE
337,eklavyasingh63@gmail.com,15je001543,eklavyasingh63@gmail.com,eklavya.15je001543@mme.ism.ac.in,ism_15je001543,AUHJGJHD
338,Utkarsh Bhardwaj,15JE001678,ubhardwaj60@gmail.com,utkarsh.15je001678@mme.iitism.ac.in,ism_15JE001678,CXARWOZT
339,Sandeep Singh,15je001700,sandeepsingh79972@gmail.com,sandeep.15je001700@mme.iitism.ac.in,ism_15je001700,LYIJRXFZ
340,Atul Kumar,15JE001656,atul0877@gmail.com,atul.15je1656@mme.ism.ac.in,ism_15JE001656,GEUUQMSV
341,Praful Gupta,15JE001646,kishuaug@gmail.com,praful.15je001646@mme.ism.ac.in,ism_15JE001646,XQNZRKAC
342,Abhishek,15JE001613,abhisheknegi2396@gmail.com,abhishek.15je001613@mme.iitism.ac.in,ism_15JE001613,GWSXGFMA
343,Sandipan Mistry,15JE001785,mistrysandipan@gmail.com,mistrysandipan.15JE001785@mme.ism.ac.in,ism_15JE001785,HACYTCCN
344,Madhup Raj,15je001819,madhupraj19@gmail.com,madhupraj.15je001819@mme.ism.ac.in,ism_15je001819,GVKEBPCP
345,AKHIL RUPANA,15JE001748,akhilrupana@gmail.com,rupana.15JE001748@mme.iitism.ac.in,ism_15JE001748,TRPUUGUB
346,MD TARIQUE NOOR,15JE001729,mdtariquen2011@gmail.com,tarique.15je1729@mme.ism.ac.in,ism_15JE001729,BEHUFARI
347,MOHIT SINGH,15JE001599,singhmohit1599@gmail.com,mohit.15JE001599@mme.ism.ac.in,ism_15JE001599,VWOXTLRK
348,Divyanshu,15je001809,divyanshu642@gmail.com,divyanshu.15JE001809@mme.iitism.ac.in,ism_15je001809,QEONKIFC
349,Prithvi Narayan Kush,15JE001691,pnkush@hotmail.com,prithvi.15je001691@mme.iitism.ac.in,ism_15JE001691,WEIVPJUD
350,SANTOSH KUMAR,15je001792,kumarsanto8873@gmail.com,s.15JE001792@mme.iitism.ac.in,ism_15je001792,ACFOQGKI
351,SHUBHAM KUMAR,15JE001779,shubham.exam@gmail.com,shubham.15je001779@mme.iitism.ac.in,ism_15JE001779,LBAAXYIW
352,Gourav,15JE001753,giitism@gmail.com ,g.15je001753@mme.ism.ac.in,ism_15JE001753,QVQEDEPM
353,Vaishnav Piyushkumar Chaudhari,15JE001063,vaishnavchaudhari1510@gmail.com,vaishnav.15je001063@pe.ism.ac.in,ism_15JE001063,EKKCVGMO
354,PANKAJ KUMAR,15JE001069,pankajkumarskb@gmail.com,pankaj.15JE001069@pe.iitism.ac.in,ism_15JE001069,KTIGZTRS
355,HARISH KUMAR ,15JE001265,hk04harish.kumar@gmail.com,harish.15je001265@pe.iitism.ac.in,ism_15JE001265,PCEKANIJ
356,Raj Gupta,15JE001285,contactguptaraj@gmail.com,raj.15JE001285@pe.iitism.ac.in,ism_15JE001285,TKDEUDNW
357,Sumit Lohiya,15JE001241,sumitlohiya16@gmail.com,lohiya.15je001241@pe.iitism.ac.in,ism_15JE001241,CHQPLPGJ
358,SIDESH KUMAR,15JE001839,sideshku6969@gmail.com,siddesh.15je001839@pe.iitism.ac.in,ism_15JE001839,OLWZJGQB
359,Arun Kumar,15JE001260,arunkaririya@gmail.com,arun.15JE001260@pe.iitism.ac.in,ism_15JE001260,TGWATKJP
360,Piyush kumar Chaudhary,15je001235,piyush14ry@gmail.com,piyush.15JE001235@pe.iitism.ac.in,ism_15je001235,DUNWISXK
361,Sharique Eliyas,14JE000079,md.sharique.eliyas@gmail.com,sharique.14je000079@cse.iitism.ac.in,ism_14JE000079,CAUURSEP
362,Ekaansh,14JE000069,ekaanshkhosla007@gmail.com,ekaansh.14je000069@cse.ism.ac.in,ism_14JE000069,FRYOXDJW
363,kalavala revanth harsha,14JE000470,Kalavalarevanth@gmail.com,kalavalarevanth@cse.ism.ac.in,ism_14JE000470,BBWQDTAG
364,Vivek Kumar Gautam,14JE000464,vivekv@cse.ism.ac.in,vivekv@cse.ism.ac.in,ism_14JE000464,LQLWWEUJ
365,RISHAV RAJ,14JE000040,rish20raj@gmail.com,rishav@cse.ism.ac.in,ism_14JE000040,GRSVMWEP
366,Deepak Chowtoure,2013JE0706,deepak1682@gmail.com,deepak706@cse.ism.ac.in,ism_2013JE0706,WRWZTSRG
367,jitendra singh kuladia,14JE000720,jitendra8593@gmail.com,jitendra8593@fme.ism.ac.in,ism_14JE000720,GTMDDVEM
368,SHRAY NAGLE,14JE000747,shraynagle@gmail.com,shraynagle@fme.ism.ac.in,ism_14JE000747,HSJLDIWD
369,kumar shubham aditya,14JE000764,shubhamaditya2151@gmail.com,shubham.14je000764@fme.iitiism.ac.in,ism_14JE000764,QZCVSXIU
370,Rishabh Pratap Singh Gurjar,14JE000128,rishabhgurjar93@gmail.com,rishabhgurjar.14je000128@me.ism.ac.in,ism_14JE000128,UYPDEUFC
371,MARELLA KIRAN KUMAR,14JE000354,kiran012197@gmail.com,marellakiran@me.ism.ac.in,ism_14JE000354,WAECSFME
372,PRINCE PATEL,14JE000774,princeism2617@gmail.com,prince.14je000774@me.iitism.ac.in,ism_14JE000774,ZSILYXUZ
373,Akash Maji,14JE000256,akashmaji256@gmail.com,akash21081996@me.ism.ac.in,ism_14JE000256,RSNORYXJ
374,Palakolanu sudeer kumar reddy,14JE000858,sudheer.palakolanu123@gmail.com,palakolanu@me.ism.ac.in,ism_14JE000858,MESQNQTK
375,BHAIRU SINGH,14JE000884,bhairu@me.ism.ac.in ,bhairu@me.ism.ac.in,ism_14JE000884,JNCLNARV
376,Rishav Kumar,14JE000792,rishavrajkamal@agl.ism.ac.in,rishavrajkamal@agl.ism.ac.in,ism_14JE000792,UNGMJZKF
377,Prakhar Agarwal,14JE000526,prakhar.agarwala7147@gmailcom,prakhar.14JE000526@agl.iitism.ac.in,ism_14JE000526,KRMASCIJ
378,SATYAM GUPTA,14JE000905,satyam.ismagl@gmial.com,satyam@agl.ism.ac.in,ism_14JE000905,WSPIXDJD
379,Geetanjali Deole,14JE000897,geet.deole@gmail.com,geetanjali.14je000897@agl.ism.ac.in,ism_14JE000897,JLNKZJMH
380,SHANKAR CHANDRA MAJHI,14JE000523,shankar.chandra25@gmail.com,shankar chandra.iitian@agl.ism.ac.in,ism_14JE000523,SWFNUWSH
381,Ruturaj Ashish Samant,14aJE000799,ruturaj.agp.ism.iit@gmail.com,ruturaj.intt.mtech@agp.ism.ac.in,ism_14aJE000799,QXJFDERM
382,Arnab Banerjee,14JE000777,arnabbanerjee2308@gmail.com,arnab@agp.ism.ac.in,ism_14JE000777,PDRXKZUG
383,Khushnood Qadir,2013JE1072,qkhushnood@live.com,khushnoodqadir@agp.ism.ac.in ,ism_2013JE1072,XCLZTMSW
384,Atul kumar,14je000789,atulkumarism@gmail.com,atul145.14JE000789@agp.ism.ac.in,ism_14je000789,TNVFUCUQ
385,Ajaypal singh attal,14je000701,ajaypalsingh134@gmail.com,ajaypal@am.ism.ac.in,ism_14je000701,SNBCLOVB
386,Manjur Ansari,14JE000401,manjuransari143@gmail.com,manjuransari@am.ism.ac.in,ism_14JE000401,HYAYJFFY
387,Rohit Munda,2013JE0012,sumeetmunda@gmail.com,rohit17@am.ism.ac.in,ism_2013JE0012,WTXJDTQH
388,Nikhil Khetan,14JE000691,nikhilkhetan@am.ism.ac.in,nikhilkhetan@am.ism.ac.in,ism_14JE000691,QLNWWERU
389,DEEPAK GUPTA,14JE000921,deepakgupta1228@gmail.com,deepakgupta1228@fme.ism.ac.in,ism_14JE000921,ZXJVFNYN
390,Parardha Kumar,14JE000900,parardha@ap.ism.ac.in,parardha@ap.ism.ac.in,ism_14JE000900,PLCMWQCN
391,Hari Mohan Pandey,14JE000583,harimohan@am.ism.ac.in,harimohan@am.ism.ac.in,ism_14JE000583,HZCGLKLT
392,Rohit Nandan Pandey,14JE000646,rohitnp5862@gmail.com,rohit.14je000646@am.ism.ac.in,ism_14JE000646,VATWTNBF
393,Apurva Agrawal,14JE000677,ag.apurva11@gmail.com,apurvaworld@am.ism.ac.in,ism_14JE000677,ZUWJMEJK
394,Sonu Shakeshpear,14JE000743,shakeshpearsonu01@gmail.com,sonushakeshpear@am.ism.ac.in,ism_14JE000743,HTCBIVJA
395,Sambuddha Nath,14JE000699,sambuddha.nath@gmail.com,sambuddha.nath@am.ism.ac.in,ism_14JE000699,IZVMBHSG
396,AJAY KUMAR,14JE000746,ajkr2295@gmail.com,ajay.14je000746@am.iitism.ac.in,ism_14JE000746,MQVNWGBJ
397,Abhishek kumar,14je000776,abkshanu@gmail.com,abhishek04@am.ism.ac.in,ism_14je000776,XGEAHZDJ
398,Rishikesh Parma,14je000643,rishikesh.parma9@gmail.com,rishikesh786@am.ism.ac.in,ism_14je000643,UUYPEOQW
