Username,Password
iitkgp_extra_1,SFKGZJNF
iitkgp_extra_2,RIKPVGNT
iitkgp_extra_3,OKKFBYDZ
iitkgp_extra_4,SZAWTJCG
iitkgp_extra_5,DOGOQWOK
iitkgp_extra_6,QKSTIQKI
iitkgp_extra_7,UZVZMQQB
iitkgp_extra_8,TEAYNJAC
iitkgp_extra_9,GUYSVMXG
iitkgp_extra_10,JUOGJIQB
iitkgp_extra_11,XDEOEFLW
iitkgp_extra_12,CGBJILAY
iitkgp_extra_13,IHXMJPRR
iitkgp_extra_14,MDPAURNC
iitkgp_extra_15,SVXEBTWF
iitkgp_extra_16,OKRZUBYX
iitkgp_extra_17,TLNZNKFL
iitkgp_extra_18,BXGVLBXC
iitkgp_extra_19,NENSDKHQ
iitkgp_extra_20,PEPEEFOR
iitkgp_extra_21,YWUIWXZK
iitkgp_extra_22,PQAOJXKW
iitkgp_extra_23,EFQEUJJB
iitkgp_extra_24,LTSRUJDG
iitkgp_extra_25,LDTJELYW
iitkgp_extra_26,MWHUFMZY
iitkgp_extra_27,UKRMBMHG
iitkgp_extra_28,CYBIMGQP
iitkgp_extra_29,EIFFRZHS
iitkgp_extra_30,NSASNWKT
iitkgp_extra_31,FAPLWKYJ
iitkgp_extra_32,DCLHJNSK
iitkgp_extra_33,GROLVMQU
iitkgp_extra_34,KWIGQKVU
iitkgp_extra_35,HQDJTJZE
iitkgp_extra_36,KSZVVOUO
iitkgp_extra_37,CRGZWNIC
iitkgp_extra_38,FVFDUPQU
iitkgp_extra_39,NDPRIBSG
iitkgp_extra_40,IBOJWJBE
iitkgp_extra_41,NICFQBKC
iitkgp_extra_42,JYDXBGTV
iitkgp_extra_43,USGMUNGA
iitkgp_extra_44,ANKMFWYN
iitkgp_extra_45,PKABVIGZ
iitkgp_extra_46,HTCMNKAE
iitkgp_extra_47,RNJOMETJ
iitkgp_extra_48,TBNPOAWG
iitkgp_extra_49,NAGIZBVQ
iitkgp_extra_50,TXTWOXMJ
