Roll No,Name,Email ID,Username,Password
AE14B004,Ashmon M C,AE14B004@smail.iitm.ac.in,iitm_AE14B004,KMQAIFXE
AE14B006,Bhanavath Mamatha,AE14B006@smail.iitm.ac.in,iitm_AE14B006,PFDHAIGH
AE14B028,Sheik Abdul Azeez,AE14B028@smail.iitm.ac.in,iitm_AE14B028,BDJTIDMC
AE14B034,Vutukuri S G Manikanta,AE14B034@smail.iitm.ac.in,iitm_AE14B034,XBZZYCRI
AE15B003,ABHINAV JINDAL,AE15B003@smail.iitm.ac.in,iitm_AE15B003,MATOJHMU
AE15B009,ARAVIND SHAJ,AE15B009@smail.iitm.ac.in,iitm_AE15B009,ZHANPFBH
AE15B012,FEROZ BAKER,AE15B012@smail.iitm.ac.in,iitm_AE15B012,UDZAYSVE
AE15B013,G Sudheer,AE15B013@smail.iitm.ac.in,iitm_AE15B013,YIKEKWDO
AE15B015,K PAVAN SAI,AE15B015@smail.iitm.ac.in,iitm_AE15B015,DQWSNTSM
AE15B018,KHEDAVAT LAXMI RAMESH,AE15B018@smail.iitm.ac.in,iitm_AE15B018,RTTRSLFD
AE15B023,MUTHYALA ANJALI,AE15B023@smail.iitm.ac.in,iitm_AE15B023,ONFNAVZF
AE15B035,Rohit Jejani,AE15B035@smail.iitm.ac.in,iitm_AE15B035,SFSUOXPQ
AE15B038,S.LOKESH,AE15B038@smail.iitm.ac.in,iitm_AE15B038,WBIRWRBQ
AE15B039,SANJAY KUMAR N T,AE15B039@smail.iitm.ac.in,iitm_AE15B039,QUXSPHVQ
AE15B040,SANTHOSH S,AE15B040@smail.iitm.ac.in,iitm_AE15B040,CEAVWFVA
AE15B042,SIRISETTY THANNI SREE TEJA,AE15B042@smail.iitm.ac.in,iitm_AE15B042,BWEJMUHP
AE12B046,M Kiran Vamshi,AE12B046@smail.iitm.ac.in,iitm_AE12B046,UVMAASNS
AE13B044,Punit Mahipal,AE13B044@smail.iitm.ac.in,iitm_AE13B044,SSPWNCSM
AE14B047,Sateesh Chakravarthy S,AE14B047@smail.iitm.ac.in,iitm_AE14B047,BHHYNQIC
AE14B050,Vankineni Om Sai Varun,AE14B050@smail.iitm.ac.in,iitm_AE14B050,PMUVEEIA
AE14B051,Kelkar Abhishek Vivek,AE14B051@smail.iitm.ac.in,iitm_AE14B051,GHMDLLZS
AE14B057,Sachin S,AE14B057@smail.iitm.ac.in,iitm_AE14B057,XVWSMLLP
AE14B058,Md Umarfaruque,AE14B058@smail.iitm.ac.in,iitm_AE14B058,EGEGYLVM
AE14B060,Aravinth C K,AE14B060@smail.iitm.ac.in,iitm_AE14B060,JSAMXMUQ
BE12B018,Narasapuram Naveen Kumar,BE12B018@smail.iitm.ac.in,iitm_BE12B018,SDXZJITG
BE12B023,Ponna Dhavani Dhavani,BE12B023@smail.iitm.ac.in,iitm_BE12B023,TSPMMGKY
BE13B021,Nenavath Ramarao,BE13B021@smail.iitm.ac.in,iitm_BE13B021,RHAUJILS
BE14B003,Bunedri Gowtham Giddaiah,BE14B003@smail.iitm.ac.in,iitm_BE14B003,REULONNX
BE14B009,Gopinath S,BE14B009@smail.iitm.ac.in,iitm_BE14B009,HJRVGMWG
BE14B010,Jatoth Shruthi Rathod,BE14B010@smail.iitm.ac.in,iitm_BE14B010,NFPHVUNP
BE14B012,Karanam Jyothsna,BE14B012@smail.iitm.ac.in,iitm_BE14B012,SNNDCRYT
BE14B013,Kaushik Viswanath S P,BE14B013@smail.iitm.ac.in,iitm_BE14B013,TDYGZULR
BE14B016,Mounika Dulam Venkata Sai,BE14B016@smail.iitm.ac.in,iitm_BE14B016,BHJSKLZY
BE14B018,Mudigal Sai Likhitha,BE14B018@smail.iitm.ac.in,iitm_BE14B018,OPEKSZBC
BE14B033,Vishnu Narayan P,BE14B033@smail.iitm.ac.in,iitm_BE14B033,YBPQGIKO
BE14B034,Yellavula Rachana,BE14B034@smail.iitm.ac.in,iitm_BE14B034,JLXWREAK
BS12B061,Sharmila Triveni Vanamu,BS12B061@smail.iitm.ac.in,iitm_BS12B061,MABGCZUX
BS13B009,S Easwaran,BS13B009@smail.iitm.ac.in,iitm_BS13B009,EJBXHUEQ
BS13B021,Pinapati Chetan,BS13B021@smail.iitm.ac.in,iitm_BS13B021,AXNEJGAE
BS14B009,Bajoji Sai Bharath,BS14B009@smail.iitm.ac.in,iitm_BS14B009,XNVMSQAY
BS14B017,Himanshu Sanwariya,BS14B017@smail.iitm.ac.in,iitm_BS14B017,IODYNGGX
BS14B021,Ketha Kumar Srinivas,BS14B021@smail.iitm.ac.in,iitm_BS14B021,QGUISWAX
BS14B035,Talluri Nelson Babu,BS14B035@smail.iitm.ac.in,iitm_BS14B035,YNDJOWDC
CE14B017,Dorbala Sai Narasimha Akhilesh,CE14B017@smail.iitm.ac.in,iitm_CE14B017,IYBTBFSQ
CE14B027,Kovuri Deepak,CE14B027@smail.iitm.ac.in,iitm_CE14B027,ZRAGIDCS
CE14B041,Rishivanth T,CE14B041@smail.iitm.ac.in,iitm_CE14B041,FHPRTKVV
CE14B043,Santhosh G V,CE14B043@smail.iitm.ac.in,iitm_CE14B043,CJZGERKG
CE15B002,ADEPU SANATH KUMAR,CE15B002@smail.iitm.ac.in,iitm_CE15B002,PDMEYXNQ
CE15B004,AMAN HINGERH,CE15B004@smail.iitm.ac.in,iitm_CE15B004,FLUCRUGA
CE15B006,AMITESH KUMAR,CE15B006@smail.iitm.ac.in,iitm_CE15B006,ULHPWHXN
CE15B007,AMOD SHANKER,CE15B007@smail.iitm.ac.in,iitm_CE15B007,KRXZRQYG
CE15B008,ANKITA MEENA,CE15B008@smail.iitm.ac.in,iitm_CE15B008,IOSXXFCV
CE15B009,ANKUR YADAV,CE15B009@smail.iitm.ac.in,iitm_CE15B009,IXKSRPGZ
CE15B011,ARJUNA BHANU PRAKASH,CE15B011@smail.iitm.ac.in,iitm_CE15B011,NATTNPJH
CE15B015,BHRUGUMALLA SWAPNIKA,CE15B015@smail.iitm.ac.in,iitm_CE15B015,YAXPIYJU
CE15B018,BUSAM ALEKHYA,CE15B018@smail.iitm.ac.in,iitm_CE15B018,KOYTIWQC
CE15B030,KARTHIK,CE15B030@smail.iitm.ac.in,iitm_CE15B030,NOEBPOIQ
CE15B032,L.SARAVANA KUMAR,CE15B032@smail.iitm.ac.in,iitm_CE15B032,SLLFOOLY
CE15B037,MUTTEVI DIVYA PRANEETHA,CE15B037@smail.iitm.ac.in,iitm_CE15B037,SJUEXRQE
CE15B042,PATHIVADA SINDHUJA,CE15B042@smail.iitm.ac.in,iitm_CE15B042,OUNGBJNJ
CE15B049,RAMALINGAM G,CE15B049@smail.iitm.ac.in,iitm_CE15B049,SCNTFLDT
CE15B052,S.S.K.SAI SHANDILIA,CE15B052@smail.iitm.ac.in,iitm_CE15B052,KNIVGPMA
CE15B055,SAURABH KUMAR AGARWAL,CE15B055@smail.iitm.ac.in,iitm_CE15B055,NELVBYEQ
CE15B056,SINGAM SRAVAN GOUD,CE15B056@smail.iitm.ac.in,iitm_CE15B056,ZCWJQBSB
CE15B059,THUNIKI VISHWAS REDDY,CE15B059@smail.iitm.ac.in,iitm_CE15B059,DIWCBZAA
CE15B063,VEMURI VENKATA SAI SIDDHARTHA,CE15B063@smail.iitm.ac.in,iitm_CE15B063,GGCYKIMH
CE15B064,VIVEK V,CE15B064@smail.iitm.ac.in,iitm_CE15B064,RVSRNIBK
CE15B065,YADAVILLI SASHANK,CE15B065@smail.iitm.ac.in,iitm_CE15B065,OCKWKUXQ
CE15B099,PRAN KRISHNA,CE15B099@smail.iitm.ac.in,iitm_CE15B099,EALHRFQV
CE13B077,Kamarapu Sharvani,CE13B077@smail.iitm.ac.in,iitm_CE13B077,QHGVCPZB
CE13B092,Rashmi Raj,CE13B092@smail.iitm.ac.in,iitm_CE13B092,AMDDJFEY
CE14B005,Anurag Shrivastav,CE14B005@smail.iitm.ac.in,iitm_CE14B005,BZEZSDDC
CE14B067,Safeel A K,CE14B067@smail.iitm.ac.in,iitm_CE14B067,USLATSZX
CE14B068,Shiyas P H,CE14B068@smail.iitm.ac.in,iitm_CE14B068,CCXDCSEE
CE14B069,Vinnakoti Nikhil,CE14B069@smail.iitm.ac.in,iitm_CE14B069,HKODLXCK
CE14B071,Borde Narendra Vyankatrao,CE14B071@smail.iitm.ac.in,iitm_CE14B071,JAHGQGTS
CE14B072,Kakkirala Ankit,CE14B072@smail.iitm.ac.in,iitm_CE14B072,JBZGBGOC
CE14B075,Phaneendra Bheesetti,CE14B075@smail.iitm.ac.in,iitm_CE14B075,IKNZINTG
CE14B079,Sirigiri Raghuram,CE14B079@smail.iitm.ac.in,iitm_CE14B079,ESYQBZNS
CE14B082,Tallari Veena Priscilla,CE14B082@smail.iitm.ac.in,iitm_CE14B082,NPOCFXWL
CE14B083,Ullamgunta Naveen Sai,CE14B083@smail.iitm.ac.in,iitm_CE14B083,HPRDXVLX
CE14B084,Agnoor Akshay,CE14B084@smail.iitm.ac.in,iitm_CE14B084,OBYYTOLL
CE14B088,Donga Tejeswar,CE14B088@smail.iitm.ac.in,iitm_CE14B088,YRTKLDOS
CE14B089,Ekansh Garg,CE14B089@smail.iitm.ac.in,iitm_CE14B089,OJDRDDOZ
CE14B091,Jaikishan Dulani,CE14B091@smail.iitm.ac.in,iitm_CE14B091,MVZVNMTI
CE14B094,Karangula Anvesh,CE14B094@smail.iitm.ac.in,iitm_CE14B094,GGPKEWHG
CE14B096,Peeush Jose Mathew,CE14B096@smail.iitm.ac.in,iitm_CE14B096,ONECELTV
CE14B101,Subhash Chandra Meena,CE14B101@smail.iitm.ac.in,iitm_CE14B101,JXXSRRDN
CE14B103,Chirag Gupta,CE14B103@smail.iitm.ac.in,iitm_CE14B103,XGSRIHCB
CE14B104,Mula Vamsi Krishna,CE14B104@smail.iitm.ac.in,iitm_CE14B104,NZQMTRIP
CE14B105,P Krishna Chaitanya,CE14B105@smail.iitm.ac.in,iitm_CE14B105,EYOQXOSD
CH15B004,AJITH S,CH15B004@smail.iitm.ac.in,iitm_CH15B004,ERBTPMUH
CH15B005,AKHEEL HASHIM.K,CH15B005@smail.iitm.ac.in,iitm_CH15B005,VHQTWPTS
CH15B013,BHUKYA SUCHARITHA,CH15B013@smail.iitm.ac.in,iitm_CH15B013,PSNXNYGY
CH15B018,DURGA,CH15B018@smail.iitm.ac.in,iitm_CH15B018,JBJVJWOX
CH15B027,JAYANTA KUMAR MOHARANA,CH15B027@smail.iitm.ac.in,iitm_CH15B027,MHJBAZBQ
CH15B030,KALIDINDI VAMSI VARMA,CH15B030@smail.iitm.ac.in,iitm_CH15B030,SBCAVSVI
CH15B033,LELLA OM SAI KRISHNA MADHAV,CH15B033@smail.iitm.ac.in,iitm_CH15B033,PLXJYJPH
CH15B035,M. ABIRAMI,CH15B035@smail.iitm.ac.in,iitm_CH15B035,TOHHWFKH
CH15B036,MANIKANTA NANDALA,CH15B036@smail.iitm.ac.in,iitm_CH15B036,EEEMPJDX
CH15B042,NAGARKAR RANJEET SHAILENDRA,CH15B042@smail.iitm.ac.in,iitm_CH15B042,SYFEJOPX
CH15B047,PARAS KUMAR,CH15B047@smail.iitm.ac.in,iitm_CH15B047,ZGJKFZSO
CH15B051,PEREMU TONY PRASHANTH,CH15B051@smail.iitm.ac.in,iitm_CH15B051,HQFKONPV
CH15B057,RAGHWENDRA SARKAR,CH15B057@smail.iitm.ac.in,iitm_CH15B057,DRAUFCSU
CH14B013,Ashwin V,CH14B013@smail.iitm.ac.in,iitm_CH14B013,JYZGOSWQ
CH14B074,Akhil T,CH14B074@smail.iitm.ac.in,iitm_CH14B074,FRAUIBGU
CH14B076,Anurag Agarwala,CH14B076@smail.iitm.ac.in,iitm_CH14B076,YNIJDTTM
CH14B077,Ashish Upadhyay,CH14B077@smail.iitm.ac.in,iitm_CH14B077,EVTIWAGB
CH14B078,Bikram Kumar Das,CH14B078@smail.iitm.ac.in,iitm_CH14B078,JULQICUF
CH14B079,Binaykiya Rishabh Rajkumar,CH14B079@smail.iitm.ac.in,iitm_CH14B079,HTHHGWSI
CH14B080,Farzin K,CH14B080@smail.iitm.ac.in,iitm_CH14B080,SCKYVNWV
CH14B081,Kotha Pavan Kumar Reddy,CH14B081@smail.iitm.ac.in,iitm_CH14B081,KZAHTLMO
CH14B082,Lavlesh Raj,CH14B082@smail.iitm.ac.in,iitm_CH14B082,DMETEVIU
CH14B083,Nitin N,CH14B083@smail.iitm.ac.in,iitm_CH14B083,CSWCNNKJ
CH14B085,Shanttam Jain,CH14B085@smail.iitm.ac.in,iitm_CH14B085,WDAKADIS
CH14B086,Sri Jaya Surya A P,CH14B086@smail.iitm.ac.in,iitm_CH14B086,PJLBWJJT
CH14B087,Tanya Agrawal,CH14B087@smail.iitm.ac.in,iitm_CH14B087,BNCJTOCF
CH14B088,Vedula Murali Manohar,CH14B088@smail.iitm.ac.in,iitm_CH14B088,ENMEOCFP
CH14B089,Venkata Kaushik Gattupalli,CH14B089@smail.iitm.ac.in,iitm_CH14B089,WCKDLWTF
CH14B090,Yadav Ritik Ranjan,CH14B090@smail.iitm.ac.in,iitm_CH14B090,ANAUUDAY
CH14B093,Karan Jeswani,CH14B093@smail.iitm.ac.in,iitm_CH14B093,FDKJGWTT
CS15B041,YASWITA GUJJU,CS15B041@smail.iitm.ac.in,iitm_CS15B041,UXHHODVN
CS13B034,Bandarupally Sumanth,CS13B034@smail.iitm.ac.in,iitm_CS13B034,SDFDMVGQ
CS13B045,Mude Shyamprasadnaik,CS13B045@smail.iitm.ac.in,iitm_CS13B045,QVQHRCRD
CS13B054,Yatam Sowmith,CS13B054@smail.iitm.ac.in,iitm_CS13B054,ZSGQIVFU
ED13B030,Kolli Madhava Reddy,ED13B030@smail.iitm.ac.in,iitm_ED13B030,KEUPTQRI
ED14B002,AJITHKUMAR NARASIMMAN,ED14B002@smail.iitm.ac.in,iitm_ED14B002,LVGIUXLE
ED14B004,Aleef P,ED14B004@smail.iitm.ac.in,iitm_ED14B004,QNXYTWQB
ED14B007,Arun V,ED14B007@smail.iitm.ac.in,iitm_ED14B007,YMVOMYUM
ED14B021,Kuldeep Singh,ED14B021@smail.iitm.ac.in,iitm_ED14B021,NEQXSYQW
ED14B026,Namburi Sri Sathya Manoj,ED14B026@smail.iitm.ac.in,iitm_ED14B026,USFOUHSM
ED14B028,Parikipandla Abhigna,ED14B028@smail.iitm.ac.in,iitm_ED14B028,COCFBQMZ
ED14B030,Patel Harsh Ranchhodbhai,ED14B030@smail.iitm.ac.in,iitm_ED14B030,SDWECXKJ
ED14B033,Prithivi Raj D,ED14B033@smail.iitm.ac.in,iitm_ED14B033,IFRMZUIX
ED14B035,Rohan Saphal,ED14B035@smail.iitm.ac.in,iitm_ED14B035,ZWMNIGKW
ED14B036,V Sanjay,ED14B036@smail.iitm.ac.in,iitm_ED14B036,ASYSHIXR
ED14B045,Aditya Bagari,ED14B045@smail.iitm.ac.in,iitm_ED14B045,EQQOHQZM
ED14B047,Ahammed Roshan P,ED14B047@smail.iitm.ac.in,iitm_ED14B047,MEDYQWPB
ED14B049,Kommuru Hari Surya Ganesh,ED14B049@smail.iitm.ac.in,iitm_ED14B049,GZJXPMWU
ED14B055,Sudharsan S M,ED14B055@smail.iitm.ac.in,iitm_ED14B055,WPUNOCSZ
EE14B023,Devarakonda Mohan,EE14B023@smail.iitm.ac.in,iitm_EE14B023,DYSKFUSA
EE15B025,GANGA MEGHANATH,EE15B025@smail.iitm.ac.in,iitm_EE15B025,QIUCIBIM
EE15B030,JITENDRA KUMAR,EE15B030@smail.iitm.ac.in,iitm_EE15B030,QYMRUIPL
EE15B040,LALIT KUMAR R M,EE15B040@smail.iitm.ac.in,iitm_EE15B040,UCWSHZJJ
EE15B059,SHRUTI,EE15B059@smail.iitm.ac.in,iitm_EE15B059,ZVTPNUID
EE15B062,TEJAVATH SAI TEJASWI,EE15B062@smail.iitm.ac.in,iitm_EE15B062,AKBAGQHF
EE14B070,Akshun Kumar Yadav,EE14B070@smail.iitm.ac.in,iitm_EE14B070,QNCXLPIF
EE14B088,Harshavardhan Reddy L,EE14B088@smail.iitm.ac.in,iitm_EE14B088,KGANTVBY
EE14B096,Muhammed Yaseen C,EE14B096@smail.iitm.ac.in,iitm_EE14B096,TIYWPYJN
EE14B102,Rajat Kumar G,EE14B102@smail.iitm.ac.in,iitm_EE14B102,EKNXKYOG
EE14B103,Ramtenki Anvesh,EE14B103@smail.iitm.ac.in,iitm_EE14B103,TLXAUFDC
EE14B104,Sachin Agrawal,EE14B104@smail.iitm.ac.in,iitm_EE14B104,WGDEBKGH
EE14B109,Vasukumar Bhimani,EE14B109@smail.iitm.ac.in,iitm_EE14B109,QAMTKGSZ
EE14B112,Yash M Goyal,EE14B112@smail.iitm.ac.in,iitm_EE14B112,UFSIRTWC
EP15B008,DUVVURU RISHIDHAR REDDY,EP15B008@smail.iitm.ac.in,iitm_EP15B008,RFFLEUWK
EP15B024,SHUBANKAR S,EP15B024@smail.iitm.ac.in,iitm_EP15B024,TPGCJZEZ
EP15B025,T JEEVA KUMAR,EP15B025@smail.iitm.ac.in,iitm_EP15B025,MYRXIXAS
ME15B002,ABINAYA ANKUR RAUT,ME15B002@smail.iitm.ac.in,iitm_ME15B002,DEROHJYP
ME15B006,AMAL S,ME15B006@smail.iitm.ac.in,iitm_ME15B006,ZBNEPZGX
ME15B010,ATUL ANAND,ME15B010@smail.iitm.ac.in,iitm_ME15B010,KZPDEEEW
ME15B012,BALA GANAPATHY P,ME15B012@smail.iitm.ac.in,iitm_ME15B012,VLZAOTRK
ME15B013,BANOTH VISHAL,ME15B013@smail.iitm.ac.in,iitm_ME15B013,XHMZWZAE
ME15B016,BODLA VINEETH GUPTHA,ME15B016@smail.iitm.ac.in,iitm_ME15B016,UTZHIAAZ
ME15B017,BOMMATHULA LIKHITHA,ME15B017@smail.iitm.ac.in,iitm_ME15B017,UMHLBLRU
ME15B019,BONDILI TARUN SAIRAM SINGH,ME15B019@smail.iitm.ac.in,iitm_ME15B019,SRTPUYOJ
ME15B021,CHEKURI MOHAN SAI,ME15B021@smail.iitm.ac.in,iitm_ME15B021,URNOEZKC
ME15B024,DEPAVATH MOUNIMA,ME15B024@smail.iitm.ac.in,iitm_ME15B024,UXMJHHIM
ME15B037,KUPPA KRISHNA SAI VINEETH,ME15B037@smail.iitm.ac.in,iitm_ME15B037,XUCDYTVU
ME15B039,LAVANYA MADDALA,ME15B039@smail.iitm.ac.in,iitm_ME15B039,VSVUQFIT
ME15B043,MOHAN NANDA KUMAR,ME15B043@smail.iitm.ac.in,iitm_ME15B043,HVWZLJUA
ME15B047,NAREN ASHOK,ME15B047@smail.iitm.ac.in,iitm_ME15B047,LLMXBQRK
ME15B051,PRANAV BHARGAV SREEKIREDDY,ME15B051@smail.iitm.ac.in,iitm_ME15B051,OOHLBASE
ME15B052,PREMLATA PARIHAR,ME15B052@smail.iitm.ac.in,iitm_ME15B052,PDUJQGAE
ME15B054,R KARTHICK,ME15B054@smail.iitm.ac.in,iitm_ME15B054,BEVCWBIL
ME15B055,RAJ KIRITI VELICHETI,ME15B055@smail.iitm.ac.in,iitm_ME15B055,IKQUJEKU
ME15B056,RANJITH KUMAR S,ME15B056@smail.iitm.ac.in,iitm_ME15B056,AMZXKJDO
ME15B058,RISHABH KUMAR,ME15B058@smail.iitm.ac.in,iitm_ME15B058,JBYRWLLG
ME15B063,SATYAVOLU DHEERAJ,ME15B063@smail.iitm.ac.in,iitm_ME15B063,DKHJHJSM
ME15B064,SUBASH.S,ME15B064@smail.iitm.ac.in,iitm_ME15B064,ULPPLVVF
ME15B066,SURENDRA KUMAR MEGHWAL,ME15B066@smail.iitm.ac.in,iitm_ME15B066,ZLICLIWY
ME15B068,T SIDDHARTH,ME15B068@smail.iitm.ac.in,iitm_ME15B068,JESITNUK
ME15B071,TONAPE GAURAV ABHAY,ME15B071@smail.iitm.ac.in,iitm_ME15B071,NHFZXKWH
ME15B074,VELIVELA SRI KRISHNA,ME15B074@smail.iitm.ac.in,iitm_ME15B074,BMSEVSMU
ME13B085,Nagendra Bandi,ME13B085@smail.iitm.ac.in,iitm_ME13B085,YKXTBJXZ
ME13B137,Malli Madhu Babu,ME13B137@smail.iitm.ac.in,iitm_ME13B137,PDIFBBGR
ME14B075,Adgaonkar Sameeran Prashant,ME14B075@smail.iitm.ac.in,iitm_ME14B075,DTRLUNTC
ME14B076,Ajmera Daksh Kamlesh,ME14B076@smail.iitm.ac.in,iitm_ME14B076,UTOTOYCX
ME14B077,ANURAG VERMA,ME14B077@smail.iitm.ac.in,iitm_ME14B077,YHFWEDBU
ME14B078,Arnav,ME14B078@smail.iitm.ac.in,iitm_ME14B078,YGZROWZS
ME14B082,Hemanth G V S K,ME14B082@smail.iitm.ac.in,iitm_ME14B082,IELOBTYT
ME14B083,Himanshu Vadera,ME14B083@smail.iitm.ac.in,iitm_ME14B083,APZTQGCB
ME14B086,S V Minu Aswanth,ME14B086@smail.iitm.ac.in,iitm_ME14B086,XFESUZSA
ME14B087,Narava Venkata Santosh Rohan,ME14B087@smail.iitm.ac.in,iitm_ME14B087,JXKFEMYP
ME14B089,Nikhil S,ME14B089@smail.iitm.ac.in,iitm_ME14B089,VYDYVAPX
ME14B093,Priyanka Rao,ME14B093@smail.iitm.ac.in,iitm_ME14B093,LXHNTLLM
ME14B094,Saride Maneesha Devi,ME14B094@smail.iitm.ac.in,iitm_ME14B094,MLQMYFIU
ME14B096,Shubham Kumar,ME14B096@smail.iitm.ac.in,iitm_ME14B096,KTLUVZFA
ME14B097,Siddharth Rout,ME14B097@smail.iitm.ac.in,iitm_ME14B097,PMEGYKRJ
ME14B114,Mavuri Ravi Theja,ME14B114@smail.iitm.ac.in,iitm_ME14B114,BWAZTESB
ME14B118,Prem Pradeep Arigela,ME14B118@smail.iitm.ac.in,iitm_ME14B118,BKOPDLFK
ME14B122,Vinyl Kiran Anipe,ME14B122@smail.iitm.ac.in,iitm_ME14B122,HJBXPJSC
ME14B123,Yamini Singh,ME14B123@smail.iitm.ac.in,iitm_ME14B123,IODMMOWK
ME14B124,Banoth Aravind Prasad,ME14B124@smail.iitm.ac.in,iitm_ME14B124,QPCQMGMT
ME14B128,Hitesh Malla,ME14B128@smail.iitm.ac.in,iitm_ME14B128,UFKGAKPH
ME14B131,Kanithi Abhishek Chowdary,ME14B131@smail.iitm.ac.in,iitm_ME14B131,ZZGGDYET
ME14B137,Nitin Srikar Macharla,ME14B137@smail.iitm.ac.in,iitm_ME14B137,JIGCUJKD
ME14B138,Panchagiri Akshay Prasad,ME14B138@smail.iitm.ac.in,iitm_ME14B138,EXKVPRUM
ME14B140,Rohit G,ME14B140@smail.iitm.ac.in,iitm_ME14B140,DWQJRPUZ
ME14B141,Sama Sai Srikesh Reddy,ME14B141@smail.iitm.ac.in,iitm_ME14B141,OZHPYWLH
ME14B146,Teegala Rajesh,ME14B146@smail.iitm.ac.in,iitm_ME14B146,YTOCHGAA
ME14B155,Upadhyayula Sameer Kumar,ME14B155@smail.iitm.ac.in,iitm_ME14B155,SJCNDVSF
ME14B160,Arnab Paul,ME14B160@smail.iitm.ac.in,iitm_ME14B160,LMUWHSER
MM08B010,Haveela Pydimukkala,MM08B010@smail.iitm.ac.in,iitm_MM08B010,XZZNRAZH
MM14B013,Harish Kumar,MM14B013@smail.iitm.ac.in,iitm_MM14B013,EQVVEKPD
MM15B005,AVUSAALA SRI CHAITANYA,MM15B005@smail.iitm.ac.in,iitm_MM15B005,OIEJLBNM
MM15B008,D ARUN KUMAR,MM15B008@smail.iitm.ac.in,iitm_MM15B008,GCENZWEU
MM15B017,NUNNABOINA RAVI TEJA,MM15B017@smail.iitm.ac.in,iitm_MM15B017,JKUSDABD
MM15B019,PUJARI SAI VAMSI,MM15B019@smail.iitm.ac.in,iitm_MM15B019,MFTTMRSD
MM15B023,RAJAT PRATAP SINGH,MM15B023@smail.iitm.ac.in,iitm_MM15B023,ZIZBDYXS
MM15B026,ROHIT RAY,MM15B026@smail.iitm.ac.in,iitm_MM15B026,GTZLUSWI
MM15B031,SAMINENI SAI BHASKAR,MM15B031@smail.iitm.ac.in,iitm_MM15B031,HUBPUKIP
MM14B045,Sathish Kumar S,MM14B045@smail.iitm.ac.in,iitm_MM14B045,QPNDYZBE
MM14B047,Vardhanapu Shivani,MM14B047@smail.iitm.ac.in,iitm_MM14B047,CHXFEGXM
MM14B049,Vishnu N,MM14B049@smail.iitm.ac.in,iitm_MM14B049,FVXXWKVX
MM14B051,Chirag R Bhattad,MM14B051@smail.iitm.ac.in,iitm_MM14B051,AVKTEWCE
NA12B006,Chappagedda Vasu,NA12B006@smail.iitm.ac.in,iitm_NA12B006,ZOLNDHGL
NA13B004,Amaldev E.S,NA13B004@smail.iitm.ac.in,iitm_NA13B004,UJVWERMM
NA14B013,Joel Jose Varghese,NA14B013@smail.iitm.ac.in,iitm_NA14B013,UVRLDQIL
NA14B027,Siddhartha Swaroop G,NA14B027@smail.iitm.ac.in,iitm_NA14B027,JMZOEVTS
NA15B003,AMEER HASSAN A S,NA15B003@smail.iitm.ac.in,iitm_NA15B003,ILOHMNUO
NA15B008,GEMBALI VENKATA RATNACHANDU,NA15B008@smail.iitm.ac.in,iitm_NA15B008,HHJFEWEB
NA15B010,INDUKURI VIJAY ANAND VARMA,NA15B010@smail.iitm.ac.in,iitm_NA15B010,MDUPNCCZ
NA15B011,JASKARAN LAMBA,NA15B011@smail.iitm.ac.in,iitm_NA15B011,NJVAHFRZ
NA15B014,KATIKI REVANTH KUMAR,NA15B014@smail.iitm.ac.in,iitm_NA15B014,HUVKKATQ
NA15B016,MAYANK SHINDE,NA15B016@smail.iitm.ac.in,iitm_NA15B016,LNRXIRMI
NA15B028,TIRLANGI ANUDEEPSAI,NA15B028@smail.iitm.ac.in,iitm_NA15B028,RZDRBLMG
NA15B029,TOMIN I THATTIL,NA15B029@smail.iitm.ac.in,iitm_NA15B029,WPYILJNK
NA12B042,Karaka Venkata Suresh Kumar,NA12B042@smail.iitm.ac.in,iitm_NA12B042,HJFLCULC
NA13B049,Dharavath Venkat,NA13B049@smail.iitm.ac.in,iitm_NA13B049,WDRWIUGC
NA13B054,Rahul Mohan,NA13B054@smail.iitm.ac.in,iitm_NA13B054,IAAGJLFB
NA14B039,Dosakayala Dheeraj Kumar Reddy,NA14B039@smail.iitm.ac.in,iitm_NA14B039,TDSTUTKD
NA14B040,Fuaad K P,NA14B040@smail.iitm.ac.in,iitm_NA14B040,NKTXGVTU
NA14B049,Devansh Jain,NA14B049@smail.iitm.ac.in,iitm_NA14B049,CTURFEKH
NA14B051,Kalkar Shivam Shrikant,NA14B051@smail.iitm.ac.in,iitm_NA14B051,XJRNDHGT
NA14B054,Rahul Prasadh R,NA14B054@smail.iitm.ac.in,iitm_NA14B054,VPEAQBEF
NA14B056,Gokulraj K R,NA14B056@smail.iitm.ac.in,iitm_NA14B056,CMZWJDFK
PH14B001,Amriteshnarayanan K M,PH14B001@smail.iitm.ac.in,iitm_PH14B001,GONFILYV
