Name,College ID,Email Address,Username,Password
MANISH MISHRA,2015UGME001,2015ugme001@nitjsr.ac.in,nitjsr_2015UGME001,LUXAR7WF
Vishal Kumar Jha,2015UGME004,2015ugme004@nitjsr.ac.in,nitjsr_2015UGME004,BZDSU81S
ROHIT KUMAR GUPTA,2015UGME006,2015ugme006@nitjsr.ac.in,nitjsr_2015UGME006,Q15GR7BG
ABHIJEET GORAI,2015UGME002,2015ugme002@nitjsr.ac.in,nitjsr_2015UGME002,6T2G3KWR
HEMANT PRAKASH,2015UGME028,2015ugme028@nitjsr.ac.in,nitjsr_2015UGME028,NE6LW812
Ravi Prakash,2015UGME017,2015ugme017@nitjsr.ac.in,nitjsr_2015UGME017,A01RHAQ8
ANKIT BHARTI,2015UGME019,2015ugme019@nitjsr.ac.in,nitjsr_2015UGME019,N67ZQVTZ
CHANDAN KUMAR PAUL,2015UGME003,2015ugme003@nitjsr.ac.in,nitjsr_2015UGME003,NA77VAKK
Abhishek kumar ,2015UGME074,2015ugme074@nitjsr.ac.in,nitjsr_2015UGME074,BH48QK5Z
RANDEEP KUMAR,2015UGME063,2015ugme063@nitjsr.ac.in,nitjsr_2015UGME063,QCJ2BKDA
Saurav Kumar,2015UGME034,2015ugme034@nitjsr.ac.in,nitjsr_2015UGME034,QO46JPGW
RITIK JAISWAL,2015UGME067,2015ugme067@nitjsr.ac.in,nitjsr_2015UGME067,3D6QTNRX
Amarjeet Kumar,2015UGME033,2015ugme033@nitjsr.ac.in,nitjsr_2015UGME033,VQ9N337Y
JAY ANAND,2015UGME026,2015ugme026@nitjsr.ac.in,nitjsr_2015UGME026,MO515ATR
Abhishek Kumar,2015UGME061,2015ugme061@nitjsr.ac.in,nitjsr_2015UGME061,VXD0QZTA
RAHUL KUMAR,2015UGME005,2015ugme005@nitjsr.ac.in,nitjsr_2015UGME005,HA0ZIH5N
Randhir kumar bind,2015UGME075,2015ugme075@nitjsr.ac.in,nitjsr_2015UGME075,BMXR2GYF
SANJEET KUMAR,2015UGME050,2015ugme050@nitjsr.ac.in,nitjsr_2015UGME050,X88DBNBS
SURAJ KUMAR,2015UGME082,2015ugme082@nitjsr.ac.in,nitjsr_2015UGME082,3GSPTDJ4
Ranjan Thakur ,2015UGME069,2015ugme069@nitjsr.ac.in,nitjsr_2015UGME069,ZRSQBZR2
Manan Bansal,2015UGME042,2015ugme042@nitjsr.ac.in,nitjsr_2015UGME042,9FXPN8XL
BHAWESH KUMAR,2015UGME052,2015ugme052@nitjsr.ac.in,nitjsr_2015UGME052,N2OUL7IY
TIKKISETTI VISWA NARAYAN,2015UGME072,2015ugme072@nitjsr.ac.in,nitjsr_2015UGME072,Q5OEEYJT
RAJAN RAJ,2015ugme064,2015ugme064@nitjsr.ac.in,nitjsr_2015ugme064,ZPM950G9
Chirumamilla Likhitesh,2015UGME087,2015ugme087@nitjsr.ac.in,nitjsr_2015UGME087,7ZELZY5Q
Ravi Kumar Singh,2015UGME066,2015ugme066@nitjsr.ac.in,nitjsr_2015UGME066,F90HAS1I
J H M PAVAN KUMAR,2015UGME070 ,2015ugme070@nitjsr.ac.in,nitjsr_2015UGME070 ,VJUV8PV5
S SURYA KRISHNA,2015UGME047,2015ugme047@nitjsr.ac.in,nitjsr_2015UGME047,ELFQSSV7
Pasupuleti Sai Siddhardha,2015UGME057,2015ugme057@nitjsr.ac.in,nitjsr_2015UGME057,IK3CBI1F
SATYAM KUMAR,2015UGME059,2015ugme059@nitjsr.ac.in,nitjsr_2015UGME059,YTDMYZIL
Saurav Kumar,2015UGME084,2015ugme084@nitjsr.ac.in,nitjsr_2015UGME084,J6C2G7II
Mithlesh Kumar Trivedi,2015UGME029,2015ugme029@nitjsr.ac.in,nitjsr_2015UGME029,FXMDZMGT
AKASH SUNDI,2015UGME008,2015ugme008@nitjsr.ac.in,nitjsr_2015UGME008,VU5PBB50
ROUSHAN KUMAR CHOUDHARY ,2015UGME053 ,2015ugme053@nitjsr.ac.in,nitjsr_2015UGME053 ,KFG7L1NW
SUKRITI RAJ,2015UGEC063,2015UGEC063@nitjsr.ac.in,nitjsr_2015UGEC063,ZBHGYCST
ROLEE AGARWAL,2015UGEC032,2015UGEC032@nitjsr.ac.in,nitjsr_2015UGEC032,WX4RIK87
RAHUL KUMAR,2015UGEC010,2015UGEC010@nitjsr.ac.in,nitjsr_2015UGEC010,XZNHNDZW
JAHANWI,2015UGEC023,2015UGEC023@nitjsr.ac.in,nitjsr_2015UGEC023,064GKZ4F
SANSKRITI,2015UGEC008,2015UGEC008@nitjsr.ac.in,nitjsr_2015UGEC008,113GSCWB
RANA DEY ,2015UGEC057,2015UGEC057@nitjsr.ac.in,nitjsr_2015UGEC057,3U9HAOOB
PUTTA MYSURA REDDY,2015UGEC033,2015UGEC033@nitjsr.ac.in,nitjsr_2015UGEC033,1A2QERGL
PAPPALA CHANDRA MOULI,2015UGEC037,2015UGEC037@nitjsr.ac.in,nitjsr_2015UGEC037,5PMV8V9J
NILIMA KUMARI,2015UGEC053,2015UGEC053@nitjsr.ac.in,nitjsr_2015UGEC053,FPY50WSW
HARSH KUMAR TULSAYAN ,2015UGEC088,2015UGEC088@nitjsr.ac.in,nitjsr_2015UGEC088,MX86DPPW
ADITYA SANKET,2015UGEC066,2015UGEC066@nitjsr.ac.in,nitjsr_2015UGEC066,NLH1Y4RZ
SHUBHAM PRAKASH,2015UGEC028,2015UGEC028@nitjsr.ac.in,nitjsr_2015UGEC028,4DC4JCWV
Prabhala NagaVenkata ShivaKrishna,2015UGEC055,2015UGEC055@nitjsr.ac.in,nitjsr_2015UGEC055,GU16IVKN
JUSTIN ALEX,2015UGEC083,2015UGEC083@nitjsr.ac.in,nitjsr_2015UGEC083,ABSJNWX5
MOHIT KUMAR,2015UGEC027,2015UGEC027@nitjsr.ac.in,nitjsr_2015UGEC027,3SMJVSXM
NIMISHA MISHRA,2015UGEC064,2015UGEC064@nitjsr.ac.in,nitjsr_2015UGEC064,42FPVVP9
BODDU VISWA RAMA HARISH,2015UGEC015,2015UGEC015@nitjsr.ac.in,nitjsr_2015UGEC015,TK9WUVV4
NITESH KUMAR SHAW,2015UGEC021,2015UGEC021@nitjsr.ac.in,nitjsr_2015UGEC021,WPZ1OVA3
SAURABH KUMAR BHARTI,2015UGEC068,2015UGEC068@nitjsr.ac.in,nitjsr_2015UGEC068,EWU7QX4Y
RAVI NITESH,2015UGEC054,2015UGEC054@nitjsr.ac.in,nitjsr_2015UGEC054,ND036VZG
SHALINI SRIVASTAVA,2015UGEC022,2015UGEC022@nitjsr.ac.in,nitjsr_2015UGEC022,SJPH4KQG
PRATIK SINHA,2015UGEC035,2015UGEC035@nitjsr.ac.in,nitjsr_2015UGEC035,WF7FA3PD
RACHAPUDI JYOTSNA,2015UGEC071,2015UGEC071@nitjsr.ac.in,nitjsr_2015UGEC071,KZ3IAL3I
RAHUL NAG,2015UGEC060,2015UGEC060@nitjsr.ac.in,nitjsr_2015UGEC060,U5JC66UO
KOGARA NAVEEN KUMAR,2015UGEC045,2015UGEC045@nitjsr.ac.in,nitjsr_2015UGEC045,RGMONH5F
SUBAL CHATTERJEE,2015UGEC082,2015UGEC082@nitjsr.ac.in,nitjsr_2015UGEC082,F4LTDLZQ
G PAVAN ABHISHEK,2015UGEC087,2015UGEC087@nitjsr.ac.in,nitjsr_2015UGEC087,0OM5BWF9
RISHAV RAJ,2015UGEC006,2015UGEC006@nitjsr.ac.in,nitjsr_2015UGEC006,UWAZX4RO
SUCHISMITA PRADHAN,2015UGEC019,2015UGEC019@nitjsr.ac.in,nitjsr_2015UGEC019,8NIQG3MQ
SAKET KUMAR,2015UGEC020,2015UGEC020@nitjsr.ac.in,nitjsr_2015UGEC020,5ALYPNZI
MARADANA VENKATA HARI CHANDANA,2015UGEC052,2015UGEC052@nitjsr.ac.in,nitjsr_2015UGEC052,6CKCIK8E
ABHISHEK KUMAR JHA,2015UGEC049,2015UGEC049@nitjsr.ac.in,nitjsr_2015UGEC049,HX4HMKFN
RITU RAJ,2015UGEC018,2015UGEC018@nitjsr.ac.in,nitjsr_2015UGEC018,E9WLG5IL
SHUBHAM KUMAR,2015UGEC038,2015UGEC038@nitjsr.ac.in,nitjsr_2015UGEC038,1WZQU39V
CHINTAPALLI HEMA DURGA,2015UGEC041,2015UGEC041@nitjsr.ac.in,nitjsr_2015UGEC041,FZTXF7QX
NIDHI KUMARI,2015UGEC051,2015UGEC051@nitjsr.ac.in,nitjsr_2015UGEC051,IF6VJ9CT
SUMIT SAURAV,2015UGEC034,2015UGEC034@nitjsr.ac.in,nitjsr_2015UGEC034,WEM1LR2G
ATUL KUMAR,2015UGEC017,2015UGEC017@nitjsr.ac.in,nitjsr_2015UGEC017,PF2AT4W0
SURAJ DAS K,2015UGEC050,2015UGEC050@nitjsr.ac.in,nitjsr_2015UGEC050,HK8K3JJV
ADARSH VASHISTHA,2015UGEC024,2015UGEC024@nitjsr.ac.in,nitjsr_2015UGEC024,AB01C4PH
ROHIT MISHRA,2015UGEC056,2015UGEC056@nitjsr.ac.in,nitjsr_2015UGEC056,KAN4I2W2
ABHISHEK KUMAR,2015UGEC086,2015UGEC086@nitjsr.ac.in,nitjsr_2015UGEC086,56Z5VUHZ
ATUL SAGAR,2015UGEC004,2015UGEC004@nitjsr.ac.in,nitjsr_2015UGEC004,M9GULHM8
KAMISETTY MANASA LAKSHMI,2015UGEC092,2015UGEC092@nitjsr.ac.in,nitjsr_2015UGEC092,LXOGA5K6
KUMAR SHUBHAM,2015UGEC039,2015UGEC039@nitjsr.ac.in,nitjsr_2015UGEC039,Q8YS7V4K
EADA TABITHA,2015UGEC091,2015UGEC091@nitjsr.ac.in,nitjsr_2015UGEC091,SXNFSXRA
G MOHAN KRISHNA,2015UGEC059,2015UGEC059@nitjsr.ac.in,nitjsr_2015UGEC059,1I2TFHR7
BATTULA NAGA SATYA SAMAJA,2015UGEC074,2015UGEC074@nitjsr.ac.in,nitjsr_2015UGEC074,V4859ACU
V SRI HARSHA,2015UGEC076,"2015UGEC076@nitjsr.ac.in
",nitjsr_2015UGEC076,FWL9WKMF
SWATI PRIYA,2015UGEC025,2015UGEC025@nitjsr.ac.in,nitjsr_2015UGEC025,L3KNOXD0
SHUBHAM KUMAR,2015UGEC061,2015UGEC061@nitjsr.ac.in,nitjsr_2015UGEC061,EGWG7N9I
MANISH KUMAR,2015UGEC026,2015UGEC026@nitjsr.ac.in,nitjsr_2015UGEC026,S1982FGM
MONU KUMAR,2015UGEC029,2015UGEC029@nitjsr.ac.in,nitjsr_2015UGEC029,M5Q47M2H
KARTHIK TADEM,2015UGEC009,2015UGEC009@nitjsr.ac.in,nitjsr_2015UGEC009,ZQCCK2BM
VIKESH KUNAL PRAJAPATI,2015UGEC047,2015UGEC047@nitjsr.ac.in,nitjsr_2015UGEC047,UGNP10QE
RAJAN,2015UGEC081,2015UGEC081@nitjsr.ac.in,nitjsr_2015UGEC081,GQ7V708Z
GANDHE ARUNSAI,2015UGEC003,2015UGEC003@nitjsr.ac.in,nitjsr_2015UGEC003,N0VZ4CPT
SAGAR KUMAR,2015UGEC030,2015UGEC030@nitjsr.ac.in,nitjsr_2015UGEC030,TJCR6DOL
RISHIKESH RAJ,2015UGEC069,2015UGEC069@nitjsr.ac.in,nitjsr_2015UGEC069,FQ6DWP7Q
SATYAM RAJ,2015UGEC007,2015UGEC007@nitjsr.ac.in,nitjsr_2015UGEC007,6PGLX67Z
DEEPAK KUMAR PANDEY,2015UGEC042,2015UGEC042@nitjsr.ac.in,nitjsr_2015UGEC042,QI8444IJ
BABIN MONDAL,2015UGEC078,2015UGEC078@nitjsr.ac.in,nitjsr_2015UGEC078,7DKM78BA
A SIVA SAI ASHISH,2015UGEC014,2015UGEC014@nitjsr.ac.in,nitjsr_2015UGEC014,8RX7LV1G
BHUVANA CHANDRIKA KESIREDDY,2015UGEC046,2015UGEC046@nitjsr.ac.in,nitjsr_2015UGEC046,DFG35FA8
PREM KUNAR,2015UGEC040,2015UGEC040@nitjsr.ac.in,nitjsr_2015UGEC040,NK922NPX
SUMAN SAURAV,2015UGEC001,2015UGEC001@nitjsr.ac.in,nitjsr_2015UGEC001,5J5PYL6B
ADURI KRISHNA VAMSI,2015UGEC090,2015UGEC090@nitjsr.ac.in,nitjsr_2015UGEC090,NCWBZOUS
BOBBY KUMAR,2015UGEC016,2015UGEC016@nitjsr.ac.in,nitjsr_2015UGEC016,D1QCPIHB
PANKAJ KUMAR TUDU,2015UGEC031,2015UGEC031@nitjsr.ac.in,nitjsr_2015UGEC031,C8BS1BUE
SEREDDY VENKATA SAI GOWTHAM REDDY,2015UGEC073,2015UGEC073@nitjsr.ac.in,nitjsr_2015UGEC073,566YALBH
KRISHNA KAMAL,2015UGEC002,2015UGEC002@nitjsr.ac.in,nitjsr_2015UGEC002,4WH3L5CI
PADALA JAGADEESH SATYA CHANDRA REDDY,2015UGEC005,2015UGEC005@nitjsr.ac.in,nitjsr_2015UGEC005,5Y2DPNNN
VANKUDOTHU VIJAY,2015UGEC043,2015UGEC043@nitjsr.ac.in,nitjsr_2015UGEC043,UJZH2TS8
GUGULOTHU ANIL,2015UGEC077,2015UGEC077@nitjsr.ac.in,nitjsr_2015UGEC077,8O1V5R48
Sravan Kumar S,2015UGEC084,2015UGEC084@nitjsr.ac.in,nitjsr_2015UGEC084,4U1YM0PE
MADDULURI SAI VENKATESH PRASAD,2015UGEC072,2015UGEC072@nitjsr.ac.in,nitjsr_2015UGEC072,8PD8964P
MANISH PRABHAKAR,2015UGEC013,2015UGEC013@nitjsr.ac.in,nitjsr_2015UGEC013,PP9Y2KS3
BABLI KUMARI,2015UGCS021,2015ugcse001@nitjsr.ac.in,nitjsr_2015UGCS021,PHMMO8R5
Aishwarya Pillai,2015UGCS089,2015ugcse089@nitjsr.ac.in,nitjsr_2015UGCS089,T3AGH4JV
ALOK GAURAV,2015UGCS012,2015ugcse012@nitjsr.ac.in,nitjsr_2015UGCS012,AJGCAM25
Rishabh Agrawal,2015UGCS059,2015ugcse059@nitjsr.ac.in,nitjsr_2015UGCS059,T69PAYGF
Shubham Kumar,2015UGCS015,2015ugcse015@nitjsr.ac.in,nitjsr_2015UGCS015,D5770EUJ
OMKAR MISHRA ,2015UGCS014 ,2015ugcse014@nitjsr.ac.in,nitjsr_2015UGCS014 ,TIPSEHZ2
Prachi Gupta ,2015UGCS063 ,2015ugcse063@nitjsr.ac.in,nitjsr_2015UGCS063 ,9GP93Y30
Akash gupta,2015UGCS022,2015ugcse022@nitjsr.ac.in,nitjsr_2015UGCS022,Z2K0QLUU
VINEETH REDDY,2015UGCS062,2015ugcse062@nitjsr.ac.in,nitjsr_2015UGCS062,B5IWQ6DX
MAMTA PINGUA,2015UGCS065,2015ugcse065@nitjsr.ac.in,nitjsr_2015UGCS065,BGYVX4O6
KRISHNA CHAITANYA ,2015UGCS020 ,2015ugcse020@nitjsr.ac.in,nitjsr_2015UGCS020 ,S2WZF1IA
VANKADOTH PHANINDRA,2015UGCS077,2015ugcse077@nitjsr.ac.in,nitjsr_2015UGCS077,GQHHWVCX
G A N SHIV PAVAN RAJ ,2015UGCS054,2015ugcse054@nitjsr.ac.in,nitjsr_2015UGCS054,WETFZ7YO
ROSHAN KUMAR,2015UGCS009,2015ugcse009@nitjsr.ac.in,nitjsr_2015UGCS009,RX83OSRN
Vinit Kumar,2015UGCS053,2015ugcse053@nitjsr.ac.in,nitjsr_2015UGCS053,9AJPKWCY
Aditya Nihal Kumar Singh,2015UGCS061,2015ugcse061@nitjsr.ac.in,nitjsr_2015UGCS061,MFAP07IS
Rohit kumar,2015UGCS035,2015ugcse035@nitjsr.ac.in,nitjsr_2015UGCS035,UVJ0Q0JH
V.J.S PRANEETH KUMAR,2015UGCS083,2015ugcse083@nitjsr.ac.in,nitjsr_2015UGCS083,ZJJHW6C4
Prabhat Kumar,2015UGCS092,2015ugcse092@nitjsr.ac.in,nitjsr_2015UGCS092,QP22D1FV
Abhaya Nand,2015UGPI008,2015UGPI008@nitjsr.ac.in,nitjsr_2015UGPI008,KPY2H0TI
ABHISHEK KUMAR,2015UGPI036,2015UGPI036@nitjsr.ac.in,nitjsr_2015UGPI036,JAP1N0UF
Aditi Kandulna,2015UGPI011,2015UGPI011@nitjsr.ac.in,nitjsr_2015UGPI011,KJVPOWIZ
ANINDITA PAL,2015UGPI002,2015UGPI002@nitjsr.ac.in,nitjsr_2015UGPI002,8MWBULWE
Anmol Kumar Singh,2015UGPI007,2015UGPI007@nitjsr.ac.in,nitjsr_2015UGPI007,O9CU83XG
Anurag Priyadarshi ,2015UGPI021,2015UGPI021@nitjsr.ac.in,nitjsr_2015UGPI021,7YBXY8ZZ
Bharti kumari,2015UGPI031,2015UGPI031@nitjsr.ac.in,nitjsr_2015UGPI031,YBTCXLXR
Harish Shanmugam,2015UGPI022,2015UGPI022@nitjsr.ac.in,nitjsr_2015UGPI022,FTKI246F
KOMAL KUMARI,2015UGPI020,2015UGPI020@nitjsr.ac.in,nitjsr_2015UGPI020,KA6FYC7K
LEERA SHASANK,2015UGPI019,2015UGPI019@nitjsr.ac.in,nitjsr_2015UGPI019,30OVJSY6
Navin Nishant,2015UGPI037,2015UGPI037@nitjsr.ac.in,nitjsr_2015UGPI037,6V700B6N
Nidhi Chirania,2015UGPI041,2015UGPI041@nitjsr.ac.in,nitjsr_2015UGPI041,NQHFTQQ8
NIKHIL KUMAR,2015UGPI042,2015UGPI042@nitjsr.ac.in,nitjsr_2015UGPI042,3IUKGC0H
Nishant kumar,2015UGPI014,2015UGPI014@nitjsr.ac.in,nitjsr_2015UGPI014,IE3ZHI4Z
PRASOON KUMAR PARIHAR,2015UGPI030,2015UGPI030@nitjsr.ac.in,nitjsr_2015UGPI030,4QZ3E785
PUSHPESH RANJAN PUSHP,2015UGPI015,2015UGPI015@nitjsr.ac.in,nitjsr_2015UGPI015,7ZF17V7W
RAVI KANT KUMAR,2015UGPI005,2015UGPI005@nitjsr.ac.in,nitjsr_2015UGPI005,ZQ50T1PY
SHUBHAM KUMAR CHOUBEY,2015UGPI025,2015UGPI025@nitjsr.ac.in,nitjsr_2015UGPI025,N9GECCJZ
Sonali Krishnamurti ramteke,2015UGPI012,2015UGPI012@nitjsr.ac.in,nitjsr_2015UGPI012,Y946CKVB
SUMIT KUMAR,2015UGPI006,2015UGPI006@nitjsr.ac.in,nitjsr_2015UGPI006,BVJUU4H5
VINIT VAIBHAV,2015UGPI010,2015UGPI010@nitjsr.ac.in,nitjsr_2015UGPI010,EGJZU2XT
VIVEK KUMAR SHARMA,2015UGPI004,2015UGPI004@nitjsr.ac.in,nitjsr_2015UGPI004,3JXZOFQZ
Ariz Masood,2015UGPI034,2015UGPI034@nitjsr.ac.in,nitjsr_2015UGPI034,K8HB8OHL
Nishant Ranjan,2015UGPI028,2015UGPI028@nitjsr.ac.in,nitjsr_2015UGPI028,MBERUJ07
Abhishek kumar,2015UGPI040,2015UGPI040@nitjsr.ac.in,nitjsr_2015UGPI040,KFUCW9Y0
Ravikant Pandey,2015UGPI029,2015UGPI029@nitjsr.ac.in,nitjsr_2015UGPI029,LDSJ0BXA
Shivam,2015UGPI023,2015UGPI023@nitjsr.ac.in,nitjsr_2015UGPI023,W7AX6D4C
Akhilesh Kumar,2015UGPI039,2015UGPI039@nitjsr.ac.in,nitjsr_2015UGPI039,PQJ7EBRB
TEJA VENKATA SAI CHITTIBOMMA,2015UGPI017,2015UGPI017@nitjsr.ac.in,nitjsr_2015UGPI017,4RMNK6AA
Amit Kumar,2015UGPI032,2015UGPI032@nitjsr.ac.in,nitjsr_2015UGPI032,IWUY3IEJ
Prachi Jayaswal,2015UGMM008,2015ugmm008@nitjsr.ac.in,nitjsr_2015UGMM008,JSAI5EXZ
Shubham Kumar ,2015UGMM007,2015ugmm007@nitjsr.ac.in,nitjsr_2015UGMM007,XOZ8I8GB
Indrani Dey,2015UGMM076,2015ugmm076@nitjsr.ac.in,nitjsr_2015UGMM076,S7FWUXPN
Ishani Sarkar,2015UGMM020,2015ugmm020@nitjsr.ac.in,nitjsr_2015UGMM020,CPTKEXXT
Sumit Kumar,2015UGMM068,2015ugmm068@nitjsr.ac.in,nitjsr_2015UGMM068,PEHI7KCP
Rahul Raj,2015UGMM065,2015ugmm065@nitjsr.ac.in,nitjsr_2015UGMM065,ZL72Y63C
NILESH KUMAR,2015UGMM079,2015ugmm079@nitjsr.ac.in,nitjsr_2015UGMM079,RM86MT9C
KASIREDDI PAVAN KALYAN,2015UGMM031,2015ugmm031@nitjsr.ac.in,nitjsr_2015UGMM031,2F6YPO1B
Rashi,2015UGMM049,2015ugmm049@nitjsr.ac.in,nitjsr_2015UGMM049,ZHT1XV1L
ANKIT SHARAN,2015UGMM060,2015ugmm060@nitjsr.ac.in,nitjsr_2015UGMM060,HIL32XX9
Akanksha Goyal,2015UGMM088,2015ugmm088@nitjsr.ac.in,nitjsr_2015UGMM088,R1YPA47P
Manoj kumar saw,2015UGMM019,2015ugmm019@nitjsr.ac.in,nitjsr_2015UGMM019,CR56FUKZ
SUSHIL KUMAR MAHATO,2015UGMM013,2015ugmm013@nitjsr.ac.in,nitjsr_2015UGMM013,TBXAEH0J
DIVYARAJCHANDRAVANSHI,2015UGMM011,2015ugmm011@nitjsr.ac.in,nitjsr_2015UGMM011,BT8O5XI0
Raman Raj,2015UGMM028,2015ugmm028@nitjsr.ac.in,nitjsr_2015UGMM028,62HZQAFC
OM PRAKASH SHARMA,2015UGMM036,2015ugmm036@nitjsr.ac.in,nitjsr_2015UGMM036,4ALDRWGF
Nili Kumari,2015UGMM044,2015ugmm044@nitjsr.ac.in,nitjsr_2015UGMM044,WQSDMW9K
Sourav Kumar Agarwal ,2015UGMM081,2015ugmm081@nitjsr.ac.in,nitjsr_2015UGMM081,FL4X9JPR
Anuj,2015ugmm046,2015ugmm046@nitjsr.ac.in,nitjsr_2015ugmm046,48UBPU42
UJJWAL,2015UGMM030,2015ugmm030@nitjsr.ac.in,nitjsr_2015UGMM030,XM5H7YJF
Mudit Tayal,2015UGMM037,2015ugmm037@nitjsr.ac.in,nitjsr_2015UGMM037,Z42V773F
Pratyush Prakash,2015UGMM027,2015ugmm027@nitjsr.ac.in,nitjsr_2015UGMM027,G162O37G
UMANG,2015UGMM048,2015ugmm048@nitjsr.ac.in,nitjsr_2015UGMM048,FB3CG49U
Vadaga mahesh,2015UGMM047,2015ugmm047@nitjsr.ac.in,nitjsr_2015UGMM047,HEOB62A0
ASHISH KUMAR SINGH ,2015UGMM014,2015ugmm014@nitjsr.ac.in,nitjsr_2015UGMM014,QF20T9KC
Yellapragada Abhinav,2015UGMM002,2015ugmm002@nitjsr.ac.in,nitjsr_2015UGMM002,VCJJCU6M
Shubham Baranwal,2015UGMM041,2015ugmm041@nitjsr.ac.in,nitjsr_2015UGMM041,9D2Y3U91
Mohammed Irfan Khan,2015UGMM064,2015ugmm064@nitjsr.ac.in,nitjsr_2015UGMM064,DIS15Q4U
Rajat Kumar Sinha,2015UGMM039,2015ugmm039@nitjsr.ac.in,nitjsr_2015UGMM039,61R7LXJE
SWARNIMA RANJAN,2015UGMM029,2015ugmm029@nitjsr.ac.in,nitjsr_2015UGMM029,EPVHFXV0
Shubham Thakur,2015UGMM084,2015ugmm084@nitjsr.ac.in,nitjsr_2015UGMM084,YB98A9F0
Madhuker Kishan,2015UGMM043,2015ugmm043@nitjsr.ac.in,nitjsr_2015UGMM043,O7HSG53V
DEEPAK KUMAR BEHRA,2015UGMM010,2015ugmm010@nitjsr.ac.in,nitjsr_2015UGMM010,CG70BO9Q
MUKESH KUMAR GUPTA,2015UGMM038,2015ugmm038@nitjsr.ac.in,nitjsr_2015UGMM038,RX40FY2Y
Chandni Keshri,2015UGMM062,2015ugmm062@nitjsr.ac.in,nitjsr_2015UGMM062,6MUS44JN
ASHWINI KUMAR GUNJAN,2015UGMM050,2015ugmm050@nitjsr.ac.in,nitjsr_2015UGMM050,EDK15ZAY
TANVEER HASSAN,2015UGMM053,2015ugmm053@nitjsr.ac.in,nitjsr_2015UGMM053,KPD6JI2Y
Ruthvik Kilaru,2015UGMM085,2015ugmm085@nitjsr.ac.in,nitjsr_2015UGMM085,Z2U9GNP9
Anshul Laddha,2015UGMM021,2015ugmm021@nitjsr.ac.in,nitjsr_2015UGMM021,0QXWS79Q
Abhishek Kumar,2015UGMM082,2015ugmm082@nitjsr.ac.in,nitjsr_2015UGMM082,Q4IX9LOB
Subodh Kumar Bhadani,2015UGMM075,2015ugmm075@nitjsr.ac.in,nitjsr_2015UGMM075,TBA1C87G
Himaja padala,2015UGMM072,2015ugmm072@nitjsr.ac.in,nitjsr_2015UGMM072,7WXX27ZG
Ekansh Gupta,2015UGMM089,2015ugmm089@nitjsr.ac.in,nitjsr_2015UGMM089,AE4JVVNP
Abhinandan kumar,2015UGMM063,2015ugmm063@nitjsr.ac.in,nitjsr_2015UGMM063,I1I3TMVA
Amar Kumar,2015UGMM055,2015ugmm055@nitjsr.ac.in,nitjsr_2015UGMM055,Y6Y82X4P
Bicky Kumar Singh,2015UGMM035,2015ugmm035@nitjsr.ac.in,nitjsr_2015UGMM035,JKOGSGLW
Chitranjan Kumar,2015UGMM056,2015ugmm056@nitjsr.ac.in,nitjsr_2015UGMM056,A02HSYQ3
Lakhan Prasad Rajak,2015UGMM001,2015ugmm001@nitjsr.ac.in,nitjsr_2015UGMM001,O42U5BUE
Geddam yaswanth kumar,2015UGMM045,2015ugmm045@nitjsr.ac.in,nitjsr_2015UGMM045,JBKEXB4X
Venkatesh Tumpuru ,2015UGMM040,2015ugmm040@nitjsr.ac.in,nitjsr_2015UGMM040,W2OCO37S
SANJAY SOREN,2015UGMM067,2015ugmm067@nitjsr.ac.in,nitjsr_2015UGMM067,Q58CK79O
Shekhar Kumar,2015UGMM042,2015ugmm042@nitjsr.ac.in,nitjsr_2015UGMM042,GF8UJXNR
Boda Hari Chandra Prasad,2015UGMM054,2015ugmm054@nitjsr.ac.in,nitjsr_2015UGMM054,Y7SM75PJ
Durgesh Singh Tanwar,2015UGMM080,2015ugmm080@nitjsr.ac.in,nitjsr_2015UGMM080,S7APFJ6U
Rambhatla Raja Rajeswari Aparna ,2015UGMM069,2015ugmm069@nitjsr.ac.in,nitjsr_2015UGMM069,MJ5GHRUF
Subhash Kumar,2015UGMM073,2015ugmm073@nitjsr.ac.in,nitjsr_2015UGMM073,A7M78G99
Santosh kumar das,2015UGMM032,2015ugmm032@nitjsr.ac.in,nitjsr_2015UGMM032,AW81HSHC
Himanshu Kumar,2015UGMM033,2015ugmm033@nitjsr.ac.in,nitjsr_2015UGMM033,IMBNNZH1
Ranjeet kumar das ,2015UGMM012,2015ugmm012@nitjsr.ac.in,nitjsr_2015UGMM012,TZDX9ABY
Rishabh Kumar,2015UGMM061,2015ugmm061@nitjsr.ac.in,nitjsr_2015UGMM061,8JTCUE5O
Liren Sharma,2015UGMM051,2015ugmm051@nitjsr.ac.in,nitjsr_2015UGMM051,LH12HQSC
VIKASH KUMAR ,2015UGMM009 ,2015ugmm009@nitjsr.ac.in,nitjsr_2015UGMM009 ,C6GP4HTM
K S K PREM CHANDU,2015UGMM058,2015ugmm0558@nitjsr.ac.in,nitjsr_2015UGMM058,JX9QBTQT
Pratham Kumar,2015UGMM066,2015ugmm066@nitjsr.ac.in,nitjsr_2015UGMM066,759WX9YH
ARUN KUMAR,2015UGMM090,2015ugmm090@nitjsr.ac.in,nitjsr_2015UGMM090,41P0A07T
GIRI LIYANGI,2015UGMM078,2015ugmm078@nitjsr.ac.in,nitjsr_2015UGMM078,L1WI012M
Lakhindar Singh Munda,2015UGMM070,2015ugmm070@nitjsr.ac.in,nitjsr_2015UGMM070,ELQH9QQQ
Savita Nandan Kumar,2015UGMM025,2015ugmm025@nitjsr.ac.in,nitjsr_2015UGMM025,TMPVG5N9
Rajiv Ranjan,2015UGMM024,2015ugmm024@nitjsr.ac.in,nitjsr_2015UGMM024,ALO42M2F
Namrata,2015UGEE044,2015ugee044@nitjsr.ac.in,nitjsr_2015UGEE044,JNB1O706
Siney,2015UGEE047,2015ugee047@nitjsr.ac.in,nitjsr_2015UGEE047,DKES92CM
Neelam kumari,2015UGEE038,2015ugee038@nitjsr.ac.in,nitjsr_2015UGEE038,N1J5IEWF
SUNNY SHEKHAR RATHORE,2015UGEE025,2015ugee025@nitjsr.ac.in,nitjsr_2015UGEE025,JFXBZLW3
Supriya Pattanaik,2015UGEE051,2015ugee051@nitjsr.ac.in,nitjsr_2015UGEE051,F6PQNJN7
Abhijeet Kumar,2015UGEE001,2015ugee001@nitjsr.ac.in,nitjsr_2015UGEE001,LKNXLQOS
Simran,2015UGEE045,2015ugee045@nitjsr.ac.in,nitjsr_2015UGEE045,33YQSOAA
Saumya Pandey ,2015UGEE005,2015ugee005@nitjsr.ac.in,nitjsr_2015UGEE005,DQW5HJ0G
Shruti Dubey,2015UGEE053,2015ugee053@nitjsr.ac.in,nitjsr_2015UGEE053,CY5W77P7
Abhishek Dutta,2015UGEE028,2015ugee0028@nitjsr.ac.in,nitjsr_2015UGEE028,CSF4S5I5
Rinkle Kumari,2015UGEE031,2015ugee031@nitjsr.ac.in,nitjsr_2015UGEE031,3JG4UN7U
ADARSH RAJ RAJAK,2015UGEE046,2015ugee046@nitjsr.ac.in,nitjsr_2015UGEE046,N85JX95S
PRIYANKA MONI,2015UGEE003,2015ugee003@nitjsr.ac.in,nitjsr_2015UGEE003,G1OB0R24
Rajesh Kumar,2015UGEE033,2015ugee033@nitjsr.ac.in,nitjsr_2015UGEE033,9JPFR5XH
Anuj Kumar,2015UGEE058 ,2015ugee058@nitjsr.ac.in,nitjsr_2015UGEE058 ,3DKB7ZZV
RITESH TIWARI,2015UGEE083,2015ugee083@nitjsr.ac.in,nitjsr_2015UGEE083,OBBV7KN6
Pragya Rani,2015UGEE040,2015ugee040@nitjsr.ac.in,nitjsr_2015UGEE040,Z2ETJCD6
Rohit kumar,2015UGEE019,2015ugee019@nitjsr.ac.in,nitjsr_2015UGEE019,SK0BNUMY
Chandan Bharti,2015UGEE014,2015ugee014@nitjsr.ac.in,nitjsr_2015UGEE014,4DOBA8QR
SANJAY KUMAR SAW,2015UGEE062,2015ugee062@nitjsr.ac.in,nitjsr_2015UGEE062,NQYTETZN
KUNAL KUMAR,2015UGEE060,2015ugee060@nitjsr.ac.in,nitjsr_2015UGEE060,K2KCISQW
Malvika,2015UGEE024,2015ugee024@nitjsr.ac.in,nitjsr_2015UGEE024,QQHAI291
Shubham Kumar Gupta,2015UGEE061,2015ugee061@nitjsr.ac.in,nitjsr_2015UGEE061,SS9UOLH9
Avinash Nayak,2015UGEE022,2015ugee022@nitjsr.ac.in,nitjsr_2015UGEE022,V3AVS1YO
Pranav Tiwary,2015UGEE092,2015ugee092@nitjsr.ac.in,nitjsr_2015UGEE092,AGJ6B9NY
SYANKI KUMAR BURNWAL,2015UGEE050,2015ugee050@nitjsr.ac.in,nitjsr_2015UGEE050,AYW6BATD
Shubhangi Choudhary,2015UGEE034,2015ugee034@nitjsr.ac.in,nitjsr_2015UGEE034,A5XJDLG2
Shashi Prakash,2015UGEE089,2015ugee089@nitjsr.ac.in,nitjsr_2015UGEE089,OQ34K39E
SNIGDHA SHIT,2015UGEE029,2015ugee029@nitjsr.ac.in,nitjsr_2015UGEE029,C8TMNDQR
Swati Kumari,2015UGEE057,2015ugee057@nitjsr.ac.in,nitjsr_2015UGEE057,6DU4X91O
Rohit Kumar ,2015UGEE079,2015ugee079@nitjsr.ac.in,nitjsr_2015UGEE079,U4VN1ATW
Aniruddha Ghosh,2015UGEE068,2015ugee068@nitjsr.ac.in,nitjsr_2015UGEE068,7TQP06WD
SAURABH KUMAR SINGH,2015UGEE016,2015ugee016@nitjsr.ac.in,nitjsr_2015UGEE016,PVIQAPXV
Monica prasad,2015UGEE085,2015ugee085@nitjsr.ac.in,nitjsr_2015UGEE085,716ZX6W9
RAVINDRA KUMAR,2015UGEE027,2015ugee027@nitjsr.ac.in,nitjsr_2015UGEE027,6WE0620O
ABHISHEK KUMAR,2015UGEE015,2015ugee015@nitjsr.ac.in,nitjsr_2015UGEE015,3T8JDORQ
RAPAKA NILESH KUMAR ,2015UGEE026,2015ugee026@nitjsr.ac.in,nitjsr_2015UGEE026,E1H7OUX8
ANKIT KUMAR SHARMA,2015UGEE035,2015ugee035@nitjsr.ac.in,nitjsr_2015UGEE035,MJ92784I
Rajat Kumar Gupta,2015UGEE006,2015ugee006@nitjsr.ac.in,nitjsr_2015UGEE006,WYMSIH7I
ROHIT KUMAR RAJWAR,2015UGEE008,2015ugee008@nitjsr.ac.in,nitjsr_2015UGEE008,9YZ4Q2OB
Aseef Raza,2015UGEE073,2015ugee073@nitjsr.ac.in,nitjsr_2015UGEE073,8M4F1DO2
Ayush Sharma,2015UGEE084,2015ugee084@nitjsr.ac.in,nitjsr_2015UGEE084,2WZWE2EN
Nupur Priya,2015UGEE010,2015ugee010@nitjsr.ac.in,nitjsr_2015UGEE010,EBZAYTFF
Saumya Kumari,2015UGEE049,2015ugee049@nitjsr.ac.in,nitjsr_2015UGEE049,J1KFV9VD
Chandan kumar,2015UGEE088,2015ugee088@nitjsr.ac.in,nitjsr_2015UGEE088,PL2TC66R
AMIT RANJAN KACHHAP,2015UGEE018,2015ugee018@nitjsr.ac.in,nitjsr_2015UGEE018,DOSFOFSP
P Sagar Reddy,2015UGEE012,2015ugee012@nitjsr.ac.in,nitjsr_2015UGEE012,TDFCY80L
Sourabh Kumar,2015UGEE017,2015ugee017@nitjsr.ac.in,nitjsr_2015UGEE017,EVB7HAAA
Ankit Kumar,2015UGEE023,2015ugee023@nitjsr.ac.in,nitjsr_2015UGEE023,XMIX4VTJ
Abhishek Kumar Pandey,2015UGEE039,2015ugee039@nitjsr.ac.in,nitjsr_2015UGEE039,EE4QMNLV
Suyash Srivastava,2015UGEE037,2015ugee037@nitjsr.ac.in,nitjsr_2015UGEE037,5H0VHEAY
Maddukuri Revanth ,2015UGEE064,2015ugee064@nitjsr.ac.in,nitjsr_2015UGEE064,GZR4PB4Z
VIKASH KUMAR,2015UGEE086,2015ugee086@nitjsr.ac.in,nitjsr_2015UGEE086,Q53APYHV
Gopal Kumar,2015UGEE091,2015ugee091@nitjsr.ac.in,nitjsr_2015UGEE091,GC2OELCE
AMPOLU SIVA RAMA KRISHNA,2015UGEE067,2015ugee067@nitjsr.ac.in,nitjsr_2015UGEE067,WHIQKD31
Aditya Anand,2015UGEE007,2015ugee007@nitjsr.ac.in,nitjsr_2015UGEE007,PSEOAEYU
Motaheer Hassan,2015UGEE074,2015ugee074@nitjsr.ac.in,nitjsr_2015UGEE074,OV3RW5BC
NIKHIL KUMAR SHARMA,2015UGEE009,2015ugee009@nitjsr.ac.in,nitjsr_2015UGEE009,P56FTERV
SUNIL KUMAR,2015UGEE077,2015ugee077@nitjsr.ac.in,nitjsr_2015UGEE077,CGGPTW58
KETAN KANISTHA,2015UGEE030,2015ugee030@nitjsr.ac.in,nitjsr_2015UGEE030,VFLBN1QF
MUKUL ANAND,2015UGEE080,2015ugee080@nitjsr.ac.in,nitjsr_2015UGEE080,PBFPYRU5
PITAN PANJA,2015UGCE001,2015ugce001@nitjsr.ac.in,nitjsr_2015UGCE001,B35JHZDV
ADITYA,2015UGCE002,2015ugce002@nitjsr.ac.in,nitjsr_2015UGCE002,JB4NN6Q7
Rahul Modak,2015UGCE003,2015ugce003@nitjsr.ac.in,nitjsr_2015UGCE003,E2QXHFJH
AMIT KUMAR,2015UGCE004,2015ugce004@nitjsr.ac.in,nitjsr_2015UGCE004,D8V2BGR7
ANJALI THAKUR,2015UGCE005,2015ugce005@nitjsr.ac.in,nitjsr_2015UGCE005,OAN4XKSL
SYED AFROZ AZIM,2015UGCE007,2015ugce007@nitjsr.ac.in,nitjsr_2015UGCE007,9ZOHQFBI
VIKESH KUMAR SINGH,2015UGCE009,2015ugce009@nitjsr.ac.in,nitjsr_2015UGCE009,13DOI39X
Nawnita suman ,2015UGCE011 ,2015ugce011@nitjsr.ac.in,nitjsr_2015UGCE011 ,0ZPDRGE9
BANTY MODI,2015UGCE012,2015ugce012@nitjsr.ac.in,nitjsr_2015UGCE012,UBHQT2X1
AYUSH KUMAR AGNIHOTRI,2015UGCE014,2015ugce014@nitjsr.ac.in,nitjsr_2015UGCE014,Z3D0OMZR
SUMAN KUMAR ,2015UGCE015,2015ugce015@nitjsr.ac.in,nitjsr_2015UGCE015,P33QKCAC
Murtaza Ronaq,2015UGCE016,2015ugce016@nitjsr.ac.in,nitjsr_2015UGCE016,KNXZ50E6
Vibhu Banamali Mishra,2015UGCE017,2015ugce017@nitjsr.ac.in,nitjsr_2015UGCE017,3YSJCPOO
Abhishek kashyap,2015UGCE019,2015ugce019@nitjsr.ac.in,nitjsr_2015UGCE019,2XJN16GJ
Nitin Kumar,2015UGCE021,2015ugce021@nitjsr.ac.in,nitjsr_2015UGCE021,13ESK870
Sarvam kumar Pandey ,2015UGCE022 ,2015ugce022@nitjsr.ac.in,nitjsr_2015UGCE022 ,7ITUB7NM
Mithilesh Kumar,2015UGCE023,2015ugce023@nitjsr.ac.in,nitjsr_2015UGCE023,0WU73UYP
RAKESH KUMAR MALL,2015UGCE027,2015ugce027@nitjsr.ac.in,nitjsr_2015UGCE027,RY7BS9MJ
Roshan Singh,2015UGCE033,2015ugce033@nitjsr.ac.in,nitjsr_2015UGCE033,S7550X02
Shubham Kumar,2015UGCE037,2015ugce037@nitjsr.ac.in,nitjsr_2015UGCE037,IY8N9NM0
Ayush Gaurav,2015UGCE038,2015ugce038@nitjsr.ac.in,nitjsr_2015UGCE038,DD4YIK2Z
Vishal Anand,2015UGCE039,2015ugce039@nitjsr.ac.in,nitjsr_2015UGCE039,2TXJMXQI
Sachin rathi ,2015UGCE040 ,2015ugce040@nitjsr.ac.in,nitjsr_2015UGCE040 ,DXG86SDH
Rahul kumar suman,2015UGCE041,2015ugce041@nitjsr.ac.in,nitjsr_2015UGCE041,W0ZV7478
Ravindra Sharma,2015UGCE043,2015ugce043@nitjsr.ac.in,nitjsr_2015UGCE043,5Y8RBABD
Rupav Tiwari,2015UGCE045,2015ugce045@nitjsr.ac.in,nitjsr_2015UGCE045,3F841W8O
KUMARDEEP MUKHOPADHYAY,2015UGCE046,2015ugce046@nitjsr.ac.in,nitjsr_2015UGCE046,ZI7SFBLU
Abhishek Kumar Mishra,2015UGCE055,2015ugce055@nitjsr.ac.in,nitjsr_2015UGCE055,GCSPRW1O
Rishav Kumar Mishra,2015UGCE056,2015ugce056@nitjsr.ac.in,nitjsr_2015UGCE056,GA852NLV
VIKAS SONKER,2015UGCE059,2015ugce059@nitjsr.ac.in,nitjsr_2015UGCE059,3KSFP1U3
AMIT KUMAR ,2015UGCE061,2015ugce061@nitjsr.ac.in,nitjsr_2015UGCE061,S811V9N4
Md. Kashif Hussain,2015UGCE064,2015ugce064@nitjsr.ac.in,nitjsr_2015UGCE064,RQYXZHRS
KANHAIYA LAL MEENA,2015UGCE065,2015ugce065@nitjsr.ac.in,nitjsr_2015UGCE065,QF1S8B6C
VIKAS KUMAR,2015UGCE066,2015ugce066@nitjsr.ac.in,nitjsr_2015UGCE066,ES6ZVTN4
Akash Kumar Singh,2015UGCE069,2015ugce069@nitjsr.ac.in,nitjsr_2015UGCE069,YYSE9SI4
ABHINOW SUMAN,2015UGCE071,2015ugce071@nitjsr.ac.in,nitjsr_2015UGCE071,DOSNIMYN
SANKALP SANJAY ,2015UGCE073,2015ugce073@nitjsr.ac.in,nitjsr_2015UGCE073,DIBCC11T
Drishti ,2015UGCE074 ,2015ugce074@nitjsr.ac.in,nitjsr_2015UGCE074 ,L5NGW799
Himanshu Chauhan,2015UGCE076,2015ugce076@nitjsr.ac.in,nitjsr_2015UGCE076,GNDQXKCN
U RANJITH KUMAR,2015UGCE079,2015ugce079@nitjsr.ac.in,nitjsr_2015UGCE079,ETVPMX5G
Rishabh Ratnam,2015UGCE080,2015ugce080@nitjsr.ac.in,nitjsr_2015UGCE080,6PCWGAXM
ANMOL JAIN,2015UGCE081,2015ugce081@nitjsr.ac.in,nitjsr_2015UGCE081,MUXH8GBF
Hrishabh Chandra,2015UGCE082,2015ugce082@nitjsr.ac.in,nitjsr_2015UGCE082,RI8G6ZRK
Pankaj kumar,2015UGCE084,2015ugce084@nitjsr.ac.in,nitjsr_2015UGCE084,O7EQLGYZ
ROHIT BHATI,2015UGCE085,2015ugce085@nitjsr.ac.in,nitjsr_2015UGCE085,9X7TGJQI
RANJEET KUMAR MODI,2015UGCE088,2015ugce088@nitjsr.ac.in,nitjsr_2015UGCE088,1MBT0YS2
