Student ID,Name,Email ID,Mobile No.,Username,Password
U15CH054,TALAVIYA OMKUMAR MUKESHBHAI,aumtalaviya307@gmail.com,9662909150,svnit_U15CH054,06D7UXBX
U15CH074,MUSTAFA ZAINUDDIN DORIWALA,dmustafa1997@gmail.com,9574729853,svnit_U15CH074,8OAXE1VY
U15CH089,DEEP MUKESHKUMAR AGRAWAL,deepagrawal888@gmail.com,8511669439,svnit_U15CH089,RFMPXKHN
U15CH079,Rathod Manan Vinod,mananr44@gmail.com,7405588835,svnit_U15CH079,78AOIGWL
U15CH070,ISHITA MAHESHWARI,ishita2908@gmail.com,7202850023,svnit_U15CH070,TD5IPEWZ
U15CH044,YASH VARDHANI,yashvardhani0816@gmail.com,9909915797,svnit_U15CH044,8ICV800B
U15CH057,BHUVNESH CHOUDHARY,bhuvneshchoudhary123@gmail.com,8764276934,svnit_U15CH057,UYIC8U6I
U15CH025,DENISH DEVCHANDBHAI KAKADIYA,kakadiya.denish.7@gmail.com,9824924603,svnit_U15CH025,XG13LM0U
U15CH071,NANDINI S MANIKPURE,nandini.manikpure@gmail.com,7202849957,svnit_U15CH071,HQZVVFS3
U15CH083,TAILOR DHRUV PARESHKUMAR,tailordhruv123@gmail.com,9925691409,svnit_U15CH083,TMNDQS55
U15CH101,AMIT AGRAWAL,amit.mathura126@gmail.com,8840054776,svnit_U15CH101,9JEXKUHY
U15CH027,KALPESH SONDARVA,sondarva.kalpesh23@gmail.com,9879010531,svnit_U15CH027,P6P9BX9S
U15CH037,KARANRAJSINHJI S RAJPUT,karan.dhamal617@gmail.com,7228877331,svnit_U15CH037,37AA64JZ
U15CH026,SHUBHAM JHUNJHUNWALA,shubh.04111995@gmail.com,8690006704,svnit_U15CH026,XI7D0QYY
U15CH031 ,PATEL JIGAR MAHESH,patel.jigu123456@gmail.com ,9638232582,svnit_U15CH031 ,SUXQ14KZ
U15CH066,PARAS DHAMU,dhamuparth@gmail.com,9106007499,svnit_U15CH066,4ZJC28T7
U15CH019,Gayatri Badhiye,sakub317@gmail.com,8980652426,svnit_U15CH019,CTV46RPZ
U15CH022,SHIVAM HEMANATBHAI BAROT,shivambarot59@gmail.com,9409390920,svnit_U15CH022,58OLIS2Q
U15CH077,RANA PANKAJ DEEPAKKUMAR,pankajrana9897@gmail.com,8155045076,svnit_U15CH077,9E0Q4ZF2
U15CH081,JINESH JOSHI,jineshjoshi777@gmail.com,7976306581,svnit_U15CH081,1K6B8AR8
U15CH049,KAILASH MAHENDRA,kailashmahendra7@gmail.com,7597449577,svnit_U15CH049,YHCBS35T
U15CH086,RAHUL KUMAWAT,rhulkumawat149@gmail,7790820340,svnit_U15CH086,004MHGO9
U15CH039,DEEP PATEL,deeppatel1997.dp@gmail.com,9265383245,svnit_U15CH039,CJCN6951
U15CO004,Khyati Kapadia,khyatikapadia21@gmail.com,6353696377,svnit_U15CO004,N52DA20Q
U15CO021,Aishwarya Agarwal,aish.agarwal04@gmail.com,7228851876,svnit_U15CO021,BRWZFPX9
U15CO092,Rinky Abraham,rinky.lia@gmail.com,7069338542,svnit_U15CO092,JOPNROVY
U15CO042,Parth Parmar,pppnd28@gmail.com,9638942237,svnit_U15CO042,7YTXBJ6Z
U15CO035,Bhavin Chudasama,chudasamabhavin402@gmail.com,9714421220,svnit_U15CO035,P70QKS79
U15CO056,Komal Kolte,komalkolte005@gmail.com,8511107550,svnit_U15CO056,ZVXHKBHS
U15CO031,Karthik Kini,karthikkini1234@gmail.com,9987446469,svnit_U15CO031,9LFXLH1F
U15CO078,Karishma Wadhwaney,kwad97@gmail.com,8347015029,svnit_U15CO078,89CALJ1T
U15CO072,Pushkar Kumar,pushkar.2707@gmail.com,8107818158,svnit_U15CO072,RFAORRVY
U15CO082,Jayesh Rathod,jayeshrathod9999@gmail.com,9737289716,svnit_U15CO082,IQA1AP4A
U15CO009,Gaurav Jat,jatgaurav1234@gmail.com,9460025251,svnit_U15CO009,4QNYOKO1
U15CO049,Vatsal Bhalodi,vatsal.bhalodi343@gmail.com,7405129429,svnit_U15CO049,T976R80Y
U15CO044,Anas Sayed,anassayedmain@gmail.com,9512535208,svnit_U15CO044,DW81VVNV
U15CO016,Hunsii Ashar,asharhunsii@gmail.com,9819351722,svnit_U15CO016,12J8J6FA
U15CO075,Kumari Jagriti,kumarijagrity@gmail.com,6200663091,svnit_U15CO075,OBE2V1CT
U15CO012,Milangiri Gauswami,gauswamimilan248@gmail.com,8866121356,svnit_U15CO012,LE4DQ04O
U15CO095,Srushti Salve,srushtisalve123@gmail.com,9689540969,svnit_U15CO095,Q5R8REYD
U15CO055,Aishwarya Solanki,aishwaryasolanki1997@gmail.com,9714219889,svnit_U15CO055,QLATL79K
U15CO094,Adithi Das,adi.marmie@gmail.com,9512747658,svnit_U15CO094,Y4A359XT
U15CO020,Shailja Shah,shailjashah24@gmail.com,9825747989,svnit_U15CO020,EP5SJLP6
U15CO053,Shweta Khadse,shwetakhadse03@gmail.com,9869616028,svnit_U15CO053,YW82P9CT
U15CO102,Darshil Thakore,darshilthakore@gmail.com,9428520936,svnit_U15CO102,UHFOA4UK
U15CO070,Archit Sharma,archits06@gmail.com,8128454772,svnit_U15CO070,NX197WQT
U15CE005,VORA ANAV MILIND,anavvora@gmail.com,9375420903,svnit_U15CE005,6QVBUO36
U15CE006,LOKHANDWALA ABDULMUTTALIB MURTUZA,aml1105253@gmail.com,9427853110,svnit_U15CE006,87N2367I
U15CE030,RAHUL MODI,agrawalrahul9march@gmail.com,9530026937,svnit_U15CE030,8NIB0W4O
U15CE072,YASH PATEL,yash9ptl@gmail.com,9427202723,svnit_U15CE072,L04QLBG3
U15CE049,BHUTWALA ROHAN DHARMESHKUMAR,rohanbhutwala@gmail.com,9428824019,svnit_U15CE049,A013XHAQ
U15CE036,VISHWASH KUMAR,vishwashkumar012@gmail.com,8740803018,svnit_U15CE036,GEIWWPPC
U15CE045,PIYUSH GAJERA,piyushgajera448@gmail.com,9724943448,svnit_U15CE045,0LG3J0VX
U15CE023,DARSHAN S BHUTA,imdarshan18@gmail.com,9586545591,svnit_U15CE023,EOAUQ9VZ
U15CE067,NEERUKONDA USHASREE,ushasree12.neerukonda@gmail.com,7096381186,svnit_U15CE067,SY220GE8
U15CE073,AAYUSH JAIN,aayushj372@gmail.com,8955048060,svnit_U15CE073,DCRWL5JM
U15CE050,MIHIR BRAHMAKSHATRIYA,mihirbk251997@gmail.com,9104193907,svnit_U15CE050,T8G9FZDH
U15CE094,CHANDER PRAKASH BABAL,chanderparkash1508@gmail.com,7568392001,svnit_U15CE094,HKKAZQ6R
U15CE070,RAVURI NAGA VENKATA RAMAKRISHNA DEEPAK,ravuri.deepak98@gmail.com,9160662662,svnit_U15CE070,FPJPFI0M
U15CE039,MANGESH TAPARE,mangeshtapare11@gmail.com,9173583714,svnit_U15CE039,S4YW6HZB
U15CE025,HITESHBHAI,hiteshbambhaniya17@gmail.com,7405257181,svnit_U15CE025,NG2GN05Z
U15CE011,NAMAN THAWANI,naman.thawani2@gmail.com,8769464607,svnit_U15CE011,R6JI5TE9
U15CE053,SHUBHAM KUMAR MEENA,shubhamk2295@gmail.com,9408586405,svnit_U15CE053,GFV83J89
U15CE056,HEMANT TAILOR,tailorhemant610@gmail.com,8058149055,svnit_U15CE056,NW85V2S1
U15CE061,GANGA RAM,RAMGANGA109@GMAIL.COM,9587449619,svnit_U15CE061,VN2DTYDJ
U15CE018,GAVIT ABHISHEKKUMAR CHHAGANBHAI,abhishekgavit11@gmail.com,9624178561,svnit_U15CE018,0BJLYNK2
U15CE103,MARMIK JARIWALA,jmarmik27@gmail.com,7405034304,svnit_U15CE103,8071PR6Y
U15CE087,KAPIL SHARMA,k.sharmakapil19@gmail.com,8233742535,svnit_U15CE087,GHXDV5DP
U15CE002,PARTHKUMAR SOLANKI,pcsolankinetrang@gmail.com,9408975344,svnit_U15CE002,NU2W203B
U15CE026,RAJESH KUMAR YADAV,ryyadva@gmail.com,7600957025,svnit_U15CE026,T1JPJ4XH
U15CE101,ISHWAR MALAV,ishwarmalav279@gmail.com,8560058031,svnit_U15CE101,4IDYIGZ9
U15CE038,SHIVASAI KRUPAKAR METTU,gautishiva@gmail.com,8897054371,svnit_U15CE038,9ZJ8I3SV
U15CE043,PATEL BANKIMKUMAR PANKAJBHAI,bankimpatel9198@gmail.com,7283906961,svnit_U15CE043,TYAJJ1YF
U15CE019,NISARG N PATEL,nisargpatel14598@gmail.com,7698161866,svnit_U15CE019,HKGXGH6U
U15CE003,HARSH VARDHAN ATTAL,harshattal@gmail.com,9429328588,svnit_U15CE003,UMBAJCI6
U15CE062,SUNIL KUMAR PAREEK,pareeksunil4098@gmail.com,7567715526,svnit_U15CE062,1Q4Q15E5
U15CE063,MANOHAR SINGH,manoharsinghr997@gmail.com,9638527998,svnit_U15CE063,CF0UUBGP
U15CE024,UMESH KUMAR BILONIA,ubilonia@gmail.com,8460321382,svnit_U15CE024,ACIUQI7N
U15CE096,GULSHAN KUMAR,gulmka.15@gmail.com,9709872582,svnit_U15CE096,OUMHDBA2
U15CE037,VINAY KUMAR KHANDEY,vkkhandey16@gmail.com,9131226621,svnit_U15CE037,AWUOW6EJ
U15CE057,DEEPESH KUMAR MEENA,deepeshkumarmeena12@gmail.com,8153025170,svnit_U15CE057,W1TGSPJV
U15CE069,PADISETTI. NEHRU,nehrupadisetti01@gmail.com,7036788155,svnit_U15CE069,43IZC992
U15CE076,ABHISHEK TIWARI,abhishektiwari981996@gmail.com,9998705087,svnit_U15CE076,9H0R1LIC
U15CE086,RAJ GAUTAM,gautamraj320@gmail.com,7043198355,svnit_U15CE086,V034571D
U15CE064,BADIREDDI BHASKAR RAO,bhaskarbadireddi219@gmail.com,7386017282,svnit_U15CE064,ZN102HNL
U15EC117,SANJANA DHIRAN,sanjanadhiran97@gmail.com,9687713384,svnit_U15EC117,UFUNPQZ1
U15EC044,CHERUKURI SRI HARIKA,csriharika1998@gmail.com,9494708626,svnit_U15EC044,RZPSF6LG
U15EC045,POTHUR BHAVANA,bhavanapottur@gmail.com,7202079873,svnit_U15EC045,F4QMT81Y
U15EC064,RACHAMALLU THANMAI,rachamalluthanmai@gmail.com,7096281183,svnit_U15EC064,QS033Y68
U15EC105,PENTELA NAGAPRASANTH,pnpsimhapuri@gmail.com,7069336782,svnit_U15EC105,L0PM8035
U15EC065,MARKAPURAM KAVITHA,manikarnika825@gmail.com,9494504817,svnit_U15EC065,1YJ7PTA4
U15EC067,PALLERLA KEERTHANA,keerthanapallerla@gmail.com,9979527875,svnit_U15EC067,QQD7YKDA
U15EC013,SAUMYA SHRIVASTAVA,saumya.nine@gmail.com,7573048589,svnit_U15EC013,QYVKIKKF
U15EC074,RAVATHU AMOOLYA,ravathuamoolya@gmail.com,8074605976,svnit_U15EC074,P12FX0T8
U15EC043,PATHAKOTA JAYAPAVANI,jpavanip@gmail.com,9512534854,svnit_U15EC043,SES2TATD
U15EC142,PRIYANSHU DALAL,priyanshudalal25@gmail.com,8128455105,svnit_U15EC142,FZRV6W1A
U15EC007,KRUPA AMBRISHBHAI DESAI,krupadesai36@gmail.com,9429989558,svnit_U15EC007,5CU6P18U
U15EC036,KAISHAVI HIRENKUMAR UMRETHWALA,umrethwala.kaishavi@gmail.com,9375921347,svnit_U15EC036,FJ886X7G
U15EC144,DEVANSHI HINDKA,devanshi021@gmail.com,8153025072,svnit_U15EC144,W5RY6K9U
U15EC124,CHIRAG GODAWAT,c.godawat@gmail.com,9408929410,svnit_U15EC124,C45R5BH9
U15EC047,ANMOL SINGHAL,anmolsingal28@gmail.com,8140713455,svnit_U15EC047,PG4DJVOA
U15EC143,AGARWAL PRAERIT PIYUSH,praeritagarwal@gmail.com,9558008390,svnit_U15EC143,95X89MVB
U15EC089,SARASWATHULA VENKATA SAI SRI HARSHA,sriharshasvs1997@gmail.com,7382066781,svnit_U15EC089,XA82ZYQ4
U15EC080,JAY PATEL,jpatel996.jp@gmail.com,9687627853,svnit_U15EC080,5QD7SYDA
U15EC048,KATA TARUNSREE,tarunsreekata@gmail.com,8790265296,svnit_U15EC048,GYNKPITU
U15EC049,C AKHIL CHOWDARY,akhilchowdaryc@gmail.com,9441966427,svnit_U15EC049,TIE4LG3E
U15EC145,EDULAPALLI KEERTHI,keergld@gmail.com,9494612148,svnit_U15EC145,SPQN6X8D
U15EC088,KRISTAM RAJITHA,rajithakristam@gmail.com,8500870183,svnit_U15EC088,I9OUEYNQ
U15EC028,RAHUL GUPTA,rahul005620@gmail.com,7895211854,svnit_U15EC028,BF9MN3UD
U15EC113,HELI AMRUTLAL BAMANIA,helibamania98@gmail.com,8140650161,svnit_U15EC113,2RQ9KALW
U15EC008,KRISHA ENGINEER,eng.krisha97@gmail.com,7359241255,svnit_U15EC008,MLZMY09Z
U15EC085,PALLERLA SAITEJA,saiteja.pallerla3@gmail.com,9687506089,svnit_U15EC085,NLD9DWV1
U15EC137,K BHARAT KUMAR,bharatkumar2k19@gmail.com,9664513052,svnit_U15EC137,55R0NFHQ
U15EC136,MUVVA SAITEJA,saitejageeky@gmail.com,9512534812,svnit_U15EC136,YORJ095S
U15EC107,JAIN PRIYA SANDEEP,jainp5825@gmail.com,7069461992,svnit_U15EC107,QX7AQIN6
U15EC140,VINJAM BHARATH,bharathvinjam@gmail.com,8309715067,svnit_U15EC140,M5SIP0X9
U15EC066,PATEL MINNAT PRAVINBHAI,minnatpatel1997@gmail.com,8156054595,svnit_U15EC066,R98XW999
U15EC075,PRIYANSHI GUPTA,priyanshigpta19@gmail.com,7976403487,svnit_U15EC075,30K0MWIR
U15EC022,HARSHIKA SUBASHI MAHENDIRAN,hsmaas@gmail.com,7096271071,svnit_U15EC022,9XNT7I3D
U15EC131,RACHAMALLA NITIN,mr.nitin143@gmail.com,6303499059,svnit_U15EC131,L6F65Q02
U15EC006,SAPAN VIJAYBHAI PATEL,sapanpatel105@gmail.com,9099929105,svnit_U15EC006,UA86GC4M
U15EC103,ROHAN KUMAR JHA,beingrohan7@gmail.com,9475837930,svnit_U15EC103,7FHHHW34
U15EC139,SAPPA NARENDRA KUMAR,sappanarendra@gmail.com,9512535653,svnit_U15EC139,DH8YS0H8
U15EC019,ABHILASHA PODDAR,iabhilashap@gmail.com,7984672309,svnit_U15EC019,L0U0R2XM
U15EC101,ARADHYA BHATIA,abhatia7198@gmail.com,9737878004,svnit_U15EC101,07YKT0IT
U15EC005,PRAYAS PATNAIK,prayaspatnaik21@gmail.com,7600246850,svnit_U15EC005,OG8SHG10
U15EC053,VIPUL CHAUDHARY,iamvipulchaudhary@gmail.com,9601894089,svnit_U15EC053,ITNR1CNP
U15EC112,MITHANI ADIL IQBAL,adil.mithani619@gmail.com,9727599914,svnit_U15EC112,8IKP2XTS
U15EC129,ABHISHEK SINGH,singhabhishek1924@gmail.com,7984530597,svnit_U15EC129,65SOL4EV
U15EC077,MEESALA RATAN BABU,meesalaratanbabu@gmail.com,8309708101,svnit_U15EC077,JFNX04GW
U15EC097,NALLURI HEMA CHANDRA GUPTA,nallurichandu1866@gmail.com,8140765421,svnit_U15EC097,6YS0DYM8
U15EC125,MADHA MANIDEEP,manipatel1432@gmail.com,9512535802,svnit_U15EC125,76M81W92
U15EC134,KOTHA VENKATA ANIL KUMAR,kothaanil16051998@gmail.com,9512535652,svnit_U15EC134,AOXE6NIX
U15EC138,DUBASI YASHWANTH,yashwanthdubasi10@gmail.com,7569245911,svnit_U15EC138,Z1UT710F
U15EC116,AMAN BHARTI,bhartiaman98@gmail.com,7990607935,svnit_U15EC116,SG3DOLNB
U13EC131,A.HARISH,a.harish136@gmail.com,9542275066,svnit_U13EC131,V2PGBID0
U15ME202,Yash Sutariya,sutariyayash98@gmail.com,9712339088,svnit_U15ME202,VD24HJNG
U15ME010,TARUNKUMAR JOTWANI,tarunjotwani2105@gmail.com,9427847944,svnit_U15ME010,6LM70RBK
U15ME013,NISARG MiSTRI,nisarg.mistri@gmail.com,9426546567,svnit_U15ME013,O6R5W7ZJ
U15ME175,Darshit Bhankhar,darshitbhankhar@gmail.com,9714967891,svnit_U15ME175,ITYNMP7V
U15ME011,Meet Vachhani,meetvachhani2524@gmail.com,7698010388,svnit_U15ME011,C8Y6P71Y
U15ME018,DEEPANSHU AGARWAL,AGARWALD1998@GMAIL.COM,8306261473,svnit_U15ME018,OTCI8664
U15ME025,MAYANK AGRAWAL,msagarawal@gmail.com,8446029753,svnit_U15ME025,PIFRG5RO
U15ME157,PATEL DEEP VIRABHAI,patel.deep2713@gmail.com,9913682376,svnit_U15ME157,CYV5RKVD
U15ME019,SONI MIHIR VIJAYKUMAR,mihirsoni1997.ms@gmail.com ,9879849294,svnit_U15ME019,1B6DVFD4
U15ME226,Arjun Sanghvi,arjunsanghvi1997@gmail.com,9426813552,svnit_U15ME226,58SDHOHK
U15ME027,PATEL MANTHAN KANTILAL,manthan19patel@gmail.com,8980476856,svnit_U15ME027,Q8R314M6
U15ME200,Smit Shah,smitsshah2198@gmail.com,7359532719,svnit_U15ME200,IHXDAGXG
U15ME158,VITESH ASHOKKUMAR DARJI,viteshdarji@gmail.com,9512887999,svnit_U15ME158,FSKX6QWF
U15ME225,Ashutosh Kumar Chaudhary,acashutoshkc@gmail.com,8320761320,svnit_U15ME225,T8CFGULH
U15ME017,PATEL PARTH PRAKASHKUMAR ,patelparth82388@gmail.com,8238800961,svnit_U15ME017,7EPWI18F
U15ME092,Vraj Mehta,Vraj.mehta.153@gmail.com,9558116568,svnit_U15ME092,EVH6HC1R
U15ME228,Sambhav Batra,sambhavbatra123@gmail.com,7597464854,svnit_U15ME228,9US9OZD7
U15ME029,Aditya Gupta,aditya26798@gmail.com,9429897777,svnit_U15ME029,DD1A9M63
U15me141,Rushikesh Shinde,srushikesh25@gmail.com,7020703382,svnit_U15me141,SNU5MVHB
U15ME087,aaditya pagar,aadityapagar98@gmail.com,9974089705,svnit_U15ME087,ZJU9HTJB
U15ME148,NISHANT MISHRA,nishkum2715@gmail.com,9512535504,svnit_U15ME148,AOBJTN28
U15ME137,Abhijeet Thorat,abhijeetthorat15@gmail.com,8421159657,svnit_U15ME137,TL8DEZNU
U15ME007,Shubham Munot,skmunot09@gmail.com,9403513326,svnit_U15ME007,J9LCSACV
U15ME218,Rishabh Jain,567rishabh.jain@gmail.com,9408398662,svnit_U15ME218,RGF7A00S
U15ME006,Rohan Ghanekar,ghanekar12rohan@gmail.com,7567886653,svnit_U15ME006,UBLIZ4CB
U15ME206,DAMANIA JAY ANILKUMAR,damaniajay76@gmail.com,8320299768,svnit_U15ME206,0BCUSLOF
U15ME194,KUNAL PUROHIT,kunal1996.purohit@gmail.com,9512534587,svnit_U15ME194,H6AR5KSE
U15ME096,Aakash Sanjay Mane,aakashmane4@gmail.com,9870559200,svnit_U15ME096,U5HRR2F9
U15ME091,YAGNIKKUMAR PATEL,patelyagnik28@gmail.com,9408016875,svnit_U15ME091,H34YEYFJ
U15ME124,Yash Gattani,yashgattani7@gmail.com,8460720976,svnit_U15ME124,F5PURDYK
U15ME072,KARTIK MUKESHBHAI KHASIYA ,kartik.khasiya@gmail.com ,9099324234,svnit_U15ME072,DQDTAJW5
U15ME154,NITESH SINHA,niteshsinha673@gmail.com,8761987923,svnit_U15ME154,GJG9UR2D
U15ME133,Nisarg Bakshi,nesbak203@gmail.com,9426692320,svnit_U15ME133,6V7I96ME
U15ME028,Chapatwala Abhishek Hemalkumar,abhishekchapatwala@gmail.com,8141730425,svnit_U15ME028,JDUN2V8H
U15ME193,KUSH JAIN,kushjain2014@gmail.com,9512533048,svnit_U15ME193,L2VUGMZ0
U15ME082,Sanket patel,1patelsanket@gmail.com,9723518725,svnit_U15ME082,CZ07ESOB
U15ME169,RAVI SAI PRANEETH,praneethcsk@gmail.com,9512534684,svnit_U15ME169,MZX9IXLN
U15ME161,Saksham Amarya,sakshamamarya@gmail.com,9104142196,svnit_U15ME161,E0RAM8UC
U15ME176,ANSHUL SAHU,anshulsahu010@gmail.com,919407931429,svnit_U15ME176,384ZGC5V
U15ME083,DINESH SUMAN,suman.dinesh96@gmail.com,9509385696,svnit_U15ME083,UKC02ZGA
U15ME103,Piyush Makwana ,Piyushmakwana75675@Gmail.com,8140394577,svnit_U15ME103,E5L304CH
U15ME146,MANTHAN K PARMAR,mann3097@gmail.com,9429106072,svnit_U15ME146,IX8GUQ5B
U15ME054,SHAH RISHI ASHISHKUMAR,rishishah697@gmail.com,9979546592,svnit_U15ME054,KYKNDKOF
U15ME009,Vandan Shah,vandanshah2001@gmail.com,9586887820,svnit_U15ME009,NKKYW32O
U15ME166,Dhairya Sankhla,dsankhla.1997@gmail.com,9829422976,svnit_U15ME166,RPQIZCGW
U15ME003,SACHIN GUNAVANTBHAI BHAKTWALA,sgbhaktwala@gmail.com,8758173477,svnit_U15ME003,RK6ATV8K
U15ME144,MAYUR VORA,vora471998@gmail.com,9904756659,svnit_U15ME144,3QHHGNK5
U15ME109,DIVYA PRATAP MALL ,divyapratapmall.07@gmail.com,9409227991,svnit_U15ME109,P0LN9DCE
U15ME164,Dhruvin Vala,dhruvinvala@gmail.com,8347906897,svnit_U15ME164,7LHA1BYK
U15ME151,ELLENKI VAMSHI MANI TEJA,vamshimanitejaellenki@gmail.com,8465862481,svnit_U15ME151,C49AHU0V
U15ME132,RUSHIKESH NANJIBHAI PRAJAPATI,rushikeshprajapati3@gmail.com,9978986959,svnit_U15ME132,P0IZGENZ
U15ME171,Akash Pattanayak,akashpattanayak1996@gmail.com,9723080196,svnit_U15ME171,TTBPMASM
U15ME070,DIVYA DIPAKBHAI PARMAR ,divyaparmar18997@yahoo.com ,9925038475,svnit_U15ME070,H8HF00LW
U15me187,Malam singh,malamsingh2021@gmail.com,9408746961,svnit_U15me187,S8OR1X2G
U15ME031,NAIK KARANKUMAR KESHAVBHAI,karannaik312@gmail.com,9925995349,svnit_U15ME031,LOOXSQX5
U15ME168,ANIKET SINGH,aniketbtp321001@gmail.com,9649641785,svnit_U15ME168,FJXVO5JE
U15ME140,KARTHIK BOJU,bojukarthik2016@gmail.com,9512535545,svnit_U15ME140,991HIWB6
U15ME173,RAUSHAN KUMAR,raushanresonite@gmail.com,7631904974,svnit_U15ME173,U6LJOQ9L
U15ME165,MIHIR PATEL,patelmihir2013@gmail.com,9594647138,svnit_U15ME165,02B6OJ5O
U15ME203,Manoj saini,manojsaini8589@gmail.com,7976588875,svnit_U15ME203,73JTG17U
U15ME192,Kashyapsinh Rana,kashyaprana97@gmail.com,9638962246,svnit_U15ME192,FDLKZSGL
U15ME183,KANDIBOINA SAI CHARAN,charan1103@gmail.com,9408747804,svnit_U15ME183,JEN1FZXH
U15ME182,SHAIK SURAJ,surajshaik463@gmail.com,9492094898,svnit_U15ME182,0SBEPEDT
U15ME199,Chetan M. Sonigra,sonigrachetan44@gmail.com,8490907142,svnit_U15ME199,N5MV6X9R
U15ME068,JAYKUMAR PRAKASHKUMAR PARMAR,jay97par@gmail.com,8511656538,svnit_U15ME068,DCU8DM8J
U15ME076,Yash Patil,yashpatil3397@gmail.com,9624442428,svnit_U15ME076,JE0ABAMA
U15ME208,BHURBHUVA CHAUHAN,bbc22061997@gmail.com,9979888432,svnit_U15ME208,1HXLWY7M
U15ME188,AKEPATI SAI CHARAN REDDY,Saicharanreddy.akepati@gmail.com,9676559916,svnit_U15ME188,5BJ72UX8
U15me214,Bhanu Pratap Bose,bhanu.p.bose@gmail.com,9636062102,svnit_U15me214,RO9XDC3Z
U15ME001,Meet patel,Meetpatel118@gmail.com ,9265983401,svnit_U15ME001,D4C1LDNC
U15ME215,LAXMAN KUMAR,laxmanlakhani577@gmail.com,7096271495,svnit_U15ME215,4H3JT4EC
U15ME036,ABHISHEK CHINTAMANI TAMHANKAR ,abhict97@gmail.com ,9638995206,svnit_U15ME036,ZSWQ3QQX
U15ME008,DHRUMIL SHAH,sdhrumil78@yahoo.in,9429542234,svnit_U15ME008,YRDE9M7O
U15ME160,PURUSHOTTAM VERMA,vermapk002@gmail.com,7069339164,svnit_U15ME160,2JJI2DJJ
U15ME172 ,GADHAVI JAYRAJDAN KANAKDAN,jayrajk13@gmail.com,9925124102,svnit_U15ME172 ,YOWYYWGS
U15ME118,Vipul Vijay Parulekar,vipulvparulekar@gmail.com ,7021074382,svnit_U15ME118,8R07S9H7
U15ME221,VAMSI GADDAMADUGU,vamsigaddamadugu13@gmail.com,9642528242,svnit_U15ME221,1NRAWJLF
I14MA013,Supriya Murdia,supriya.murdia@gmail.com,9140077048,svnit_I14MA013,HYQ49UAH
I14MA054,PATEL VARSHABEN HASMUKHBHAI,patelvarsha385@gmail.com,9537241135,svnit_I14MA054,MB5560E1
I14MA009,Sahu nagesh sumanshankar,Sahunagesh5@gmail.com,8460511839,svnit_I14MA009,JCOR4YFB
I14MA018,Nanavati Kavit Akhilesh,kavitnanavati@gmail.com,9484468653,svnit_I14MA018,97HPI2U1
I14MA030,Rakesh ranjan,rakesh070196@gmail.com,7284804847,svnit_I14MA030,2QII68AA
I14MA019,Judewin Elson J,judewin.elson@gmail.com,7010847916,svnit_I14MA019,1D7GSF9P
I14MA001,Sakariya Harshadkumar Harshukhbhai,Harshadsakariya1903@gmail.com,9016964375,svnit_I14MA001,SCTRCFV2
I14MA035,BANDI DILLI KUMAR REDDY,dillikumar1997@gmail.com,8980579735,svnit_I14MA035,0M0VIH38
I14ma033,Rathod Saloniba Kuldeepsinh ,salonilpmp@gmail.com,7817079739,svnit_I14ma033,LM7ILJ52
I14ma014,Sedu ram,Seduram37.sr@gmail.com,7284879614,svnit_I14ma014,7J6KX1BW
I14MA022,FALDU PARTHKUMAR ROHITBHAI,FALDUPARTH1997@GMAIL.COM,9638414266,svnit_I14MA022,OJM9C109
I14MA006,Punit Yadav,Puneetyadav95@gmail.com,7046729984,svnit_I14MA006,Y7VPI3OP
I14MA027,KULDIP MISHRA,kuldipi14ma027@gmail.com,8238285251,svnit_I14MA027,Z2PQDOPP
I14ma017,Om Prakash tokas,optokassvnit54@gmail.com ,7096878489,svnit_I14ma017,D078Q0VC
I14MA011,Radhika,radhikaalok9@gmail.com,7203922292,svnit_I14MA011,SML79IRI
I14MA004,Yengkhom Priya Devi,ypriyakak@gmail.com,9638286139,svnit_I14MA004,KK9NQ1N6
I14MA010,VARSHA KUMARI,varsha218912@gmail.com,9173665131,svnit_I14MA010,Q3TZCQGQ
I14MA042,AMANDEEP KAUR,aman77366@gmail.com,9408763103,svnit_I14MA042,BKA7G2PR
I14MA028,Rakesh ranjan,Rakeshranjan620@gmail.com,7004723407,svnit_I14MA028,7NBASMY5
I14MA023,ABHISHEK,abhimaths95@gmail.com,9537659890,svnit_I14MA023,WWMCUD4L
I14MA049,YADAV JYOTI UGRASEN ,joyyadav3097@gmail.com ,7016712190,svnit_I14MA049,OOHAQ937
I14MA016,THUMMAR SAGARKUMAR JAMANBHAI,thummarsagar0@gmail.com,8141673221,svnit_I14MA016,L9LINCLL
I14MA003,RAHUL KUMAR MEENA ,meenarahul293@gmail.com,7041827162,svnit_I14MA003,MX4AILI9
I14MA037,Kavita Kumari Meena,meena07kavita@gmail.com,8141505818,svnit_I14MA037,7GCBGOU3
I14MA005,Sartanpara Parthkumar Pravinbhai,sartanpara.@gmail.com,9426845208,svnit_I14MA005,TYOTL8PU
U15EE068,ADITYA AGRAWAL,agrawaladitya1000@gmail.com,9454387172,svnit_U15EE068,F7IZPEOW
U15EE022,MANSI JHA,mansijha99@gmail.com,8652665861,svnit_U15EE022,FUSDPKEQ
U15EE066,AAKASH NEVE,akhneve@gmail.com,9033010060,svnit_U15EE066,X8O2XR9Z
U15EE015,MANSI SHAH,shahmansi997@gmail.com,9586991443,svnit_U15EE015,V55XX7BB
U15EE089,SHIPRA NEHRA,shipranehra15798@gmail.com,7227800835,svnit_U15EE089,IUDG051Y
U15EE071,SAKSHI SHANDILYA,sakshishandily@gmail.com,7069339175,svnit_U15EE071,4SJYUPDW
U15EE082,ADVAIT KASHIKAR,advaitkashikar3@gmail.com,9574014440,svnit_U15EE082,CYPST1YL
U15EE096,SAURAV SANJAY SURWADE,sauravsurwade2896@gmail.com,9558190865,svnit_U15EE096,RT6D73Q5
U15EE010,SMARANIKA PATRA,smaranikapatra1@gmail.com,8460588717,svnit_U15EE010,ZPMYNXZ4
U15EE050,DEVENDRA SINGH BAJIYA ,devbajiya90@gmail.com,9408534531,svnit_U15EE050,BIFDVES8
U15EE067,DIVYA TANWAR,divya9460251248@gmail.com,8155890048,svnit_U15EE067,PLC7OZ97
U15EE072,BORICHA RIDDHI,riddhiboricha26@gmail.com,8160379301,svnit_U15EE072,1CGUZASP
U15EE091,SAGAR BAGRA,sagarbagra1996@gmail.com,8306436369,svnit_U15EE091,TOHG3LVS
U15EE009,SANDEEP GUPTA,guptasandeep11297@gmail.com,9737838508,svnit_U15EE009,R7UP4QMJ
U15EE016,JIGAR J GOSWAMI,JIGAR21196@GMAIL.COM,7383972453,svnit_U15EE016,TWMB1WQE
U15EE103,MANISH CHOUDHARY,mkadwa62@gmIl.com,8619884243,svnit_U15EE103,C6IV3X7F
U15EE058,PURUSHOTTAM KUMAR,purushottam15797@gmail.com,9512535922,svnit_U15EE058,O5DZFD36
U15EE092,AELLA VISHAL REDDY,aellavishalreddy@gmail.com,9512536791,svnit_U15EE092,PUZWAE8M
U15EE099,RUDRAKSH PANCHAL,rudrakshpanchal252@gmail.com,8469669946,svnit_U15EE099,5DPI528T
U15EE106,SHUBHAM SHARMA,shubhameverrocks@gmail.com,7046912648,svnit_U15EE106,4DR5PF4X
U15EE097,RAVI KUMAR VERMA,rkvermanitw@gmail.com,7732919285,svnit_U15EE097,9D538OLZ
