Username,Password
svnit_extra1,AICBZ2PF
svnit_extra2,U0M3KQOF
svnit_extra3,N11002MA
svnit_extra4,Z74UM9M3
svnit_extra5,BK7BLYQL
svnit_extra6,HR05RLKX
svnit_extra7,Q09L7Z7J
svnit_extra8,9335H0BY
svnit_extra9,DAAFWXJQ
svnit_extra10,PG1B12UQ
svnit_extra11,PZ3PDF81
svnit_extra12,4WXDRJ7W
svnit_extra13,ERL5LTVH
svnit_extra14,EAY73FG2
svnit_extra15,8F4HUZCB
svnit_extra16,ZAN14DP6
svnit_extra17,HCYC9ZEI
svnit_extra18,LIP2646K
svnit_extra19,PNNXAMNV
svnit_extra20,Y4MT4P65
svnit_extra21,BA29NBF8
svnit_extra22,K0Y89B5T
svnit_extra23,ANHKFCOL
svnit_extra24,ZCLCY393
svnit_extra25,01GY8JME
svnit_extra26,X4P5C6JO
svnit_extra27,UGBV3004
svnit_extra28,PJH6XLZM
svnit_extra29,G6MULLL2
svnit_extra30,D4WPPY6X
svnit_extra31,S8JHJC99
svnit_extra32,WJRDHOFX
svnit_extra33,1VJM8DMQ
svnit_extra34,62I4BVR8
svnit_extra35,L7MVVS8S
svnit_extra36,TLD7GPNB
svnit_extra37,J9TFS9AK
svnit_extra38,SQR9BPQ9
svnit_extra39,T1RAQ5B8
svnit_extra40,HLN7XUSX
svnit_extra41,LVV821C1
svnit_extra42,YO7TZNGO
svnit_extra43,ER91V2VY
svnit_extra44,45EDAAO0
svnit_extra45,VT59NVQN
svnit_extra46,ZEA9C542
svnit_extra47,7SC1QM0V
svnit_extra48,XE61OXY5
svnit_extra49,Y23D6EMA
svnit_extra50,DGHK6G6E
