Name,College ID,Email Address,Username,Password,Email Address 2
Prabhat Kumar,2015UGCS092,2015ugcse092@nitjsr.ac.in,nitjsr_2015UGCS092,QP22D1FV,prabhtkmr011@gmail.com
ROHIT KUMAR RAJWAR,2015UGEE008,2015ugee008@nitjsr.ac.in,nitjsr_2015UGEE008,9YZ4Q2OB,2015ugee008@gmail.com
Sumit Kumar,2015UGMM068,2015ugmm068@nitjsr.ac.in,nitjsr_2015UGMM068,PEHI7KCP,2015ugmm068@gmail.com
